Control Word:3
Speed Begin:200
Speed End:600
StepCount:21000
StepMode:1
- - Intial Registers begin - -
State Word:a7e66  Speed:600.00  Motor Position:-517
- - Intial Registers end- -
State Word:a7e66  Speed:600.00  Motor Position:-593
