Control Word:5
 Speed Begin:100
 Speed End:2000
 StepCount:6000
 StepMode:1
 
- - Intial Registers begin - -
State Word:7e02  Speed:0.00  Motor Position:0
- - Intial Registers end- -
State Word:47e62  Speed:1997.99  Motor Position:-216
State Word:47e62  Speed:1997.99  Motor Position:-536
State Word:47e62  Speed:1997.99  Motor Position:-856
State Word:47e62  Speed:1997.99  Motor Position:-1176
State Word:47e62  Speed:1997.99  Motor Position:-1475
State Word:47e62  Speed:1997.99  Motor Position:-1795
State Word:47e62  Speed:1997.99  Motor Position:-2115
State Word:47e62  Speed:1997.99  Motor Position:-2435
State Word:47e62  Speed:1997.99  Motor Position:-2755
State Word:47e40  Speed:798.99  Motor Position:-3003
State Word:47e02  Speed:0.00  Motor Position:0
- - Registers after stop begin - -
State Word:47e02  Speed:0.00  Motor Position:0
- - Registers after stop end - -
