^C:\USERS\MOLOTALIEV\DOCUMENTS\VISUAL STUDIO 2010\PROJECTS\MSPINTOOL\MSPINTOOL\DEBUG\.NETFRAMEWORK,VERSION=V4.0.ASSEMBLYATTRIBUTES.OBJ|C:\USERS\MOLOTALIEV\DOCUMENTS\VISUAL STUDIO 2010\PROJECTS\MSPINTOOL\MSPINTOOL\DEBUG\APP.RES|C:\USERS\MOLOTALIEV\DOCUMENTS\VISUAL STUDIO 2010\PROJECTS\MSPINTOOL\MSPINTOOL\DEBUG\ASSEMBLYINFO.OBJ|C:\USERS\MOLOTALIEV\DOCUMENTS\VISUAL STUDIO 2010\PROJECTS\MSPINTOOL\MSPINTOOL\DEBUG\MSPINTOOL.OBJ|C:\USERS\MOLOTALIEV\DOCUMENTS\VISUAL STUDIO 2010\PROJECTS\MSPINTOOL\MSPINTOOL\DEBUG\STDAFX.OBJ
/ERRORREPORT:PROMPT /OUT:"c:\users\molotaliev\documents\visual studio 2010\Projects\MSpinTool\Debug\MSpinTool.exe" /INCREMENTAL /NOLOGO /ASSEMBLYRESOURCE:Debug\MSpinTool.MainForm.resources /MANIFEST /ManifestFile:"Debug\MSpinTool.exe.intermediate.manifest" /MANIFESTUAC:"level='asInvoker' uiAccess='false'" /DEBUG /PDB:"c:\users\molotaliev\documents\visual studio 2010\Projects\MSpinTool\Debug\MSpinTool.pdb" /ASSEMBLYDEBUG /SUBSYSTEM:WINDOWS /TLBID:1 /ENTRY:"main" /DYNAMICBASE /FIXED:NO /NXCOMPAT /MACHINE:X86 Debug\app.res
Debug\AssemblyInfo.obj
Debug\MSpinTool.obj
Debug\stdafx.obj
"Debug\.NETFramework,Version=v4.0.AssemblyAttributes.obj"
