^C:\USERS\MOLOTALIEV\DOCUMENTS\VISUAL STUDIO 2010\PROJECTS\MSPINTOOL\MSPINTOOL\DEBUG\.NETFRAMEWORK,VERSION=V4.0.ASSEMBLYATTRIBUTES.OBJ|C:\USERS\MOLOTALIEV\DOCUMENTS\VISUAL STUDIO 2010\PROJECTS\MSPINTOOL\MSPINTOOL\DEBUG\APP.RES|C:\USERS\MOLOTALIEV\DOCUMENTS\VISUAL STUDIO 2010\PROJECTS\MSPINTOOL\MSPINTOOL\DEBUG\ASSEMBLYINFO.OBJ|C:\USERS\MOLOTALIEV\DOCUMENTS\VISUAL STUDIO 2010\PROJECTS\MSPINTOOL\MSPINTOOL\DEBUG\MSPINTOOL.OBJ|C:\USERS\MOLOTALIEV\DOCUMENTS\VISUAL STUDIO 2010\PROJECTS\MSPINTOOL\MSPINTOOL\DEBUG\STDAFX.OBJ
C:\USERS\MOLOTALIEV\DOCUMENTS\VISUAL STUDIO 2010\PROJECTS\MSPINTOOL\DEBUG\MSPINTOOL.ILK
C:\USERS\MOLOTALIEV\DOCUMENTS\VISUAL STUDIO 2010\PROJECTS\MSPINTOOL\DEBUG\MSPINTOOL.EXE
C:\USERS\MOLOTALIEV\DOCUMENTS\VISUAL STUDIO 2010\PROJECTS\MSPINTOOL\MSPINTOOL\DEBUG\MSPINTOOL.EXE.INTERMEDIATE.MANIFEST
C:\USERS\MOLOTALIEV\DOCUMENTS\VISUAL STUDIO 2010\PROJECTS\MSPINTOOL\DEBUG\MSPINTOOL.PDB
