Control Word:0
Speed Begin:100
Speed End:600
StepCount:7000
StepMode:1
- - Intial Registers begin - -
State Word:37e06  Speed:0.00  Motor Position:-1056
- - Intial Registers end- -
State Word:37e34  Speed:317.99  Motor Position:36
State Word:27e34  Speed:517.99  Motor Position:103
State Word:27e76  Speed:600.00  Motor Position:196
State Word:27e76  Speed:600.00  Motor Position:292
State Word:27e76  Speed:600.00  Motor Position:388
State Word:27e76  Speed:600.00  Motor Position:485
State Word:27e76  Speed:600.00  Motor Position:561
State Word:27e76  Speed:600.00  Motor Position:657
State Word:27e76  Speed:600.00  Motor Position:753
State Word:27e76  Speed:600.00  Motor Position:849
State Word:27e76  Speed:600.00  Motor Position:945
State Word:27e76  Speed:600.00  Motor Position:1041
State Word:27e76  Speed:600.00  Motor Position:1136
State Word:27e76  Speed:600.00  Motor Position:1233
State Word:27e76  Speed:600.00  Motor Position:1329
State Word:27e76  Speed:600.00  Motor Position:1425
State Word:27e76  Speed:600.00  Motor Position:1501
State Word:27e76  Speed:600.00  Motor Position:1597
State Word:27e76  Speed:600.00  Motor Position:1693
State Word:27e76  Speed:600.00  Motor Position:1789
State Word:27e76  Speed:600.00  Motor Position:1885
State Word:27e76  Speed:600.00  Motor Position:1981
State Word:27e76  Speed:600.00  Motor Position:2058
State Word:27e76  Speed:600.00  Motor Position:2154
State Word:27e76  Speed:600.00  Motor Position:2250
State Word:27e76  Speed:600.00  Motor Position:2346
State Word:27e76  Speed:600.00  Motor Position:2442
State Word:27e76  Speed:600.00  Motor Position:2544
State Word:27e76  Speed:600.00  Motor Position:2620
State Word:27e76  Speed:600.00  Motor Position:2716
State Word:27e76  Speed:600.00  Motor Position:2813
State Word:27e76  Speed:600.00  Motor Position:2889
State Word:27e76  Speed:600.00  Motor Position:2985
State Word:27e76  Speed:600.00  Motor Position:3081
State Word:27e76  Speed:600.00  Motor Position:3177
State Word:27e76  Speed:600.00  Motor Position:3273
State Word:27e76  Speed:600.00  Motor Position:3369
State Word:27e76  Speed:600.00  Motor Position:3465
State Word:27e76  Speed:600.00  Motor Position:3562
State Word:27e76  Speed:600.00  Motor Position:3657
State Word:27e76  Speed:600.00  Motor Position:3754
State Word:27e76  Speed:600.00  Motor Position:3849
State Word:27e76  Speed:600.00  Motor Position:3945
State Word:27e76  Speed:600.00  Motor Position:4041
State Word:27e76  Speed:600.00  Motor Position:4137
State Word:27e76  Speed:600.00  Motor Position:4233
State Word:27e76  Speed:600.00  Motor Position:4329
State Word:27e76  Speed:600.00  Motor Position:4425
State Word:27e76  Speed:600.00  Motor Position:4521
State Word:27e76  Speed:600.00  Motor Position:4617
State Word:27e76  Speed:600.00  Motor Position:4713
State Word:27e76  Speed:600.00  Motor Position:4815
State Word:27e76  Speed:600.00  Motor Position:4911
State Word:27e76  Speed:600.00  Motor Position:5007
State Word:27e76  Speed:600.00  Motor Position:5103
State Word:27e76  Speed:600.00  Motor Position:5199
State Word:27e76  Speed:600.00  Motor Position:5295
State Word:27e76  Speed:600.00  Motor Position:5391
State Word:27e76  Speed:600.00  Motor Position:5487
State Word:27e76  Speed:600.00  Motor Position:5582
State Word:27e76  Speed:600.00  Motor Position:5660
State Word:27e76  Speed:600.00  Motor Position:5755
State Word:27e76  Speed:600.00  Motor Position:5851
State Word:37e76  Speed:600.00  Motor Position:5947
State Word:37e76  Speed:600.00  Motor Position:6043
State Word:27e76  Speed:600.00  Motor Position:6120
State Word:27e76  Speed:600.00  Motor Position:6216
State Word:27e76  Speed:600.00  Motor Position:6312
State Word:27e76  Speed:600.00  Motor Position:6407
State Word:27e76  Speed:600.00  Motor Position:6503
State Word:27e76  Speed:600.00  Motor Position:6600
State Word:27e76  Speed:600.00  Motor Position:6696
State Word:27e76  Speed:600.00  Motor Position:6792
State Word:27e76  Speed:600.00  Motor Position:6888
State Word:27e76  Speed:600.00  Motor Position:6984
State Word:27e54  Speed:200.99  Motor Position:7053
State Word:27e16  Speed:0.00  Motor Position:7058
- - Registers after stop begin - -
State Word:27e16  Speed:0.00  Motor Position:7058
- - Registers after stop end - -
