Control Word:0
Speed Begin:100
Speed End:1685
StepCount:6500
StepMode:1
- - Intial Registers begin - -
State Word:37e06  Speed:0.00  Motor Position:-653
- - Intial Registers end- -
State Word:27e34  Speed:787.99  Motor Position:77
State Word:27e34  Speed:1294.99  Motor Position:210
State Word:27e76  Speed:1684.99  Motor Position:461
State Word:27e76  Speed:1684.99  Motor Position:675
State Word:27e76  Speed:1684.99  Motor Position:944
State Word:27e76  Speed:1684.99  Motor Position:1160
State Word:27e76  Speed:1684.99  Motor Position:1430
State Word:27e76  Speed:1684.99  Motor Position:1646
State Word:27e76  Speed:1684.99  Motor Position:1861
State Word:27e76  Speed:1684.99  Motor Position:2077
State Word:27e76  Speed:1684.99  Motor Position:2293
State Word:27e76  Speed:1684.99  Motor Position:2564
State Word:27e76  Speed:1684.99  Motor Position:2832
State Word:27e76  Speed:1684.99  Motor Position:3100
State Word:27e76  Speed:1684.99  Motor Position:3370
State Word:27e76  Speed:1684.99  Motor Position:3639
State Word:27e76  Speed:1684.99  Motor Position:3909
State Word:27e76  Speed:1684.99  Motor Position:4179
State Word:27e76  Speed:1684.99  Motor Position:4448
State Word:27e76  Speed:1684.99  Motor Position:4718
State Word:27e76  Speed:1684.99  Motor Position:4988
State Word:27e76  Speed:1684.99  Motor Position:5257
State Word:27e76  Speed:1684.99  Motor Position:5527
State Word:27e76  Speed:1684.99  Motor Position:5797
State Word:27e76  Speed:1684.99  Motor Position:6066
State Word:27e76  Speed:1684.99  Motor Position:6336
State Word:27e54  Speed:1162.99  Motor Position:6588
State Word:27e16  Speed:0.00  Motor Position:6668
- - Registers after stop begin - -
State Word:27e16  Speed:0.00  Motor Position:6668
- - Registers after stop end - -
