Control Word:0
Speed Begin:100
Speed End:1065
StepCount:6500
StepMode:1
- - Intial Registers begin - -
State Word:37e06  Speed:0.00  Motor Position:-589
- - Intial Registers end- -
State Word:27e34  Speed:517.00  Motor Position:53
State Word:27e34  Speed:829.00  Motor Position:140
State Word:27e76  Speed:1064.99  Motor Position:298
State Word:27e76  Speed:1064.99  Motor Position:434
State Word:27e76  Speed:1064.99  Motor Position:571
State Word:27e76  Speed:1064.99  Motor Position:707
State Word:27e76  Speed:1064.99  Motor Position:843
State Word:27e76  Speed:1064.99  Motor Position:1014
State Word:27e76  Speed:1064.99  Motor Position:1184
State Word:27e76  Speed:1064.99  Motor Position:1355
State Word:27e76  Speed:1064.99  Motor Position:1525
State Word:27e76  Speed:1064.99  Motor Position:1696
State Word:27e76  Speed:1064.99  Motor Position:1865
State Word:27e76  Speed:1064.99  Motor Position:2071
State Word:27e76  Speed:1064.99  Motor Position:2240
State Word:27e76  Speed:1064.99  Motor Position:2410
State Word:27e76  Speed:1064.99  Motor Position:2547
State Word:27e76  Speed:1064.99  Motor Position:2682
State Word:27e76  Speed:1064.99  Motor Position:2854
State Word:27e76  Speed:1064.99  Motor Position:2990
State Word:27e76  Speed:1064.99  Motor Position:3160
State Word:27e76  Speed:1064.99  Motor Position:3331
State Word:27e76  Speed:1064.99  Motor Position:3501
State Word:27e76  Speed:1064.99  Motor Position:3672
State Word:27e76  Speed:1064.99  Motor Position:3841
State Word:27e76  Speed:1064.99  Motor Position:4011
State Word:27e76  Speed:1064.99  Motor Position:4182
State Word:27e76  Speed:1064.99  Motor Position:4318
State Word:27e76  Speed:1064.99  Motor Position:4489
State Word:27e76  Speed:1064.99  Motor Position:4659
State Word:27e76  Speed:1064.99  Motor Position:4830
State Word:27e76  Speed:1064.99  Motor Position:4999
State Word:27e76  Speed:1064.99  Motor Position:5170
State Word:27e76  Speed:1064.99  Motor Position:5341
State Word:27e76  Speed:1064.99  Motor Position:5511
State Word:27e76  Speed:1064.99  Motor Position:5681
State Word:27e76  Speed:1064.99  Motor Position:5851
State Word:37e76  Speed:1064.99  Motor Position:6023
State Word:27e76  Speed:1064.99  Motor Position:6193
State Word:27e76  Speed:1064.99  Motor Position:6328
State Word:27e76  Speed:1064.99  Motor Position:6499
State Word:27e54  Speed:217.99  Motor Position:6602
State Word:27e16  Speed:0.00  Motor Position:6606
- - Registers after stop begin - -
State Word:27e16  Speed:0.00  Motor Position:6606
- - Registers after stop end - -
