ABS_POS= 113
EL_POS= 0
MARK= 0
SPEED= 0
ACC= 155
DEC= 344
MAX_SPEED= 1023
MIN_SPEED= 213
FS_SPD= 1022
TVAL_HOLD= 1
TVAL_RUN= 24
TVAL_ACC= 24
TVAL_DEC= 24
T_FAST= 0x19
TON_MIN= 41
TOFF_MIN = 41
ADC_OUT= 40
OCD_TH= 8
STEP_MODE= 137
ALARM_EN= 255
GATECFG1= 0
GATECFG2= 1
CONFIG= 0x150c
STATUS= 0x7e66
