Control Word:0
Speed Begin:100
Speed End:668
StepCount:6050
StepMode:1
- - Intial Registers begin - -
State Word:17e06  Speed:0.00  Motor Position:-109
- - Intial Registers end- -
State Word:17e34  Speed:258.00  Motor Position:20
State Word:17e34  Speed:306.00  Motor Position:29
State Word:7e34  Speed:399.99  Motor Position:53
State Word:7e34  Speed:489.00  Motor Position:81
State Word:7e34  Speed:580.00  Motor Position:115
State Word:7e76  Speed:667.99  Motor Position:155
State Word:7e76  Speed:667.99  Motor Position:198
State Word:7e76  Speed:667.99  Motor Position:241
State Word:7e76  Speed:667.99  Motor Position:283
State Word:7e76  Speed:667.99  Motor Position:326
State Word:7e76  Speed:667.99  Motor Position:369
State Word:7e76  Speed:667.99  Motor Position:412
State Word:7e76  Speed:667.99  Motor Position:454
State Word:7e76  Speed:667.99  Motor Position:497
State Word:7e76  Speed:667.99  Motor Position:540
State Word:7e76  Speed:667.99  Motor Position:582
State Word:7e76  Speed:667.99  Motor Position:625
State Word:7e76  Speed:667.99  Motor Position:668
State Word:7e76  Speed:667.99  Motor Position:711
State Word:7e76  Speed:667.99  Motor Position:754
State Word:7e76  Speed:667.99  Motor Position:796
State Word:7e76  Speed:667.99  Motor Position:839
State Word:7e76  Speed:667.99  Motor Position:882
State Word:7e76  Speed:667.99  Motor Position:924
State Word:7e76  Speed:667.99  Motor Position:968
State Word:7e76  Speed:667.99  Motor Position:1009
State Word:7e76  Speed:667.99  Motor Position:1052
State Word:7e76  Speed:667.99  Motor Position:1096
State Word:7e76  Speed:667.99  Motor Position:1139
State Word:7e76  Speed:667.99  Motor Position:1181
State Word:7e76  Speed:667.99  Motor Position:1223
State Word:7e76  Speed:667.99  Motor Position:1267
State Word:7e76  Speed:667.99  Motor Position:1309
State Word:7e76  Speed:667.99  Motor Position:1352
State Word:7e76  Speed:667.99  Motor Position:1394
State Word:7e76  Speed:667.99  Motor Position:1437
State Word:7e76  Speed:667.99  Motor Position:1480
State Word:7e76  Speed:667.99  Motor Position:1522
State Word:7e76  Speed:667.99  Motor Position:1554
State Word:7e76  Speed:667.99  Motor Position:1596
State Word:7e76  Speed:667.99  Motor Position:1639
State Word:7e76  Speed:667.99  Motor Position:1682
State Word:7e76  Speed:667.99  Motor Position:1725
State Word:7e76  Speed:667.99  Motor Position:1767
State Word:7e76  Speed:667.99  Motor Position:1810
State Word:7e76  Speed:667.99  Motor Position:1853
State Word:7e76  Speed:667.99  Motor Position:1896
State Word:7e76  Speed:667.99  Motor Position:1938
State Word:7e76  Speed:667.99  Motor Position:1981
State Word:7e76  Speed:667.99  Motor Position:2024
State Word:7e76  Speed:667.99  Motor Position:2067
State Word:7e76  Speed:667.99  Motor Position:2109
State Word:7e76  Speed:667.99  Motor Position:2152
State Word:7e76  Speed:667.99  Motor Position:2194
State Word:7e76  Speed:667.99  Motor Position:2237
State Word:7e76  Speed:667.99  Motor Position:2280
State Word:7e76  Speed:667.99  Motor Position:2323
State Word:7e76  Speed:667.99  Motor Position:2365
State Word:7e76  Speed:667.99  Motor Position:2408
State Word:7e76  Speed:667.99  Motor Position:2451
State Word:7e76  Speed:667.99  Motor Position:2494
State Word:7e76  Speed:667.99  Motor Position:2536
State Word:7e76  Speed:667.99  Motor Position:2579
State Word:7e76  Speed:667.99  Motor Position:2622
State Word:7e76  Speed:667.99  Motor Position:2665
State Word:7e76  Speed:667.99  Motor Position:2707
State Word:7e76  Speed:667.99  Motor Position:2750
State Word:7e76  Speed:667.99  Motor Position:2793
State Word:7e76  Speed:667.99  Motor Position:2836
State Word:7e76  Speed:667.99  Motor Position:2878
State Word:7e76  Speed:667.99  Motor Position:2921
State Word:27e76  Speed:667.99  Motor Position:2964
State Word:27e76  Speed:667.99  Motor Position:3007
State Word:27e76  Speed:667.99  Motor Position:3050
State Word:7e76  Speed:667.99  Motor Position:3092
State Word:7e76  Speed:667.99  Motor Position:3135
State Word:7e76  Speed:667.99  Motor Position:3178
State Word:7e76  Speed:667.99  Motor Position:3221
State Word:7e76  Speed:667.99  Motor Position:3263
State Word:7e76  Speed:667.99  Motor Position:3305
State Word:7e76  Speed:667.99  Motor Position:3349
State Word:7e76  Speed:667.99  Motor Position:3392
State Word:7e76  Speed:667.99  Motor Position:3434
State Word:7e76  Speed:667.99  Motor Position:3476
State Word:7e76  Speed:667.99  Motor Position:3519
State Word:7e76  Speed:667.99  Motor Position:3562
State Word:7e76  Speed:667.99  Motor Position:3605
State Word:7e76  Speed:667.99  Motor Position:3648
State Word:7e76  Speed:667.99  Motor Position:3690
State Word:7e76  Speed:667.99  Motor Position:3733
State Word:7e76  Speed:667.99  Motor Position:3776
State Word:7e76  Speed:667.99  Motor Position:3819
State Word:7e76  Speed:667.99  Motor Position:3861
State Word:7e76  Speed:667.99  Motor Position:3904
State Word:7e76  Speed:667.99  Motor Position:3947
State Word:7e76  Speed:667.99  Motor Position:3990
State Word:7e76  Speed:667.99  Motor Position:4032
State Word:7e76  Speed:667.99  Motor Position:4075
State Word:7e76  Speed:667.99  Motor Position:4118
State Word:7e76  Speed:667.99  Motor Position:4161
State Word:7e76  Speed:667.99  Motor Position:4203
State Word:7e76  Speed:667.99  Motor Position:4246
State Word:7e76  Speed:667.99  Motor Position:4288
State Word:7e76  Speed:667.99  Motor Position:4332
State Word:7e76  Speed:667.99  Motor Position:4374
State Word:7e76  Speed:667.99  Motor Position:4417
State Word:7e76  Speed:667.99  Motor Position:4460
State Word:7e76  Speed:667.99  Motor Position:4503
State Word:7e76  Speed:667.99  Motor Position:4546
State Word:7e76  Speed:667.99  Motor Position:4588
State Word:7e76  Speed:667.99  Motor Position:4630
State Word:7e76  Speed:667.99  Motor Position:4673
State Word:7e76  Speed:667.99  Motor Position:4716
State Word:7e76  Speed:667.99  Motor Position:4759
State Word:7e76  Speed:667.99  Motor Position:4801
State Word:7e76  Speed:667.99  Motor Position:4845
State Word:7e76  Speed:667.99  Motor Position:4887
State Word:7e76  Speed:667.99  Motor Position:4930
State Word:7e76  Speed:667.99  Motor Position:4973
State Word:7e76  Speed:667.99  Motor Position:5015
State Word:7e76  Speed:667.99  Motor Position:5058
State Word:7e76  Speed:667.99  Motor Position:5101
State Word:7e76  Speed:667.99  Motor Position:5144
State Word:7e76  Speed:667.99  Motor Position:5186
State Word:7e76  Speed:667.99  Motor Position:5229
State Word:7e76  Speed:667.99  Motor Position:5272
State Word:7e76  Speed:667.99  Motor Position:5315
State Word:7e76  Speed:667.99  Motor Position:5357
State Word:7e76  Speed:667.99  Motor Position:5400
State Word:7e76  Speed:667.99  Motor Position:5443
State Word:7e76  Speed:667.99  Motor Position:5486
State Word:7e76  Speed:667.99  Motor Position:5528
State Word:7e76  Speed:667.99  Motor Position:5571
State Word:7e76  Speed:667.99  Motor Position:5614
State Word:7e76  Speed:667.99  Motor Position:5657
State Word:7e76  Speed:667.99  Motor Position:5699
State Word:7e76  Speed:667.99  Motor Position:5742
State Word:7e76  Speed:667.99  Motor Position:5784
State Word:7e76  Speed:667.99  Motor Position:5827
State Word:7e76  Speed:667.99  Motor Position:5871
State Word:17e76  Speed:667.99  Motor Position:5913
State Word:17e76  Speed:667.99  Motor Position:5955
State Word:17e76  Speed:667.99  Motor Position:5998
State Word:17e76  Speed:667.99  Motor Position:6041
State Word:7e54  Speed:503.99  Motor Position:6078
State Word:7e54  Speed:283.99  Motor Position:6104
State Word:7e16  Speed:0.00  Motor Position:6115
- - Registers after stop begin - -
State Word:7e16  Speed:0.00  Motor Position:6115
- - Registers after stop end - -
