Control Word:0
Speed Begin:100
Speed End:269
StepCount:6050
StepMode:1
- - Intial Registers begin - -
State Word:17e06  Speed:0.00  Motor Position:-73
- - Intial Registers end- -
State Word:17e34  Speed:134.99  Motor Position:9
State Word:17e34  Speed:150.00  Motor Position:14
State Word:17e34  Speed:177.00  Motor Position:25
State Word:7e34  Speed:204.00  Motor Position:37
State Word:7e34  Speed:231.00  Motor Position:51
State Word:7e34  Speed:256.99  Motor Position:66
State Word:7e76  Speed:269.00  Motor Position:83
State Word:7e76  Speed:269.00  Motor Position:100
State Word:7e76  Speed:269.00  Motor Position:118
State Word:7e76  Speed:269.00  Motor Position:135
State Word:7e76  Speed:269.00  Motor Position:152
State Word:7e76  Speed:269.00  Motor Position:169
State Word:7e76  Speed:269.00  Motor Position:186
State Word:7e76  Speed:269.00  Motor Position:204
State Word:7e76  Speed:269.00  Motor Position:221
State Word:7e76  Speed:269.00  Motor Position:238
State Word:7e76  Speed:269.00  Motor Position:256
State Word:7e76  Speed:269.00  Motor Position:273
State Word:7e76  Speed:269.00  Motor Position:290
State Word:7e76  Speed:269.00  Motor Position:307
State Word:7e76  Speed:269.00  Motor Position:325
State Word:7e76  Speed:269.00  Motor Position:342
State Word:7e76  Speed:269.00  Motor Position:359
State Word:7e76  Speed:269.00  Motor Position:376
State Word:7e76  Speed:269.00  Motor Position:393
State Word:7e76  Speed:269.00  Motor Position:410
State Word:7e76  Speed:269.00  Motor Position:428
State Word:7e76  Speed:269.00  Motor Position:551
State Word:7e76  Speed:269.00  Motor Position:565
State Word:7e76  Speed:269.00  Motor Position:573
State Word:7e76  Speed:269.00  Motor Position:582
State Word:7e76  Speed:269.00  Motor Position:610
State Word:7e76  Speed:269.00  Motor Position:625
State Word:7e76  Speed:269.00  Motor Position:643
State Word:7e76  Speed:269.00  Motor Position:660
State Word:7e76  Speed:269.00  Motor Position:677
State Word:7e76  Speed:269.00  Motor Position:694
State Word:7e76  Speed:269.00  Motor Position:712
State Word:7e76  Speed:269.00  Motor Position:729
State Word:7e76  Speed:269.00  Motor Position:746
State Word:7e76  Speed:269.00  Motor Position:763
State Word:7e76  Speed:269.00  Motor Position:780
State Word:7e76  Speed:269.00  Motor Position:798
State Word:7e76  Speed:269.00  Motor Position:815
State Word:7e76  Speed:269.00  Motor Position:832
State Word:7e76  Speed:269.00  Motor Position:849
State Word:7e76  Speed:269.00  Motor Position:866
State Word:7e76  Speed:269.00  Motor Position:883
State Word:7e76  Speed:269.00  Motor Position:901
State Word:7e76  Speed:269.00  Motor Position:918
State Word:7e76  Speed:269.00  Motor Position:935
State Word:7e76  Speed:269.00  Motor Position:952
State Word:7e76  Speed:269.00  Motor Position:970
State Word:7e76  Speed:269.00  Motor Position:987
State Word:7e76  Speed:269.00  Motor Position:1004
State Word:7e76  Speed:269.00  Motor Position:1021
State Word:7e76  Speed:269.00  Motor Position:1039
State Word:7e76  Speed:269.00  Motor Position:1056
State Word:7e76  Speed:269.00  Motor Position:1073
State Word:7e76  Speed:269.00  Motor Position:1090
State Word:7e76  Speed:269.00  Motor Position:1107
State Word:7e76  Speed:269.00  Motor Position:1124
State Word:7e76  Speed:269.00  Motor Position:1142
State Word:7e76  Speed:269.00  Motor Position:1159
State Word:7e76  Speed:269.00  Motor Position:1176
State Word:7e76  Speed:269.00  Motor Position:1194
State Word:7e76  Speed:269.00  Motor Position:1211
State Word:7e76  Speed:269.00  Motor Position:1228
State Word:7e76  Speed:269.00  Motor Position:1245
State Word:7e76  Speed:269.00  Motor Position:1262
State Word:7e76  Speed:269.00  Motor Position:1280
State Word:7e76  Speed:269.00  Motor Position:1297
State Word:7e76  Speed:269.00  Motor Position:1314
State Word:7e76  Speed:269.00  Motor Position:1331
State Word:7e76  Speed:269.00  Motor Position:1348
State Word:7e76  Speed:269.00  Motor Position:1366
State Word:7e76  Speed:269.00  Motor Position:1383
State Word:7e76  Speed:269.00  Motor Position:1400
State Word:7e76  Speed:269.00  Motor Position:1417
State Word:7e76  Speed:269.00  Motor Position:1435
State Word:7e76  Speed:269.00  Motor Position:1451
State Word:7e76  Speed:269.00  Motor Position:1469
State Word:7e76  Speed:269.00  Motor Position:1486
State Word:7e76  Speed:269.00  Motor Position:1503
State Word:7e76  Speed:269.00  Motor Position:1521
State Word:7e76  Speed:269.00  Motor Position:1537
State Word:7e76  Speed:269.00  Motor Position:1555
State Word:7e76  Speed:269.00  Motor Position:1572
State Word:7e76  Speed:269.00  Motor Position:1589
State Word:7e76  Speed:269.00  Motor Position:1607
State Word:7e76  Speed:269.00  Motor Position:1624
State Word:7e76  Speed:269.00  Motor Position:1641
State Word:7e76  Speed:269.00  Motor Position:1658
State Word:7e76  Speed:269.00  Motor Position:1675
State Word:7e76  Speed:269.00  Motor Position:1693
State Word:7e76  Speed:269.00  Motor Position:1709
State Word:7e76  Speed:269.00  Motor Position:1719
State Word:7e76  Speed:269.00  Motor Position:1736
State Word:7e76  Speed:269.00  Motor Position:1753
State Word:7e76  Speed:269.00  Motor Position:1770
State Word:7e76  Speed:269.00  Motor Position:1787
State Word:7e76  Speed:269.00  Motor Position:1804
State Word:7e76  Speed:269.00  Motor Position:1822
State Word:7e76  Speed:269.00  Motor Position:1839
State Word:7e76  Speed:269.00  Motor Position:1856
State Word:7e76  Speed:269.00  Motor Position:1873
State Word:7e76  Speed:269.00  Motor Position:1890
State Word:7e76  Speed:269.00  Motor Position:1908
State Word:7e76  Speed:269.00  Motor Position:1925
State Word:7e76  Speed:269.00  Motor Position:1942
State Word:7e76  Speed:269.00  Motor Position:1959
State Word:7e76  Speed:269.00  Motor Position:1977
State Word:7e76  Speed:269.00  Motor Position:1994
State Word:7e76  Speed:269.00  Motor Position:2011
State Word:7e76  Speed:269.00  Motor Position:2028
State Word:7e76  Speed:269.00  Motor Position:2045
State Word:7e76  Speed:269.00  Motor Position:2063
State Word:7e76  Speed:269.00  Motor Position:2080
State Word:7e76  Speed:269.00  Motor Position:2097
State Word:7e76  Speed:269.00  Motor Position:2114
State Word:7e76  Speed:269.00  Motor Position:2131
State Word:7e76  Speed:269.00  Motor Position:2149
State Word:7e76  Speed:269.00  Motor Position:2166
State Word:7e76  Speed:269.00  Motor Position:2183
State Word:7e76  Speed:269.00  Motor Position:2200
State Word:7e76  Speed:269.00  Motor Position:2217
State Word:7e76  Speed:269.00  Motor Position:2235
State Word:7e76  Speed:269.00  Motor Position:2252
State Word:7e76  Speed:269.00  Motor Position:2269
State Word:7e76  Speed:269.00  Motor Position:2286
State Word:7e76  Speed:269.00  Motor Position:2303
State Word:7e76  Speed:269.00  Motor Position:2321
State Word:7e76  Speed:269.00  Motor Position:2338
State Word:7e76  Speed:269.00  Motor Position:2355
State Word:7e76  Speed:269.00  Motor Position:2373
State Word:7e76  Speed:269.00  Motor Position:2390
State Word:7e76  Speed:269.00  Motor Position:2407
State Word:7e76  Speed:269.00  Motor Position:2424
State Word:7e76  Speed:269.00  Motor Position:2441
State Word:7e76  Speed:269.00  Motor Position:2458
State Word:7e76  Speed:269.00  Motor Position:2475
State Word:7e76  Speed:269.00  Motor Position:2484
State Word:7e76  Speed:269.00  Motor Position:2501
State Word:7e76  Speed:269.00  Motor Position:2519
State Word:7e76  Speed:269.00  Motor Position:2536
State Word:7e76  Speed:269.00  Motor Position:2553
State Word:7e76  Speed:269.00  Motor Position:2570
State Word:7e76  Speed:269.00  Motor Position:2588
State Word:7e76  Speed:269.00  Motor Position:2605
State Word:7e76  Speed:269.00  Motor Position:2622
State Word:7e76  Speed:269.00  Motor Position:2639
State Word:7e76  Speed:269.00  Motor Position:2656
State Word:7e76  Speed:269.00  Motor Position:2674
State Word:7e76  Speed:269.00  Motor Position:2691
State Word:7e76  Speed:269.00  Motor Position:2708
State Word:7e76  Speed:269.00  Motor Position:2725
State Word:7e76  Speed:269.00  Motor Position:2742
State Word:7e76  Speed:269.00  Motor Position:2760
State Word:7e76  Speed:269.00  Motor Position:2777
State Word:7e76  Speed:269.00  Motor Position:2794
State Word:7e76  Speed:269.00  Motor Position:2811
State Word:7e76  Speed:269.00  Motor Position:2828
State Word:7e76  Speed:269.00  Motor Position:2846
State Word:7e76  Speed:269.00  Motor Position:2863
State Word:7e76  Speed:269.00  Motor Position:2880
State Word:7e76  Speed:269.00  Motor Position:2897
State Word:27e76  Speed:269.00  Motor Position:2915
State Word:27e76  Speed:269.00  Motor Position:2932
State Word:27e76  Speed:269.00  Motor Position:2949
State Word:27e76  Speed:269.00  Motor Position:2966
State Word:27e76  Speed:269.00  Motor Position:2984
State Word:27e76  Speed:269.00  Motor Position:3001
State Word:27e76  Speed:269.00  Motor Position:3018
State Word:27e76  Speed:269.00  Motor Position:3035
State Word:27e76  Speed:269.00  Motor Position:3052
State Word:7e76  Speed:269.00  Motor Position:3069
State Word:7e76  Speed:269.00  Motor Position:3087
State Word:7e76  Speed:269.00  Motor Position:3104
State Word:7e76  Speed:269.00  Motor Position:3121
State Word:7e76  Speed:269.00  Motor Position:3138
State Word:7e76  Speed:269.00  Motor Position:3155
State Word:7e76  Speed:269.00  Motor Position:3172
State Word:7e76  Speed:269.00  Motor Position:3190
State Word:7e76  Speed:269.00  Motor Position:3207
State Word:7e76  Speed:269.00  Motor Position:3225
State Word:7e76  Speed:269.00  Motor Position:3241
State Word:7e76  Speed:269.00  Motor Position:3259
State Word:7e76  Speed:269.00  Motor Position:3276
State Word:7e76  Speed:269.00  Motor Position:3293
State Word:7e76  Speed:269.00  Motor Position:3310
State Word:7e76  Speed:269.00  Motor Position:3328
State Word:7e76  Speed:269.00  Motor Position:3345
State Word:7e76  Speed:269.00  Motor Position:3362
State Word:7e76  Speed:269.00  Motor Position:3379
State Word:7e76  Speed:269.00  Motor Position:3396
State Word:7e76  Speed:269.00  Motor Position:3414
State Word:7e76  Speed:269.00  Motor Position:3430
State Word:7e76  Speed:269.00  Motor Position:3448
State Word:7e76  Speed:269.00  Motor Position:3465
State Word:7e76  Speed:269.00  Motor Position:3483
State Word:7e76  Speed:269.00  Motor Position:3500
State Word:7e76  Speed:269.00  Motor Position:3517
State Word:7e76  Speed:269.00  Motor Position:3534
State Word:7e76  Speed:269.00  Motor Position:3551
State Word:7e76  Speed:269.00  Motor Position:3569
State Word:7e76  Speed:269.00  Motor Position:3586
State Word:7e76  Speed:269.00  Motor Position:3603
State Word:7e76  Speed:269.00  Motor Position:3620
State Word:7e76  Speed:269.00  Motor Position:3637
State Word:7e76  Speed:269.00  Motor Position:3655
State Word:7e76  Speed:269.00  Motor Position:3672
State Word:7e76  Speed:269.00  Motor Position:3689
State Word:7e76  Speed:269.00  Motor Position:3706
State Word:7e76  Speed:269.00  Motor Position:3723
State Word:7e76  Speed:269.00  Motor Position:3740
State Word:7e76  Speed:269.00  Motor Position:3758
State Word:7e76  Speed:269.00  Motor Position:3775
State Word:7e76  Speed:269.00  Motor Position:3792
State Word:7e76  Speed:269.00  Motor Position:3810
State Word:7e76  Speed:269.00  Motor Position:3826
State Word:7e76  Speed:269.00  Motor Position:3844
State Word:7e76  Speed:269.00  Motor Position:3861
State Word:7e76  Speed:269.00  Motor Position:3878
State Word:7e76  Speed:269.00  Motor Position:3896
State Word:7e76  Speed:269.00  Motor Position:3913
State Word:7e76  Speed:269.00  Motor Position:3930
State Word:7e76  Speed:269.00  Motor Position:3947
State Word:7e76  Speed:269.00  Motor Position:3964
State Word:7e76  Speed:269.00  Motor Position:3982
State Word:7e76  Speed:269.00  Motor Position:3999
State Word:7e76  Speed:269.00  Motor Position:4016
State Word:7e76  Speed:269.00  Motor Position:4033
State Word:7e76  Speed:269.00  Motor Position:4050
State Word:7e76  Speed:269.00  Motor Position:4068
State Word:7e76  Speed:269.00  Motor Position:4085
State Word:7e76  Speed:269.00  Motor Position:4102
State Word:7e76  Speed:269.00  Motor Position:4119
State Word:7e76  Speed:269.00  Motor Position:4137
State Word:7e76  Speed:269.00  Motor Position:4153
State Word:7e76  Speed:269.00  Motor Position:4162
State Word:7e76  Speed:269.00  Motor Position:4179
State Word:7e76  Speed:269.00  Motor Position:4197
State Word:7e76  Speed:269.00  Motor Position:4213
State Word:7e76  Speed:269.00  Motor Position:4231
State Word:7e76  Speed:269.00  Motor Position:4248
State Word:7e76  Speed:269.00  Motor Position:4265
State Word:7e76  Speed:269.00  Motor Position:4283
State Word:7e76  Speed:269.00  Motor Position:4300
State Word:7e76  Speed:269.00  Motor Position:4317
State Word:7e76  Speed:269.00  Motor Position:4334
State Word:7e76  Speed:269.00  Motor Position:4352
State Word:7e76  Speed:269.00  Motor Position:4369
State Word:7e76  Speed:269.00  Motor Position:4386
State Word:7e76  Speed:269.00  Motor Position:4403
State Word:7e76  Speed:269.00  Motor Position:4421
State Word:7e76  Speed:269.00  Motor Position:4438
State Word:7e76  Speed:269.00  Motor Position:4455
State Word:7e76  Speed:269.00  Motor Position:4472
State Word:7e76  Speed:269.00  Motor Position:4489
State Word:7e76  Speed:269.00  Motor Position:4507
State Word:7e76  Speed:269.00  Motor Position:4524
State Word:7e76  Speed:269.00  Motor Position:4540
State Word:7e76  Speed:269.00  Motor Position:4550
State Word:7e76  Speed:269.00  Motor Position:4567
State Word:7e76  Speed:269.00  Motor Position:4584
State Word:7e76  Speed:269.00  Motor Position:4601
State Word:7e76  Speed:269.00  Motor Position:4618
State Word:7e76  Speed:269.00  Motor Position:4636
State Word:7e76  Speed:269.00  Motor Position:4653
State Word:7e76  Speed:269.00  Motor Position:4670
State Word:7e76  Speed:269.00  Motor Position:4687
State Word:7e76  Speed:269.00  Motor Position:4705
State Word:7e76  Speed:269.00  Motor Position:4722
State Word:7e76  Speed:269.00  Motor Position:4739
State Word:7e76  Speed:269.00  Motor Position:4756
State Word:7e76  Speed:269.00  Motor Position:4773
State Word:7e76  Speed:269.00  Motor Position:4791
State Word:7e76  Speed:269.00  Motor Position:4808
State Word:7e76  Speed:269.00  Motor Position:4825
State Word:7e76  Speed:269.00  Motor Position:4842
State Word:7e76  Speed:269.00  Motor Position:4859
State Word:7e76  Speed:269.00  Motor Position:4876
State Word:7e76  Speed:269.00  Motor Position:4894
State Word:7e76  Speed:269.00  Motor Position:4911
State Word:7e76  Speed:269.00  Motor Position:4928
State Word:7e76  Speed:269.00  Motor Position:4945
State Word:7e76  Speed:269.00  Motor Position:4962
State Word:7e76  Speed:269.00  Motor Position:4980
State Word:7e76  Speed:269.00  Motor Position:4997
State Word:7e76  Speed:269.00  Motor Position:5014
State Word:7e76  Speed:269.00  Motor Position:5032
State Word:7e76  Speed:269.00  Motor Position:5049
State Word:7e76  Speed:269.00  Motor Position:5066
State Word:7e76  Speed:269.00  Motor Position:5083
State Word:7e76  Speed:269.00  Motor Position:5100
State Word:7e76  Speed:269.00  Motor Position:5118
State Word:7e76  Speed:269.00  Motor Position:5135
State Word:7e76  Speed:269.00  Motor Position:5152
State Word:7e76  Speed:269.00  Motor Position:5169
State Word:7e76  Speed:269.00  Motor Position:5181
State Word:7e76  Speed:269.00  Motor Position:5199
State Word:7e76  Speed:269.00  Motor Position:5216
State Word:7e76  Speed:269.00  Motor Position:5233
State Word:7e76  Speed:269.00  Motor Position:5250
State Word:7e76  Speed:269.00  Motor Position:5268
State Word:7e76  Speed:269.00  Motor Position:5285
State Word:7e76  Speed:269.00  Motor Position:5302
State Word:7e76  Speed:269.00  Motor Position:5319
State Word:7e76  Speed:269.00  Motor Position:5336
State Word:7e76  Speed:269.00  Motor Position:5353
State Word:7e76  Speed:269.00  Motor Position:5371
State Word:7e76  Speed:269.00  Motor Position:5388
State Word:7e76  Speed:269.00  Motor Position:5405
State Word:7e76  Speed:269.00  Motor Position:5422
State Word:7e76  Speed:269.00  Motor Position:5440
State Word:7e76  Speed:269.00  Motor Position:5457
State Word:7e76  Speed:269.00  Motor Position:5474
State Word:7e76  Speed:269.00  Motor Position:5491
State Word:7e76  Speed:269.00  Motor Position:5508
State Word:7e76  Speed:269.00  Motor Position:5526
State Word:7e76  Speed:269.00  Motor Position:5543
State Word:7e76  Speed:269.00  Motor Position:5560
State Word:7e76  Speed:269.00  Motor Position:5577
State Word:7e76  Speed:269.00  Motor Position:5595
State Word:7e76  Speed:269.00  Motor Position:5612
State Word:7e76  Speed:269.00  Motor Position:5629
State Word:7e76  Speed:269.00  Motor Position:5646
State Word:7e76  Speed:269.00  Motor Position:5663
State Word:7e76  Speed:269.00  Motor Position:5680
State Word:7e76  Speed:269.00  Motor Position:5689
State Word:7e76  Speed:269.00  Motor Position:5706
State Word:7e76  Speed:269.00  Motor Position:5723
State Word:7e76  Speed:269.00  Motor Position:5740
State Word:7e76  Speed:269.00  Motor Position:5758
State Word:7e76  Speed:269.00  Motor Position:5775
State Word:7e76  Speed:269.00  Motor Position:5792
State Word:7e76  Speed:269.00  Motor Position:5810
State Word:7e76  Speed:269.00  Motor Position:5827
State Word:7e76  Speed:269.00  Motor Position:5844
State Word:7e76  Speed:269.00  Motor Position:5861
State Word:7e76  Speed:269.00  Motor Position:5879
State Word:17e76  Speed:269.00  Motor Position:5896
State Word:17e76  Speed:269.00  Motor Position:5913
State Word:17e76  Speed:269.00  Motor Position:5930
State Word:17e76  Speed:269.00  Motor Position:5947
State Word:17e76  Speed:269.00  Motor Position:5965
State Word:17e76  Speed:269.00  Motor Position:5982
State Word:17e76  Speed:269.00  Motor Position:5999
State Word:17e76  Speed:269.00  Motor Position:6016
State Word:7e76  Speed:269.00  Motor Position:6034
State Word:7e54  Speed:263.99  Motor Position:6051
State Word:7e54  Speed:177.99  Motor Position:6065
State Word:7e16  Speed:0.00  Motor Position:6073
- - Registers after stop begin - -
State Word:7e16  Speed:0.00  Motor Position:6073
- - Registers after stop end - -
