Control Word:0
Speed Begin:100
Speed End:1344
StepCount:6050
StepMode:1
- - Intial Registers begin - -
State Word:17e06  Speed:0.00  Motor Position:-181
- - Intial Registers end- -
State Word:17e34  Speed:344.99  Motor Position:18
State Word:17e34  Speed:454.99  Motor Position:32
State Word:7e34  Speed:655.00  Motor Position:67
State Word:7e34  Speed:852.99  Motor Position:115
State Word:7e34  Speed:1051.99  Motor Position:176
State Word:7e34  Speed:1251.00  Motor Position:250
State Word:7e76  Speed:1344.00  Motor Position:334
State Word:7e76  Speed:1344.00  Motor Position:420
State Word:7e76  Speed:1344.00  Motor Position:506
State Word:7e76  Speed:1344.00  Motor Position:592
State Word:7e76  Speed:1344.00  Motor Position:679
State Word:7e76  Speed:1344.00  Motor Position:764
State Word:7e76  Speed:1344.00  Motor Position:851
State Word:7e76  Speed:1344.00  Motor Position:936
State Word:7e76  Speed:1344.00  Motor Position:1023
State Word:7e76  Speed:1344.00  Motor Position:1108
State Word:7e76  Speed:1344.00  Motor Position:1194
State Word:7e76  Speed:1344.00  Motor Position:1280
State Word:7e76  Speed:1344.00  Motor Position:1366
State Word:7e76  Speed:1344.00  Motor Position:1452
State Word:7e76  Speed:1344.00  Motor Position:1538
State Word:7e76  Speed:1344.00  Motor Position:1624
State Word:7e76  Speed:1344.00  Motor Position:1710
State Word:7e76  Speed:1344.00  Motor Position:1796
State Word:7e76  Speed:1344.00  Motor Position:1882
State Word:7e76  Speed:1344.00  Motor Position:1967
State Word:7e76  Speed:1344.00  Motor Position:2054
State Word:7e76  Speed:1344.00  Motor Position:2139
State Word:7e76  Speed:1344.00  Motor Position:2226
State Word:7e76  Speed:1344.00  Motor Position:2312
State Word:7e76  Speed:1344.00  Motor Position:2398
State Word:7e76  Speed:1344.00  Motor Position:2484
State Word:7e76  Speed:1344.00  Motor Position:2570
State Word:7e76  Speed:1344.00  Motor Position:2655
State Word:7e76  Speed:1344.00  Motor Position:2742
State Word:7e76  Speed:1344.00  Motor Position:2827
State Word:7e76  Speed:1344.00  Motor Position:2914
State Word:27e76  Speed:1344.00  Motor Position:3000
State Word:27e76  Speed:1344.00  Motor Position:3086
State Word:7e76  Speed:1344.00  Motor Position:3171
State Word:7e76  Speed:1344.00  Motor Position:3257
State Word:7e76  Speed:1344.00  Motor Position:3343
State Word:7e76  Speed:1344.00  Motor Position:3429
State Word:7e76  Speed:1344.00  Motor Position:3516
State Word:7e76  Speed:1344.00  Motor Position:3602
State Word:7e76  Speed:1344.00  Motor Position:3687
State Word:7e76  Speed:1344.00  Motor Position:3773
State Word:7e76  Speed:1344.00  Motor Position:3860
State Word:7e76  Speed:1344.00  Motor Position:3946
State Word:7e76  Speed:1344.00  Motor Position:4032
State Word:7e76  Speed:1344.00  Motor Position:4118
State Word:7e76  Speed:1344.00  Motor Position:4204
State Word:7e76  Speed:1344.00  Motor Position:4289
State Word:7e76  Speed:1344.00  Motor Position:4376
State Word:7e76  Speed:1344.00  Motor Position:4461
State Word:7e76  Speed:1344.00  Motor Position:4548
State Word:7e76  Speed:1344.00  Motor Position:4632
State Word:7e76  Speed:1344.00  Motor Position:4720
State Word:7e76  Speed:1344.00  Motor Position:4806
State Word:7e76  Speed:1344.00  Motor Position:4870
State Word:7e76  Speed:1344.00  Motor Position:4956
State Word:7e76  Speed:1344.00  Motor Position:5042
State Word:7e76  Speed:1344.00  Motor Position:5128
State Word:7e76  Speed:1344.00  Motor Position:5215
State Word:7e76  Speed:1344.00  Motor Position:5300
State Word:7e76  Speed:1344.00  Motor Position:5386
State Word:7e76  Speed:1344.00  Motor Position:5472
State Word:7e76  Speed:1344.00  Motor Position:5558
State Word:7e76  Speed:1344.00  Motor Position:5644
State Word:7e76  Speed:1344.00  Motor Position:5730
State Word:7e76  Speed:1344.00  Motor Position:5816
State Word:7e76  Speed:1344.00  Motor Position:5902
State Word:17e76  Speed:1344.00  Motor Position:5988
State Word:7e54  Speed:1227.99  Motor Position:6072
State Word:7e54  Speed:793.00  Motor Position:6138
State Word:7e54  Speed:364.99  Motor Position:6175
State Word:7e16  Speed:0.00  Motor Position:6184
- - Registers after stop begin - -
State Word:7e16  Speed:0.00  Motor Position:6184
- - Registers after stop end - -
