Control Word:3
Speed Begin:50
Speed End:500
StepCount:21000
StepMode:1
- - Intial Registers begin - -
State Word:7e16  Speed:0.00  Motor Position:6123
- - Intial Registers end- -
State Word:7e24  Speed:140.99  Motor Position:-8
State Word:7e24  Speed:178.99  Motor Position:-13
State Word:7e24  Speed:251.00  Motor Position:-27
State Word:7e24  Speed:324.00  Motor Position:-45
State Word:7e24  Speed:393.99  Motor Position:-68
State Word:17e44  Speed:370.00  Motor Position:-94
State Word:17e44  Speed:206.99  Motor Position:-113
State Word:17e06  Speed:0.00  Motor Position:-121
- - Registers after stop begin - -
State Word:17e06  Speed:0.00  Motor Position:-121
- - Registers after stop end - -
