Control Word:0
Speed Begin:100
Speed End:954
StepCount:6050
StepMode:1
- - Intial Registers begin - -
State Word:17e06  Speed:0.00  Motor Position:-143
- - Intial Registers end- -
State Word:17e34  Speed:269.00  Motor Position:15
State Word:17e34  Speed:343.99  Motor Position:25
State Word:7e34  Speed:481.99  Motor Position:52
State Word:7e34  Speed:617.00  Motor Position:87
State Word:7e34  Speed:751.99  Motor Position:130
State Word:7e34  Speed:888.99  Motor Position:183
State Word:7e76  Speed:953.99  Motor Position:243
State Word:7e76  Speed:953.99  Motor Position:304
State Word:7e76  Speed:953.99  Motor Position:365
State Word:7e76  Speed:953.99  Motor Position:425
State Word:7e76  Speed:953.99  Motor Position:487
State Word:7e76  Speed:953.99  Motor Position:548
State Word:7e76  Speed:953.99  Motor Position:609
State Word:7e76  Speed:953.99  Motor Position:670
State Word:7e76  Speed:953.99  Motor Position:731
State Word:7e76  Speed:953.99  Motor Position:793
State Word:7e76  Speed:953.99  Motor Position:854
State Word:7e76  Speed:953.99  Motor Position:915
State Word:7e76  Speed:953.99  Motor Position:976
State Word:7e76  Speed:953.99  Motor Position:1036
State Word:7e76  Speed:953.99  Motor Position:1098
State Word:7e76  Speed:953.99  Motor Position:1158
State Word:7e76  Speed:953.99  Motor Position:1220
State Word:7e76  Speed:953.99  Motor Position:1281
State Word:7e76  Speed:953.99  Motor Position:1342
State Word:7e76  Speed:953.99  Motor Position:1403
State Word:7e76  Speed:953.99  Motor Position:1464
State Word:7e76  Speed:953.99  Motor Position:1524
State Word:7e76  Speed:953.99  Motor Position:1586
State Word:7e76  Speed:953.99  Motor Position:1647
State Word:7e76  Speed:953.99  Motor Position:1708
State Word:7e76  Speed:953.99  Motor Position:1767
State Word:7e76  Speed:953.99  Motor Position:1830
State Word:7e76  Speed:953.99  Motor Position:1891
State Word:7e76  Speed:953.99  Motor Position:1952
State Word:7e76  Speed:953.99  Motor Position:2012
State Word:7e76  Speed:953.99  Motor Position:2074
State Word:7e76  Speed:953.99  Motor Position:2135
State Word:7e76  Speed:953.99  Motor Position:2196
State Word:7e76  Speed:953.99  Motor Position:2257
State Word:7e76  Speed:953.99  Motor Position:2318
State Word:7e76  Speed:953.99  Motor Position:2379
State Word:7e76  Speed:953.99  Motor Position:2441
State Word:7e76  Speed:953.99  Motor Position:2501
State Word:7e76  Speed:953.99  Motor Position:2562
State Word:7e76  Speed:953.99  Motor Position:2624
State Word:7e76  Speed:953.99  Motor Position:2685
State Word:7e76  Speed:953.99  Motor Position:2747
State Word:7e76  Speed:953.99  Motor Position:2807
State Word:7e76  Speed:953.99  Motor Position:2868
State Word:7e76  Speed:953.99  Motor Position:2929
State Word:27e76  Speed:953.99  Motor Position:2990
State Word:27e76  Speed:953.99  Motor Position:3051
State Word:7e76  Speed:953.99  Motor Position:3112
State Word:7e76  Speed:953.99  Motor Position:3173
State Word:7e76  Speed:953.99  Motor Position:3234
State Word:7e76  Speed:953.99  Motor Position:3295
State Word:7e76  Speed:953.99  Motor Position:3356
State Word:7e76  Speed:953.99  Motor Position:3417
State Word:7e76  Speed:953.99  Motor Position:3478
State Word:7e76  Speed:953.99  Motor Position:3539
State Word:7e76  Speed:953.99  Motor Position:3600
State Word:7e76  Speed:953.99  Motor Position:3661
State Word:7e76  Speed:953.99  Motor Position:3723
State Word:7e76  Speed:953.99  Motor Position:3783
State Word:7e76  Speed:953.99  Motor Position:3844
State Word:7e76  Speed:953.99  Motor Position:3905
State Word:7e76  Speed:953.99  Motor Position:3967
State Word:7e76  Speed:953.99  Motor Position:4027
State Word:7e76  Speed:953.99  Motor Position:4089
State Word:7e76  Speed:953.99  Motor Position:4149
State Word:7e76  Speed:953.99  Motor Position:4210
State Word:7e76  Speed:953.99  Motor Position:4270
State Word:7e76  Speed:953.99  Motor Position:4333
State Word:7e76  Speed:953.99  Motor Position:4392
State Word:7e76  Speed:953.99  Motor Position:4455
State Word:7e76  Speed:953.99  Motor Position:4516
State Word:7e76  Speed:953.99  Motor Position:4577
State Word:7e76  Speed:953.99  Motor Position:4637
State Word:7e76  Speed:953.99  Motor Position:4698
State Word:7e76  Speed:953.99  Motor Position:4759
State Word:7e76  Speed:953.99  Motor Position:4821
State Word:7e76  Speed:953.99  Motor Position:4882
State Word:7e76  Speed:953.99  Motor Position:4943
State Word:7e76  Speed:953.99  Motor Position:5004
State Word:7e76  Speed:953.99  Motor Position:5065
State Word:7e76  Speed:953.99  Motor Position:5127
State Word:7e76  Speed:953.99  Motor Position:5188
State Word:7e76  Speed:953.99  Motor Position:5247
State Word:7e76  Speed:953.99  Motor Position:5309
State Word:7e76  Speed:953.99  Motor Position:5368
State Word:7e76  Speed:953.99  Motor Position:5432
State Word:7e76  Speed:953.99  Motor Position:5492
State Word:7e76  Speed:953.99  Motor Position:5553
State Word:7e76  Speed:953.99  Motor Position:5614
State Word:7e76  Speed:953.99  Motor Position:5675
State Word:7e76  Speed:953.99  Motor Position:5736
State Word:7e76  Speed:953.99  Motor Position:5797
State Word:7e76  Speed:953.99  Motor Position:5859
State Word:7e76  Speed:953.99  Motor Position:5920
State Word:17e76  Speed:953.99  Motor Position:5981
State Word:17e76  Speed:953.99  Motor Position:6042
State Word:7e54  Speed:692.00  Motor Position:6096
State Word:7e54  Speed:388.00  Motor Position:6130
State Word:7e16  Speed:0.00  Motor Position:6145
- - Registers after stop begin - -
State Word:7e16  Speed:0.00  Motor Position:6145
- - Registers after stop end - -
