Control Word:3
Speed Begin:50
Speed End:500
StepCount:21000
StepMode:1
- - Intial Registers begin - -
State Word:7e16  Speed:0.00  Motor Position:6276
- - Intial Registers end- -
State Word:7e24  Speed:139.00  Motor Position:-7
State Word:7e24  Speed:179.99  Motor Position:-13
State Word:7e24  Speed:251.99  Motor Position:-27
State Word:7e24  Speed:324.00  Motor Position:-45
State Word:7e24  Speed:395.00  Motor Position:-68
State Word:7e24  Speed:467.99  Motor Position:-96
State Word:7e66  Speed:499.99  Motor Position:-127
State Word:7e66  Speed:499.99  Motor Position:-160
State Word:7e66  Speed:499.99  Motor Position:-191
State Word:17e44  Speed:481.99  Motor Position:-223
State Word:17e44  Speed:322.00  Motor Position:-249
State Word:17e44  Speed:162.99  Motor Position:-264
State Word:17e06  Speed:0.00  Motor Position:-269
- - Registers after stop begin - -
State Word:17e06  Speed:0.00  Motor Position:-269
- - Registers after stop end - -
