Control Word:0
Speed Begin:100
Speed End:1006
StepCount:6050
StepMode:1
- - Intial Registers begin - -
State Word:17e06  Speed:0.00  Motor Position:-154
- - Intial Registers end- -
State Word:17e34  Speed:279.99  Motor Position:15
State Word:17e34  Speed:359.00  Motor Position:26
State Word:7e34  Speed:503.99  Motor Position:54
State Word:7e34  Speed:648.99  Motor Position:91
State Word:7e34  Speed:793.00  Motor Position:137
State Word:7e34  Speed:935.99  Motor Position:191
State Word:7e76  Speed:1005.99  Motor Position:256
State Word:7e76  Speed:1005.99  Motor Position:320
State Word:7e76  Speed:1005.99  Motor Position:384
State Word:7e76  Speed:1005.99  Motor Position:449
State Word:7e76  Speed:1005.99  Motor Position:513
State Word:7e76  Speed:1005.99  Motor Position:577
State Word:7e76  Speed:1005.99  Motor Position:641
State Word:7e76  Speed:1005.99  Motor Position:706
State Word:7e76  Speed:1005.99  Motor Position:771
State Word:7e76  Speed:1005.99  Motor Position:834
State Word:7e76  Speed:1005.99  Motor Position:899
State Word:7e76  Speed:1005.99  Motor Position:964
State Word:7e76  Speed:1005.99  Motor Position:1027
State Word:7e76  Speed:1005.99  Motor Position:1092
State Word:7e76  Speed:1005.99  Motor Position:1156
State Word:7e76  Speed:1005.99  Motor Position:1221
State Word:7e76  Speed:1005.99  Motor Position:1285
State Word:7e76  Speed:1005.99  Motor Position:1349
State Word:7e76  Speed:1005.99  Motor Position:1414
State Word:7e76  Speed:1005.99  Motor Position:1478
State Word:7e76  Speed:1005.99  Motor Position:1542
State Word:7e76  Speed:1005.99  Motor Position:1607
State Word:7e76  Speed:1005.99  Motor Position:1671
State Word:7e76  Speed:1005.99  Motor Position:1736
State Word:7e76  Speed:1005.99  Motor Position:1800
State Word:7e76  Speed:1005.99  Motor Position:1865
State Word:7e76  Speed:1005.99  Motor Position:1929
State Word:7e76  Speed:1005.99  Motor Position:1993
State Word:7e76  Speed:1005.99  Motor Position:2058
State Word:7e76  Speed:1005.99  Motor Position:2121
State Word:7e76  Speed:1005.99  Motor Position:2187
State Word:7e76  Speed:1005.99  Motor Position:2251
State Word:7e76  Speed:1005.99  Motor Position:2315
State Word:7e76  Speed:1005.99  Motor Position:2380
State Word:7e76  Speed:1005.99  Motor Position:2443
State Word:7e76  Speed:1005.99  Motor Position:2509
State Word:7e76  Speed:1005.99  Motor Position:2573
State Word:7e76  Speed:1005.99  Motor Position:2636
State Word:7e76  Speed:1005.99  Motor Position:2702
State Word:7e76  Speed:1005.99  Motor Position:2766
State Word:7e76  Speed:1005.99  Motor Position:2830
State Word:7e76  Speed:1005.99  Motor Position:2894
State Word:27e76  Speed:1005.99  Motor Position:2959
State Word:27e76  Speed:1005.99  Motor Position:3023
State Word:27e76  Speed:1005.99  Motor Position:3087
State Word:7e76  Speed:1005.99  Motor Position:3152
State Word:7e76  Speed:1005.99  Motor Position:3216
State Word:7e76  Speed:1005.99  Motor Position:3280
State Word:7e76  Speed:1005.99  Motor Position:3345
State Word:7e76  Speed:1005.99  Motor Position:3409
State Word:7e76  Speed:1005.99  Motor Position:3474
State Word:7e76  Speed:1005.99  Motor Position:3538
State Word:7e76  Speed:1005.99  Motor Position:3602
State Word:7e76  Speed:1005.99  Motor Position:3667
State Word:7e76  Speed:1005.99  Motor Position:3731
State Word:7e76  Speed:1005.99  Motor Position:3796
State Word:7e76  Speed:1005.99  Motor Position:3860
State Word:7e76  Speed:1005.99  Motor Position:3924
State Word:7e76  Speed:1005.99  Motor Position:3989
State Word:7e76  Speed:1005.99  Motor Position:4053
State Word:7e76  Speed:1005.99  Motor Position:4117
State Word:7e76  Speed:1005.99  Motor Position:4181
State Word:7e76  Speed:1005.99  Motor Position:4244
State Word:7e76  Speed:1005.99  Motor Position:4311
State Word:7e76  Speed:1005.99  Motor Position:4375
State Word:7e76  Speed:1005.99  Motor Position:4440
State Word:7e76  Speed:1005.99  Motor Position:4503
State Word:7e76  Speed:1005.99  Motor Position:4567
State Word:7e76  Speed:1005.99  Motor Position:4633
State Word:7e76  Speed:1005.99  Motor Position:4696
State Word:7e76  Speed:1005.99  Motor Position:4761
State Word:7e76  Speed:1005.99  Motor Position:4825
State Word:7e76  Speed:1005.99  Motor Position:4889
State Word:7e76  Speed:1005.99  Motor Position:4954
State Word:7e76  Speed:1005.99  Motor Position:5018
State Word:7e76  Speed:1005.99  Motor Position:5083
State Word:7e76  Speed:1005.99  Motor Position:5147
State Word:7e76  Speed:1005.99  Motor Position:5211
State Word:7e76  Speed:1005.99  Motor Position:5275
State Word:7e76  Speed:1005.99  Motor Position:5341
State Word:7e76  Speed:1005.99  Motor Position:5405
State Word:7e76  Speed:1005.99  Motor Position:5469
State Word:7e76  Speed:1005.99  Motor Position:5533
State Word:7e76  Speed:1005.99  Motor Position:5598
State Word:7e76  Speed:1005.99  Motor Position:5662
State Word:7e76  Speed:1005.99  Motor Position:5727
State Word:7e76  Speed:1005.99  Motor Position:5791
State Word:7e76  Speed:1005.99  Motor Position:5854
State Word:7e76  Speed:1005.99  Motor Position:5919
State Word:17e76  Speed:1005.99  Motor Position:5984
State Word:17e76  Speed:1005.99  Motor Position:6048
State Word:7e54  Speed:689.00  Motor Position:6103
State Word:7e54  Speed:368.00  Motor Position:6137
State Word:7e16  Speed:0.00  Motor Position:6149
- - Registers after stop begin - -
State Word:7e16  Speed:0.00  Motor Position:6149
- - Registers after stop end - -
