Control Word:0
Speed Begin:100
Speed End:1730
StepCount:6050
StepMode:1
- - Intial Registers begin - -
State Word:17e06  Speed:0.00  Motor Position:-196
- - Intial Registers end- -
State Word:17e34  Speed:421.99  Motor Position:21
State Word:17e34  Speed:568.99  Motor Position:38
State Word:7e34  Speed:829.00  Motor Position:83
State Word:7e34  Speed:1089.99  Motor Position:145
State Word:7e34  Speed:1346.99  Motor Position:221
State Word:7e34  Speed:1611.99  Motor Position:318
State Word:7e76  Speed:1730.00  Motor Position:427
State Word:7e76  Speed:1730.00  Motor Position:536
State Word:7e76  Speed:1730.00  Motor Position:648
State Word:7e76  Speed:1730.00  Motor Position:757
State Word:7e76  Speed:1730.00  Motor Position:868
State Word:7e76  Speed:1730.00  Motor Position:979
State Word:7e76  Speed:1730.00  Motor Position:1091
State Word:7e76  Speed:1730.00  Motor Position:1197
State Word:7e76  Speed:1730.00  Motor Position:1311
State Word:7e76  Speed:1730.00  Motor Position:1422
State Word:7e76  Speed:1730.00  Motor Position:1532
State Word:7e76  Speed:1730.00  Motor Position:1643
State Word:7e76  Speed:1730.00  Motor Position:1754
State Word:7e76  Speed:1730.00  Motor Position:1865
State Word:7e76  Speed:1730.00  Motor Position:1975
State Word:7e76  Speed:1730.00  Motor Position:2086
State Word:7e76  Speed:1730.00  Motor Position:2197
State Word:7e76  Speed:1730.00  Motor Position:2308
State Word:7e76  Speed:1730.00  Motor Position:2417
State Word:7e76  Speed:1730.00  Motor Position:2529
State Word:7e76  Speed:1730.00  Motor Position:2640
State Word:7e76  Speed:1730.00  Motor Position:2750
State Word:7e76  Speed:1730.00  Motor Position:2861
State Word:27e76  Speed:1730.00  Motor Position:2972
State Word:27e76  Speed:1730.00  Motor Position:3083
State Word:7e76  Speed:1730.00  Motor Position:3192
State Word:7e76  Speed:1730.00  Motor Position:3304
State Word:7e76  Speed:1730.00  Motor Position:3413
State Word:7e76  Speed:1730.00  Motor Position:3524
State Word:7e76  Speed:1730.00  Motor Position:3636
State Word:7e76  Speed:1730.00  Motor Position:3745
State Word:7e76  Speed:1730.00  Motor Position:3856
State Word:7e76  Speed:1730.00  Motor Position:3967
State Word:7e76  Speed:1730.00  Motor Position:4078
State Word:7e76  Speed:1730.00  Motor Position:4188
State Word:7e76  Speed:1730.00  Motor Position:4299
State Word:7e76  Speed:1730.00  Motor Position:4410
State Word:7e76  Speed:1730.00  Motor Position:4521
State Word:7e76  Speed:1730.00  Motor Position:4631
State Word:7e76  Speed:1730.00  Motor Position:4740
State Word:7e76  Speed:1730.00  Motor Position:4853
State Word:7e76  Speed:1730.00  Motor Position:4964
State Word:7e76  Speed:1730.00  Motor Position:5074
State Word:7e76  Speed:1730.00  Motor Position:5183
State Word:7e76  Speed:1730.00  Motor Position:5296
State Word:7e76  Speed:1730.00  Motor Position:5407
State Word:7e76  Speed:1730.00  Motor Position:5516
State Word:7e76  Speed:1730.00  Motor Position:5626
State Word:7e76  Speed:1730.00  Motor Position:5739
State Word:7e76  Speed:1730.00  Motor Position:5850
State Word:17e76  Speed:1730.00  Motor Position:5959
State Word:7e54  Speed:1634.99  Motor Position:6069
State Word:7e54  Speed:1072.99  Motor Position:6157
State Word:7e54  Speed:518.99  Motor Position:6208
State Word:7e16  Speed:0.00  Motor Position:6223
- - Registers after stop begin - -
State Word:7e16  Speed:0.00  Motor Position:6223
- - Registers after stop end - -
