Control Word:0
Speed Begin:100
Speed End:1189
StepCount:120
StepMode:1
- - Intial Registers begin - -
State Word:17e06  Speed:0.00  Motor Position:-173
- - Intial Registers end- -
State Word:17e34  Speed:316.99  Motor Position:17
State Word:17e34  Speed:411.99  Motor Position:29
State Word:7e34  Speed:589.00  Motor Position:62
State Word:7e34  Speed:759.99  Motor Position:104
State Word:7e54  Speed:553.00  Motor Position:150
State Word:7e54  Speed:178.99  Motor Position:173
State Word:7e16  Speed:0.00  Motor Position:175
- - Registers after stop begin - -
State Word:7e16  Speed:0.00  Motor Position:175
- - Registers after stop end - -
