Control Word:3
Speed Begin:50
Speed End:500
StepCount:21000
StepMode:1
- - Intial Registers begin - -
State Word:7e16  Speed:0.00  Motor Position:6128
- - Intial Registers end- -
State Word:7e24  Speed:140.99  Motor Position:-8
State Word:7e24  Speed:179.99  Motor Position:-13
State Word:7e24  Speed:251.99  Motor Position:-27
State Word:7e24  Speed:324.00  Motor Position:-45
State Word:7e24  Speed:397.00  Motor Position:-69
State Word:17e44  Speed:365.99  Motor Position:-95
State Word:17e44  Speed:205.00  Motor Position:-113
State Word:17e06  Speed:0.00  Motor Position:-121
- - Registers after stop begin - -
State Word:17e06  Speed:0.00  Motor Position:-121
- - Registers after stop end - -
