Control Word:3
Speed Begin:50
Speed End:500
StepCount:21000
StepMode:1
- - Intial Registers begin - -
State Word:27e16  Speed:0.00  Motor Position:6133
- - Intial Registers end- -
State Word:27e24  Speed:246.99  Motor Position:-26
State Word:27e24  Speed:427.99  Motor Position:-80
State Word:37e44  Speed:166.00  Motor Position:-135
State Word:37e06  Speed:0.00  Motor Position:-140
- - Registers after stop begin - -
State Word:37e06  Speed:0.00  Motor Position:-140
- - Registers after stop end - -
