Control Word:0
Speed Begin:100
Speed End:850
StepCount:6050
StepMode:1
- - Intial Registers begin - -
State Word:17e06  Speed:0.00  Motor Position:-133
- - Intial Registers end- -
State Word:17e34  Speed:247.99  Motor Position:14
State Word:17e34  Speed:314.00  Motor Position:23
State Word:17e34  Speed:434.99  Motor Position:48
State Word:7e34  Speed:554.99  Motor Position:79
State Word:7e34  Speed:674.99  Motor Position:119
State Word:7e34  Speed:794.99  Motor Position:165
State Word:7e76  Speed:849.99  Motor Position:219
State Word:7e76  Speed:849.99  Motor Position:274
State Word:7e76  Speed:849.99  Motor Position:328
State Word:7e76  Speed:849.99  Motor Position:382
State Word:7e76  Speed:849.99  Motor Position:437
State Word:7e76  Speed:849.99  Motor Position:490
State Word:7e76  Speed:849.99  Motor Position:545
State Word:7e76  Speed:849.99  Motor Position:600
State Word:7e76  Speed:849.99  Motor Position:654
State Word:7e76  Speed:849.99  Motor Position:709
State Word:7e76  Speed:849.99  Motor Position:763
State Word:7e76  Speed:849.99  Motor Position:817
State Word:7e76  Speed:849.99  Motor Position:872
State Word:7e76  Speed:849.99  Motor Position:926
State Word:7e76  Speed:849.99  Motor Position:981
State Word:7e76  Speed:849.99  Motor Position:1035
State Word:7e76  Speed:849.99  Motor Position:1090
State Word:7e76  Speed:849.99  Motor Position:1144
State Word:7e76  Speed:849.99  Motor Position:1198
State Word:7e76  Speed:849.99  Motor Position:1253
State Word:7e76  Speed:849.99  Motor Position:1307
State Word:7e76  Speed:849.99  Motor Position:1360
State Word:7e76  Speed:849.99  Motor Position:1416
State Word:7e76  Speed:849.99  Motor Position:1470
State Word:7e76  Speed:849.99  Motor Position:1526
State Word:7e76  Speed:849.99  Motor Position:1578
State Word:7e76  Speed:849.99  Motor Position:1633
State Word:7e76  Speed:849.99  Motor Position:1687
State Word:7e76  Speed:849.99  Motor Position:1742
State Word:7e76  Speed:849.99  Motor Position:1797
State Word:7e76  Speed:849.99  Motor Position:1850
State Word:7e76  Speed:849.99  Motor Position:1905
State Word:7e76  Speed:849.99  Motor Position:1959
State Word:7e76  Speed:849.99  Motor Position:2014
State Word:7e76  Speed:849.99  Motor Position:2068
State Word:7e76  Speed:849.99  Motor Position:2123
State Word:7e76  Speed:849.99  Motor Position:2177
State Word:7e76  Speed:849.99  Motor Position:2231
State Word:7e76  Speed:849.99  Motor Position:2286
State Word:7e76  Speed:849.99  Motor Position:2340
State Word:7e76  Speed:849.99  Motor Position:2395
State Word:7e76  Speed:849.99  Motor Position:2449
State Word:7e76  Speed:849.99  Motor Position:2503
State Word:7e76  Speed:849.99  Motor Position:2558
State Word:7e76  Speed:849.99  Motor Position:2612
State Word:7e76  Speed:849.99  Motor Position:2666
State Word:7e76  Speed:849.99  Motor Position:2721
State Word:7e76  Speed:849.99  Motor Position:2775
State Word:7e76  Speed:849.99  Motor Position:2829
State Word:7e76  Speed:849.99  Motor Position:2884
State Word:7e76  Speed:849.99  Motor Position:2938
State Word:27e76  Speed:849.99  Motor Position:2993
State Word:27e76  Speed:849.99  Motor Position:3048
State Word:7e76  Speed:849.99  Motor Position:3101
State Word:7e76  Speed:849.99  Motor Position:3155
State Word:7e76  Speed:849.99  Motor Position:3210
State Word:7e76  Speed:849.99  Motor Position:3265
State Word:7e76  Speed:849.99  Motor Position:3319
State Word:7e76  Speed:849.99  Motor Position:3373
State Word:7e76  Speed:849.99  Motor Position:3428
State Word:7e76  Speed:849.99  Motor Position:3482
State Word:7e76  Speed:849.99  Motor Position:3536
State Word:7e76  Speed:849.99  Motor Position:3591
State Word:7e76  Speed:849.99  Motor Position:3645
State Word:7e76  Speed:849.99  Motor Position:3700
State Word:7e76  Speed:849.99  Motor Position:3754
State Word:7e76  Speed:849.99  Motor Position:3809
State Word:7e76  Speed:849.99  Motor Position:3862
State Word:7e76  Speed:849.99  Motor Position:3917
State Word:7e76  Speed:849.99  Motor Position:3972
State Word:7e76  Speed:849.99  Motor Position:4026
State Word:7e76  Speed:849.99  Motor Position:4080
State Word:7e76  Speed:849.99  Motor Position:4135
State Word:7e76  Speed:849.99  Motor Position:4189
State Word:7e76  Speed:849.99  Motor Position:4243
State Word:7e76  Speed:849.99  Motor Position:4298
State Word:7e76  Speed:849.99  Motor Position:4352
State Word:7e76  Speed:849.99  Motor Position:4406
State Word:7e76  Speed:849.99  Motor Position:4461
State Word:7e76  Speed:849.99  Motor Position:4515
State Word:7e76  Speed:849.99  Motor Position:4570
State Word:7e76  Speed:849.99  Motor Position:4624
State Word:7e76  Speed:849.99  Motor Position:4679
State Word:7e76  Speed:849.99  Motor Position:4732
State Word:7e76  Speed:849.99  Motor Position:4786
State Word:7e76  Speed:849.99  Motor Position:4842
State Word:7e76  Speed:849.99  Motor Position:4896
State Word:7e76  Speed:849.99  Motor Position:4950
State Word:7e76  Speed:849.99  Motor Position:5005
State Word:7e76  Speed:849.99  Motor Position:5060
State Word:7e76  Speed:849.99  Motor Position:5113
State Word:7e76  Speed:849.99  Motor Position:5168
State Word:7e76  Speed:849.99  Motor Position:5222
State Word:7e76  Speed:849.99  Motor Position:5277
State Word:7e76  Speed:849.99  Motor Position:5331
State Word:7e76  Speed:849.99  Motor Position:5386
State Word:7e76  Speed:849.99  Motor Position:5440
State Word:7e76  Speed:849.99  Motor Position:5494
State Word:7e76  Speed:849.99  Motor Position:5549
State Word:7e76  Speed:849.99  Motor Position:5603
State Word:7e76  Speed:849.99  Motor Position:5658
State Word:7e76  Speed:849.99  Motor Position:5712
State Word:7e76  Speed:849.99  Motor Position:5766
State Word:7e76  Speed:849.99  Motor Position:5820
State Word:7e76  Speed:849.99  Motor Position:5874
State Word:17e76  Speed:849.99  Motor Position:5928
State Word:17e76  Speed:849.99  Motor Position:5984
State Word:17e76  Speed:849.99  Motor Position:6038
State Word:7e54  Speed:636.00  Motor Position:6087
State Word:7e54  Speed:364.99  Motor Position:6119
State Word:7e16  Speed:0.00  Motor Position:6134
- - Registers after stop begin - -
State Word:7e16  Speed:0.00  Motor Position:6134
- - Registers after stop end - -
