Control Word:0
Speed Begin:100
Speed End:1189
StepCount:120
StepMode:1
- - Intial Registers begin - -
State Word:17e06  Speed:0.00  Motor Position:-173
- - Intial Registers end- -
State Word:17e34  Speed:402.99  Motor Position:28
State Word:17e34  Speed:495.99  Motor Position:43
State Word:7e34  Speed:671.00  Motor Position:81
State Word:7e54  Speed:751.99  Motor Position:128
State Word:7e54  Speed:371.99  Motor Position:164
State Word:7e16  Speed:0.00  Motor Position:175
- - Registers after stop begin - -
State Word:7e16  Speed:0.00  Motor Position:175
- - Registers after stop end - -
