Control Word:3
Speed Begin:50
Speed End:500
StepCount:21000
StepMode:1
- - Intial Registers begin - -
State Word:7e16  Speed:0.00  Motor Position:6134
- - Intial Registers end- -
State Word:7e24  Speed:175.00  Motor Position:-12
State Word:7e24  Speed:215.99  Motor Position:-19
State Word:7e24  Speed:287.00  Motor Position:-35
State Word:7e24  Speed:360.00  Motor Position:-56
State Word:7e24  Speed:432.00  Motor Position:-81
State Word:17e44  Speed:355.99  Motor Position:-108
State Word:17e44  Speed:194.00  Motor Position:-126
State Word:17e06  Speed:0.00  Motor Position:-133
- - Registers after stop begin - -
State Word:17e06  Speed:0.00  Motor Position:-133
- - Registers after stop end - -
