Control Word:0
Speed Begin:100
Speed End:1318
StepCount:6050
StepMode:1
- - Intial Registers begin - -
State Word:17e06  Speed:0.00  Motor Position:-181
- - Intial Registers end- -
State Word:17e34  Speed:341.00  Motor Position:17
State Word:17e34  Speed:448.99  Motor Position:31
State Word:7e34  Speed:641.99  Motor Position:66
State Word:7e34  Speed:837.00  Motor Position:113
State Word:7e34  Speed:1032.99  Motor Position:173
State Word:7e34  Speed:1226.99  Motor Position:245
State Word:7e76  Speed:1317.99  Motor Position:329
State Word:7e76  Speed:1317.99  Motor Position:413
State Word:7e76  Speed:1317.99  Motor Position:497
State Word:7e76  Speed:1317.99  Motor Position:581
State Word:7e76  Speed:1317.99  Motor Position:665
State Word:7e76  Speed:1317.99  Motor Position:750
State Word:7e76  Speed:1317.99  Motor Position:834
State Word:7e76  Speed:1317.99  Motor Position:919
State Word:7e76  Speed:1317.99  Motor Position:1003
State Word:7e76  Speed:1317.99  Motor Position:1088
State Word:7e76  Speed:1317.99  Motor Position:1171
State Word:7e76  Speed:1317.99  Motor Position:1256
State Word:7e76  Speed:1317.99  Motor Position:1341
State Word:7e76  Speed:1317.99  Motor Position:1425
State Word:7e76  Speed:1317.99  Motor Position:1509
State Word:7e76  Speed:1317.99  Motor Position:1594
State Word:7e76  Speed:1317.99  Motor Position:1678
State Word:7e76  Speed:1317.99  Motor Position:1762
State Word:7e76  Speed:1317.99  Motor Position:1848
State Word:7e76  Speed:1317.99  Motor Position:1931
State Word:7e76  Speed:1317.99  Motor Position:2015
State Word:7e76  Speed:1317.99  Motor Position:2099
State Word:7e76  Speed:1317.99  Motor Position:2183
State Word:7e76  Speed:1317.99  Motor Position:2268
State Word:7e76  Speed:1317.99  Motor Position:2353
State Word:7e76  Speed:1317.99  Motor Position:2437
State Word:7e76  Speed:1317.99  Motor Position:2521
State Word:7e76  Speed:1317.99  Motor Position:2605
State Word:7e76  Speed:1317.99  Motor Position:2691
State Word:7e76  Speed:1317.99  Motor Position:2774
State Word:7e76  Speed:1317.99  Motor Position:2859
State Word:7e76  Speed:1317.99  Motor Position:2943
State Word:27e76  Speed:1317.99  Motor Position:3028
State Word:7e76  Speed:1317.99  Motor Position:3112
State Word:7e76  Speed:1317.99  Motor Position:3195
State Word:7e76  Speed:1317.99  Motor Position:3280
State Word:7e76  Speed:1317.99  Motor Position:3365
State Word:7e76  Speed:1317.99  Motor Position:3449
State Word:7e76  Speed:1317.99  Motor Position:3533
State Word:7e76  Speed:1317.99  Motor Position:3616
State Word:7e76  Speed:1317.99  Motor Position:3701
State Word:7e76  Speed:1317.99  Motor Position:3786
State Word:7e76  Speed:1317.99  Motor Position:3871
State Word:7e76  Speed:1317.99  Motor Position:3955
State Word:7e76  Speed:1317.99  Motor Position:4039
State Word:7e76  Speed:1317.99  Motor Position:4124
State Word:7e76  Speed:1317.99  Motor Position:4208
State Word:7e76  Speed:1317.99  Motor Position:4292
State Word:7e76  Speed:1317.99  Motor Position:4377
State Word:7e76  Speed:1317.99  Motor Position:4460
State Word:7e76  Speed:1317.99  Motor Position:4545
State Word:7e76  Speed:1317.99  Motor Position:4630
State Word:7e76  Speed:1317.99  Motor Position:4714
State Word:7e76  Speed:1317.99  Motor Position:4798
State Word:7e76  Speed:1317.99  Motor Position:4881
State Word:7e76  Speed:1317.99  Motor Position:4966
State Word:7e76  Speed:1317.99  Motor Position:5050
State Word:7e76  Speed:1317.99  Motor Position:5136
State Word:7e76  Speed:1317.99  Motor Position:5219
State Word:7e76  Speed:1317.99  Motor Position:5304
State Word:7e76  Speed:1317.99  Motor Position:5388
State Word:7e76  Speed:1317.99  Motor Position:5472
State Word:7e76  Speed:1317.99  Motor Position:5557
State Word:7e76  Speed:1317.99  Motor Position:5641
State Word:7e76  Speed:1317.99  Motor Position:5726
State Word:7e76  Speed:1317.99  Motor Position:5811
State Word:7e76  Speed:1317.99  Motor Position:5894
State Word:17e76  Speed:1317.99  Motor Position:5978
State Word:7e54  Speed:1251.00  Motor Position:6063
State Word:7e54  Speed:836.00  Motor Position:6129
State Word:7e54  Speed:415.00  Motor Position:6169
State Word:7e16  Speed:0.00  Motor Position:6181
- - Registers after stop begin - -
State Word:7e16  Speed:0.00  Motor Position:6181
- - Registers after stop end - -
