Control Word:3
Speed Begin:50
Speed End:500
StepCount:21000
StepMode:1
- - Intial Registers begin - -
State Word:7e16  Speed:0.00  Motor Position:6195
- - Intial Registers end- -
State Word:7e24  Speed:175.00  Motor Position:-12
State Word:7e24  Speed:214.99  Motor Position:-19
State Word:7e24  Speed:287.99  Motor Position:-36
State Word:7e24  Speed:359.00  Motor Position:-56
State Word:7e24  Speed:432.00  Motor Position:-82
State Word:7e66  Speed:499.99  Motor Position:-112
State Word:17e44  Speed:480.00  Motor Position:-143
State Word:17e44  Speed:319.99  Motor Position:-169
State Word:17e44  Speed:159.99  Motor Position:-184
State Word:17e06  Speed:0.00  Motor Position:-189
- - Registers after stop begin - -
State Word:17e06  Speed:0.00  Motor Position:-189
- - Registers after stop end - -
