Control Word:0
Speed Begin:100
Speed End:1948
StepCount:6050
StepMode:1
- - Intial Registers begin - -
State Word:17e06  Speed:0.00  Motor Position:-237
- - Intial Registers end- -
State Word:17e34  Speed:462.99  Motor Position:22
State Word:17e34  Speed:621.99  Motor Position:41
State Word:7e34  Speed:779.99  Motor Position:65
State Word:7e34  Speed:1075.00  Motor Position:124
State Word:7e34  Speed:1371.00  Motor Position:202
State Word:7e34  Speed:1665.00  Motor Position:299
State Word:7e76  Speed:1948.00  Motor Position:415
State Word:7e76  Speed:1948.00  Motor Position:537
State Word:7e76  Speed:1948.00  Motor Position:661
State Word:7e76  Speed:1948.00  Motor Position:786
State Word:7e76  Speed:1948.00  Motor Position:911
State Word:7e76  Speed:1948.00  Motor Position:1036
State Word:7e76  Speed:1948.00  Motor Position:1162
State Word:7e76  Speed:1948.00  Motor Position:1288
State Word:7e76  Speed:1948.00  Motor Position:2074
State Word:7e76  Speed:1948.00  Motor Position:2164
State Word:7e76  Speed:1948.00  Motor Position:2281
State Word:7e76  Speed:1948.00  Motor Position:2406
State Word:7e76  Speed:1948.00  Motor Position:2530
State Word:7e76  Speed:1948.00  Motor Position:2657
State Word:7e76  Speed:1948.00  Motor Position:2780
State Word:7e76  Speed:1948.00  Motor Position:2910
State Word:27e76  Speed:1948.00  Motor Position:3032
State Word:7e76  Speed:1948.00  Motor Position:3158
State Word:7e76  Speed:1948.00  Motor Position:3281
State Word:7e76  Speed:1948.00  Motor Position:3403
State Word:7e76  Speed:1948.00  Motor Position:3527
State Word:7e76  Speed:1948.00  Motor Position:3590
State Word:7e76  Speed:1948.00  Motor Position:3714
State Word:7e76  Speed:1948.00  Motor Position:3776
State Word:7e76  Speed:1948.00  Motor Position:3901
State Word:7e76  Speed:1948.00  Motor Position:4030
State Word:7e76  Speed:1948.00  Motor Position:4155
State Word:7e76  Speed:1948.00  Motor Position:4279
State Word:7e76  Speed:1948.00  Motor Position:4400
State Word:7e76  Speed:1948.00  Motor Position:4524
State Word:7e76  Speed:1948.00  Motor Position:4649
State Word:7e76  Speed:1948.00  Motor Position:4773
State Word:7e76  Speed:1948.00  Motor Position:4835
State Word:7e76  Speed:1948.00  Motor Position:4897
State Word:7e76  Speed:1948.00  Motor Position:4966
State Word:7e76  Speed:1948.00  Motor Position:5088
State Word:7e76  Speed:1948.00  Motor Position:5213
State Word:7e76  Speed:1948.00  Motor Position:5334
State Word:7e76  Speed:1948.00  Motor Position:5458
State Word:7e76  Speed:1948.00  Motor Position:5584
State Word:7e76  Speed:1948.00  Motor Position:5709
State Word:7e76  Speed:1948.00  Motor Position:5833
State Word:17e76  Speed:1948.00  Motor Position:5960
State Word:7e54  Speed:1770.99  Motor Position:6085
State Word:7e54  Speed:1152.99  Motor Position:6178
State Word:7e54  Speed:531.99  Motor Position:6232
State Word:7e16  Speed:0.00  Motor Position:6246
- - Registers after stop begin - -
State Word:7e16  Speed:0.00  Motor Position:6246
- - Registers after stop end - -
