Control Word:0
Speed Begin:100
Speed End:1370
StepCount:6050
StepMode:1
- - Intial Registers begin - -
State Word:7e16  Speed:0.00  Motor Position:21049
- - Intial Registers end- -
State Word:7e34  Speed:347.99  Motor Position:17
State Word:7e34  Speed:462.00  Motor Position:32
State Word:7e34  Speed:667.99  Motor Position:69
State Word:7e34  Speed:867.99  Motor Position:117
State Word:7e34  Speed:1073.99  Motor Position:180
State Word:7e34  Speed:1277.00  Motor Position:255
State Word:7e76  Speed:1370.00  Motor Position:339
State Word:7e76  Speed:1370.00  Motor Position:427
State Word:7e76  Speed:1370.00  Motor Position:516
State Word:7e76  Speed:1370.00  Motor Position:603
State Word:7e76  Speed:1370.00  Motor Position:691
State Word:7e76  Speed:1370.00  Motor Position:779
State Word:7e76  Speed:1370.00  Motor Position:867
State Word:7e76  Speed:1370.00  Motor Position:954
State Word:7e76  Speed:1370.00  Motor Position:1042
State Word:7e76  Speed:1370.00  Motor Position:1130
State Word:7e76  Speed:1370.00  Motor Position:1217
State Word:7e76  Speed:1370.00  Motor Position:1305
State Word:7e76  Speed:1370.00  Motor Position:1392
State Word:7e76  Speed:1370.00  Motor Position:1480
State Word:7e76  Speed:1370.00  Motor Position:1567
State Word:7e76  Speed:1370.00  Motor Position:1655
State Word:7e76  Speed:1370.00  Motor Position:1743
State Word:7e76  Speed:1370.00  Motor Position:1830
State Word:7e76  Speed:1370.00  Motor Position:1918
State Word:7e76  Speed:1370.00  Motor Position:2005
State Word:7e76  Speed:1370.00  Motor Position:2093
State Word:7e76  Speed:1370.00  Motor Position:2181
State Word:7e76  Speed:1370.00  Motor Position:2269
State Word:27e76  Speed:1370.00  Motor Position:2356
State Word:27e76  Speed:1370.00  Motor Position:2444
State Word:7e76  Speed:1370.00  Motor Position:2532
State Word:7e76  Speed:1370.00  Motor Position:2619
State Word:7e76  Speed:1370.00  Motor Position:2707
State Word:7e76  Speed:1370.00  Motor Position:2795
State Word:7e76  Speed:1370.00  Motor Position:2882
State Word:7e76  Speed:1370.00  Motor Position:2970
State Word:7e76  Speed:1370.00  Motor Position:3058
State Word:7e76  Speed:1370.00  Motor Position:3145
State Word:7e76  Speed:1370.00  Motor Position:3232
State Word:7e76  Speed:1370.00  Motor Position:3321
State Word:7e76  Speed:1370.00  Motor Position:3408
State Word:7e76  Speed:1370.00  Motor Position:3495
State Word:7e76  Speed:1370.00  Motor Position:3584
State Word:7e76  Speed:1370.00  Motor Position:3671
State Word:7e76  Speed:1370.00  Motor Position:3759
State Word:7e76  Speed:1370.00  Motor Position:3846
State Word:7e76  Speed:1370.00  Motor Position:3934
State Word:7e76  Speed:1370.00  Motor Position:4022
State Word:7e76  Speed:1370.00  Motor Position:4109
State Word:7e76  Speed:1370.00  Motor Position:4197
State Word:7e76  Speed:1370.00  Motor Position:4284
State Word:7e76  Speed:1370.00  Motor Position:4372
State Word:7e76  Speed:1370.00  Motor Position:4460
State Word:7e76  Speed:1370.00  Motor Position:4548
State Word:7e76  Speed:1370.00  Motor Position:4636
State Word:7e76  Speed:1370.00  Motor Position:4723
State Word:7e76  Speed:1370.00  Motor Position:4811
State Word:7e76  Speed:1370.00  Motor Position:4898
State Word:7e76  Speed:1370.00  Motor Position:4986
State Word:7e76  Speed:1370.00  Motor Position:5074
State Word:7e76  Speed:1370.00  Motor Position:5161
State Word:7e76  Speed:1370.00  Motor Position:5248
State Word:17e76  Speed:1370.00  Motor Position:5336
State Word:7e76  Speed:1370.00  Motor Position:5424
State Word:7e76  Speed:1370.00  Motor Position:5512
State Word:7e76  Speed:1370.00  Motor Position:5599
State Word:7e76  Speed:1370.00  Motor Position:5687
State Word:7e76  Speed:1370.00  Motor Position:5775
State Word:7e76  Speed:1370.00  Motor Position:5862
State Word:7e76  Speed:1370.00  Motor Position:5949
State Word:7e76  Speed:1370.00  Motor Position:6036
State Word:7e54  Speed:991.99  Motor Position:6116
State Word:7e54  Speed:557.99  Motor Position:6165
State Word:7e54  Speed:125.99  Motor Position:6186
State Word:7e16  Speed:0.00  Motor Position:6187
- - Registers after stop begin - -
State Word:7e16  Speed:0.00  Motor Position:6187
- - Registers after stop end - -
