Control Word:0
Speed Begin:100
Speed End:776
StepCount:7500
StepMode:1
- - Intial Registers begin - -
State Word:17e06  Speed:0.00  Motor Position:-1559
- - Intial Registers end- -
State Word:17e34  Speed:232.99  Motor Position:13
State Word:17e34  Speed:291.99  Motor Position:22
State Word:17e34  Speed:400.99  Motor Position:45
State Word:7e34  Speed:508.99  Motor Position:74
State Word:7e34  Speed:616.00  Motor Position:109
State Word:7e34  Speed:723.99  Motor Position:152
State Word:7e76  Speed:775.99  Motor Position:201
State Word:7e76  Speed:775.99  Motor Position:251
State Word:7e76  Speed:775.99  Motor Position:299
State Word:7e76  Speed:775.99  Motor Position:326
State Word:7e76  Speed:775.99  Motor Position:375
State Word:7e76  Speed:775.99  Motor Position:424
State Word:7e76  Speed:775.99  Motor Position:474
State Word:7e76  Speed:775.99  Motor Position:525
State Word:7e76  Speed:775.99  Motor Position:572
State Word:7e76  Speed:775.99  Motor Position:623
State Word:7e76  Speed:775.99  Motor Position:673
State Word:7e76  Speed:775.99  Motor Position:723
State Word:7e76  Speed:775.99  Motor Position:771
State Word:7e76  Speed:775.99  Motor Position:821
State Word:7e76  Speed:775.99  Motor Position:871
State Word:7e76  Speed:775.99  Motor Position:921
State Word:7e76  Speed:775.99  Motor Position:970
State Word:7e76  Speed:775.99  Motor Position:1020
State Word:7e76  Speed:775.99  Motor Position:1070
State Word:7e76  Speed:775.99  Motor Position:1119
State Word:7e76  Speed:775.99  Motor Position:1169
State Word:7e76  Speed:775.99  Motor Position:1219
State Word:7e76  Speed:775.99  Motor Position:1268
State Word:7e76  Speed:775.99  Motor Position:1318
State Word:7e76  Speed:775.99  Motor Position:1367
State Word:7e76  Speed:775.99  Motor Position:1417
State Word:7e76  Speed:775.99  Motor Position:1467
State Word:7e76  Speed:775.99  Motor Position:1516
State Word:7e76  Speed:775.99  Motor Position:1566
State Word:7e76  Speed:775.99  Motor Position:1616
State Word:7e76  Speed:775.99  Motor Position:1666
State Word:7e76  Speed:775.99  Motor Position:1715
State Word:7e76  Speed:775.99  Motor Position:1765
State Word:7e76  Speed:775.99  Motor Position:1815
State Word:7e76  Speed:775.99  Motor Position:1865
State Word:7e76  Speed:775.99  Motor Position:1914
State Word:7e76  Speed:775.99  Motor Position:1964
State Word:7e76  Speed:775.99  Motor Position:2013
State Word:7e76  Speed:775.99  Motor Position:2063
State Word:7e76  Speed:775.99  Motor Position:2113
State Word:7e76  Speed:775.99  Motor Position:2162
State Word:7e76  Speed:775.99  Motor Position:2212
State Word:7e76  Speed:775.99  Motor Position:2262
State Word:7e76  Speed:775.99  Motor Position:2311
State Word:7e76  Speed:775.99  Motor Position:2361
State Word:7e76  Speed:775.99  Motor Position:2411
State Word:7e76  Speed:775.99  Motor Position:2460
State Word:7e76  Speed:775.99  Motor Position:2511
State Word:7e76  Speed:775.99  Motor Position:2560
State Word:7e76  Speed:775.99  Motor Position:2609
State Word:7e76  Speed:775.99  Motor Position:2658
State Word:7e76  Speed:775.99  Motor Position:2709
State Word:7e76  Speed:775.99  Motor Position:2758
State Word:7e76  Speed:775.99  Motor Position:2808
State Word:7e76  Speed:775.99  Motor Position:2856
State Word:7e76  Speed:775.99  Motor Position:2907
State Word:27e76  Speed:775.99  Motor Position:2956
State Word:27e76  Speed:775.99  Motor Position:3007
State Word:27e76  Speed:775.99  Motor Position:3056
State Word:7e76  Speed:775.99  Motor Position:3106
State Word:7e76  Speed:775.99  Motor Position:3155
State Word:7e76  Speed:775.99  Motor Position:3205
State Word:7e76  Speed:775.99  Motor Position:3255
State Word:7e76  Speed:775.99  Motor Position:3304
State Word:7e76  Speed:775.99  Motor Position:3354
State Word:7e76  Speed:775.99  Motor Position:3404
State Word:7e76  Speed:775.99  Motor Position:3453
State Word:7e76  Speed:775.99  Motor Position:3503
State Word:7e76  Speed:775.99  Motor Position:3552
State Word:7e76  Speed:775.99  Motor Position:3602
State Word:7e76  Speed:775.99  Motor Position:3652
State Word:7e76  Speed:775.99  Motor Position:3701
State Word:7e76  Speed:775.99  Motor Position:3752
State Word:7e76  Speed:775.99  Motor Position:3801
State Word:7e76  Speed:775.99  Motor Position:3850
State Word:7e76  Speed:775.99  Motor Position:3901
State Word:7e76  Speed:775.99  Motor Position:3949
State Word:7e76  Speed:775.99  Motor Position:4000
State Word:7e76  Speed:775.99  Motor Position:4049
State Word:7e76  Speed:775.99  Motor Position:4099
State Word:7e76  Speed:775.99  Motor Position:4148
State Word:7e76  Speed:775.99  Motor Position:4198
State Word:7e76  Speed:775.99  Motor Position:4248
State Word:7e76  Speed:775.99  Motor Position:4297
State Word:7e76  Speed:775.99  Motor Position:4347
State Word:7e76  Speed:775.99  Motor Position:4397
State Word:7e76  Speed:775.99  Motor Position:4446
State Word:7e76  Speed:775.99  Motor Position:4496
State Word:7e76  Speed:775.99  Motor Position:4545
State Word:7e76  Speed:775.99  Motor Position:4595
State Word:7e76  Speed:775.99  Motor Position:4645
State Word:7e76  Speed:775.99  Motor Position:4695
State Word:7e76  Speed:775.99  Motor Position:4743
State Word:7e76  Speed:775.99  Motor Position:4794
State Word:7e76  Speed:775.99  Motor Position:4844
State Word:7e76  Speed:775.99  Motor Position:4893
State Word:7e76  Speed:775.99  Motor Position:4942
State Word:7e76  Speed:775.99  Motor Position:4992
State Word:7e76  Speed:775.99  Motor Position:5042
State Word:7e76  Speed:775.99  Motor Position:5092
State Word:7e76  Speed:775.99  Motor Position:5141
State Word:7e76  Speed:775.99  Motor Position:5191
State Word:7e76  Speed:775.99  Motor Position:5241
State Word:7e76  Speed:775.99  Motor Position:5291
State Word:7e76  Speed:775.99  Motor Position:5339
State Word:7e76  Speed:775.99  Motor Position:5389
State Word:7e76  Speed:775.99  Motor Position:5439
State Word:7e76  Speed:775.99  Motor Position:5489
State Word:7e76  Speed:775.99  Motor Position:5537
State Word:7e76  Speed:775.99  Motor Position:5588
State Word:7e76  Speed:775.99  Motor Position:5637
State Word:7e76  Speed:775.99  Motor Position:5687
State Word:7e76  Speed:775.99  Motor Position:5736
State Word:7e76  Speed:775.99  Motor Position:5786
State Word:7e76  Speed:775.99  Motor Position:5836
State Word:7e76  Speed:775.99  Motor Position:5886
State Word:7e76  Speed:775.99  Motor Position:5935
State Word:17e76  Speed:775.99  Motor Position:5985
State Word:17e76  Speed:775.99  Motor Position:6035
State Word:7e76  Speed:775.99  Motor Position:6084
State Word:7e76  Speed:775.99  Motor Position:6134
State Word:7e76  Speed:775.99  Motor Position:6184
State Word:7e76  Speed:775.99  Motor Position:6234
State Word:7e76  Speed:775.99  Motor Position:6283
State Word:7e76  Speed:775.99  Motor Position:6333
State Word:7e76  Speed:775.99  Motor Position:6382
State Word:7e76  Speed:775.99  Motor Position:6432
State Word:7e76  Speed:775.99  Motor Position:6482
State Word:7e76  Speed:775.99  Motor Position:6532
State Word:7e76  Speed:775.99  Motor Position:6580
State Word:7e76  Speed:775.99  Motor Position:6631
State Word:7e76  Speed:775.99  Motor Position:6680
State Word:7e76  Speed:775.99  Motor Position:6729
State Word:7e76  Speed:775.99  Motor Position:6780
State Word:7e76  Speed:775.99  Motor Position:6829
State Word:7e76  Speed:775.99  Motor Position:6879
State Word:7e76  Speed:775.99  Motor Position:6928
State Word:7e76  Speed:775.99  Motor Position:6979
State Word:7e76  Speed:775.99  Motor Position:7028
State Word:7e76  Speed:775.99  Motor Position:7078
State Word:7e76  Speed:775.99  Motor Position:7128
State Word:7e76  Speed:775.99  Motor Position:7177
State Word:7e76  Speed:775.99  Motor Position:7227
State Word:7e76  Speed:775.99  Motor Position:7276
State Word:7e76  Speed:775.99  Motor Position:7326
State Word:7e76  Speed:775.99  Motor Position:7375
State Word:7e76  Speed:775.99  Motor Position:7425
State Word:7e76  Speed:775.99  Motor Position:7475
State Word:7e54  Speed:650.99  Motor Position:7523
State Word:7e54  Speed:407.00  Motor Position:7556
State Word:7e54  Speed:154.99  Motor Position:7574
State Word:7e16  Speed:0.00  Motor Position:7576
- - Registers after stop begin - -
State Word:7e16  Speed:0.00  Motor Position:7576
- - Registers after stop end - -
