Control Word:3
Speed Begin:50
Speed End:500
StepCount:21000
StepMode:1
- - Intial Registers begin - -
State Word:7e16  Speed:0.00  Motor Position:6153
- - Intial Registers end- -
State Word:7e24  Speed:140.99  Motor Position:-8
State Word:7e24  Speed:179.99  Motor Position:-13
State Word:7e24  Speed:251.99  Motor Position:-27
State Word:7e24  Speed:323.00  Motor Position:-45
State Word:7e24  Speed:396.00  Motor Position:-68
State Word:7e24  Speed:469.00  Motor Position:-96
State Word:17e44  Speed:380.99  Motor Position:-125
State Word:17e44  Speed:221.00  Motor Position:-144
State Word:17e44  Speed:60.99  Motor Position:-153
State Word:17e06  Speed:0.00  Motor Position:-154
- - Registers after stop begin - -
State Word:17e06  Speed:0.00  Motor Position:-154
- - Registers after stop end - -
