Control Word:0
Speed Begin:100
Speed End:408
StepCount:6050
StepMode:1
- - Intial Registers begin - -
State Word:17e06  Speed:0.00  Motor Position:-86
- - Intial Registers end- -
State Word:17e34  Speed:160.99  Motor Position:10
State Word:17e34  Speed:188.99  Motor Position:17
State Word:17e34  Speed:239.00  Motor Position:30
State Word:7e34  Speed:287.99  Motor Position:47
State Word:7e34  Speed:336.99  Motor Position:67
State Word:7e34  Speed:386.00  Motor Position:90
State Word:7e76  Speed:407.99  Motor Position:116
State Word:7e76  Speed:407.99  Motor Position:142
State Word:7e76  Speed:407.99  Motor Position:168
State Word:7e76  Speed:407.99  Motor Position:194
State Word:7e76  Speed:407.99  Motor Position:220
State Word:7e76  Speed:407.99  Motor Position:246
State Word:7e76  Speed:407.99  Motor Position:273
State Word:7e76  Speed:407.99  Motor Position:299
State Word:7e76  Speed:407.99  Motor Position:325
State Word:7e76  Speed:407.99  Motor Position:351
State Word:7e76  Speed:407.99  Motor Position:377
State Word:7e76  Speed:407.99  Motor Position:403
State Word:7e76  Speed:407.99  Motor Position:429
State Word:7e76  Speed:407.99  Motor Position:455
State Word:7e76  Speed:407.99  Motor Position:482
State Word:7e76  Speed:407.99  Motor Position:507
State Word:7e76  Speed:407.99  Motor Position:534
State Word:7e76  Speed:407.99  Motor Position:560
State Word:7e76  Speed:407.99  Motor Position:586
State Word:7e76  Speed:407.99  Motor Position:612
State Word:7e76  Speed:407.99  Motor Position:638
State Word:7e76  Speed:407.99  Motor Position:664
State Word:7e76  Speed:407.99  Motor Position:690
State Word:7e76  Speed:407.99  Motor Position:716
State Word:7e76  Speed:407.99  Motor Position:742
State Word:7e76  Speed:407.99  Motor Position:768
State Word:7e76  Speed:407.99  Motor Position:794
State Word:7e76  Speed:407.99  Motor Position:820
State Word:7e76  Speed:407.99  Motor Position:847
State Word:7e76  Speed:407.99  Motor Position:873
State Word:7e76  Speed:407.99  Motor Position:899
State Word:7e76  Speed:407.99  Motor Position:925
State Word:7e76  Speed:407.99  Motor Position:951
State Word:7e76  Speed:407.99  Motor Position:977
State Word:7e76  Speed:407.99  Motor Position:1004
State Word:7e76  Speed:407.99  Motor Position:1030
State Word:7e76  Speed:407.99  Motor Position:1056
State Word:7e76  Speed:407.99  Motor Position:1082
State Word:7e76  Speed:407.99  Motor Position:1108
State Word:7e76  Speed:407.99  Motor Position:1134
State Word:7e76  Speed:407.99  Motor Position:1160
State Word:7e76  Speed:407.99  Motor Position:1186
State Word:7e76  Speed:407.99  Motor Position:1212
State Word:7e76  Speed:407.99  Motor Position:1238
State Word:7e76  Speed:407.99  Motor Position:1264
State Word:7e76  Speed:407.99  Motor Position:1290
State Word:7e76  Speed:407.99  Motor Position:1317
State Word:7e76  Speed:407.99  Motor Position:1343
State Word:7e76  Speed:407.99  Motor Position:1369
State Word:7e76  Speed:407.99  Motor Position:1395
State Word:7e76  Speed:407.99  Motor Position:1421
State Word:7e76  Speed:407.99  Motor Position:1447
State Word:7e76  Speed:407.99  Motor Position:1473
State Word:7e76  Speed:407.99  Motor Position:1499
State Word:7e76  Speed:407.99  Motor Position:1525
State Word:7e76  Speed:407.99  Motor Position:1552
State Word:7e76  Speed:407.99  Motor Position:1578
State Word:7e76  Speed:407.99  Motor Position:1604
State Word:7e76  Speed:407.99  Motor Position:1630
State Word:7e76  Speed:407.99  Motor Position:1656
State Word:7e76  Speed:407.99  Motor Position:1682
State Word:7e76  Speed:407.99  Motor Position:1708
State Word:7e76  Speed:407.99  Motor Position:1735
State Word:7e76  Speed:407.99  Motor Position:1760
State Word:7e76  Speed:407.99  Motor Position:1787
State Word:7e76  Speed:407.99  Motor Position:1813
State Word:7e76  Speed:407.99  Motor Position:1839
State Word:7e76  Speed:407.99  Motor Position:1865
State Word:7e76  Speed:407.99  Motor Position:1891
State Word:7e76  Speed:407.99  Motor Position:1917
State Word:7e76  Speed:407.99  Motor Position:1943
State Word:7e76  Speed:407.99  Motor Position:1969
State Word:7e76  Speed:407.99  Motor Position:1995
State Word:7e76  Speed:407.99  Motor Position:2021
State Word:7e76  Speed:407.99  Motor Position:2048
State Word:7e76  Speed:407.99  Motor Position:2074
State Word:7e76  Speed:407.99  Motor Position:2100
State Word:7e76  Speed:407.99  Motor Position:2126
State Word:7e76  Speed:407.99  Motor Position:2152
State Word:7e76  Speed:407.99  Motor Position:2178
State Word:7e76  Speed:407.99  Motor Position:2204
State Word:7e76  Speed:407.99  Motor Position:2230
State Word:7e76  Speed:407.99  Motor Position:2257
State Word:7e76  Speed:407.99  Motor Position:2283
State Word:7e76  Speed:407.99  Motor Position:2309
State Word:7e76  Speed:407.99  Motor Position:2335
State Word:7e76  Speed:407.99  Motor Position:2361
State Word:7e76  Speed:407.99  Motor Position:2387
State Word:7e76  Speed:407.99  Motor Position:2413
State Word:7e76  Speed:407.99  Motor Position:2439
State Word:7e76  Speed:407.99  Motor Position:2465
State Word:7e76  Speed:407.99  Motor Position:2491
State Word:7e76  Speed:407.99  Motor Position:2517
State Word:7e76  Speed:407.99  Motor Position:2544
State Word:7e76  Speed:407.99  Motor Position:2569
State Word:7e76  Speed:407.99  Motor Position:2596
State Word:7e76  Speed:407.99  Motor Position:2622
State Word:7e76  Speed:407.99  Motor Position:2648
State Word:7e76  Speed:407.99  Motor Position:2674
State Word:7e76  Speed:407.99  Motor Position:2700
State Word:7e76  Speed:407.99  Motor Position:2726
State Word:7e76  Speed:407.99  Motor Position:2752
State Word:7e76  Speed:407.99  Motor Position:2779
State Word:7e76  Speed:407.99  Motor Position:2804
State Word:7e76  Speed:407.99  Motor Position:2831
State Word:7e76  Speed:407.99  Motor Position:2857
State Word:7e76  Speed:407.99  Motor Position:2883
State Word:7e76  Speed:407.99  Motor Position:2909
State Word:27e76  Speed:407.99  Motor Position:2935
State Word:27e76  Speed:407.99  Motor Position:2961
State Word:27e76  Speed:407.99  Motor Position:2988
State Word:27e76  Speed:407.99  Motor Position:3014
State Word:27e76  Speed:407.99  Motor Position:3040
State Word:27e76  Speed:407.99  Motor Position:3066
State Word:7e76  Speed:407.99  Motor Position:3092
State Word:7e76  Speed:407.99  Motor Position:3118
State Word:7e76  Speed:407.99  Motor Position:3144
State Word:7e76  Speed:407.99  Motor Position:3170
State Word:7e76  Speed:407.99  Motor Position:3196
State Word:7e76  Speed:407.99  Motor Position:3222
State Word:7e76  Speed:407.99  Motor Position:3249
State Word:7e76  Speed:407.99  Motor Position:3274
State Word:7e76  Speed:407.99  Motor Position:3300
State Word:7e76  Speed:407.99  Motor Position:3327
State Word:7e76  Speed:407.99  Motor Position:3353
State Word:7e76  Speed:407.99  Motor Position:3379
State Word:7e76  Speed:407.99  Motor Position:3405
State Word:7e76  Speed:407.99  Motor Position:3431
State Word:7e76  Speed:407.99  Motor Position:3457
State Word:7e76  Speed:407.99  Motor Position:3483
State Word:7e76  Speed:407.99  Motor Position:3510
State Word:7e76  Speed:407.99  Motor Position:3535
State Word:7e76  Speed:407.99  Motor Position:3562
State Word:7e76  Speed:407.99  Motor Position:3588
State Word:7e76  Speed:407.99  Motor Position:3614
State Word:7e76  Speed:407.99  Motor Position:3640
State Word:7e76  Speed:407.99  Motor Position:3666
State Word:7e76  Speed:407.99  Motor Position:3692
State Word:7e76  Speed:407.99  Motor Position:3718
State Word:7e76  Speed:407.99  Motor Position:3744
State Word:7e76  Speed:407.99  Motor Position:3770
State Word:7e76  Speed:407.99  Motor Position:3797
State Word:7e76  Speed:407.99  Motor Position:3823
State Word:7e76  Speed:407.99  Motor Position:3849
State Word:7e76  Speed:407.99  Motor Position:3875
State Word:7e76  Speed:407.99  Motor Position:3901
State Word:7e76  Speed:407.99  Motor Position:3927
State Word:7e76  Speed:407.99  Motor Position:3953
State Word:7e76  Speed:407.99  Motor Position:3979
State Word:7e76  Speed:407.99  Motor Position:4005
State Word:7e76  Speed:407.99  Motor Position:4032
State Word:7e76  Speed:407.99  Motor Position:4057
State Word:7e76  Speed:407.99  Motor Position:4084
State Word:7e76  Speed:407.99  Motor Position:4110
State Word:7e76  Speed:407.99  Motor Position:4136
State Word:7e76  Speed:407.99  Motor Position:4162
State Word:7e76  Speed:407.99  Motor Position:4188
State Word:7e76  Speed:407.99  Motor Position:4214
State Word:7e76  Speed:407.99  Motor Position:4240
State Word:7e76  Speed:407.99  Motor Position:4266
State Word:7e76  Speed:407.99  Motor Position:4293
State Word:7e76  Speed:407.99  Motor Position:4319
State Word:7e76  Speed:407.99  Motor Position:4345
State Word:7e76  Speed:407.99  Motor Position:4371
State Word:7e76  Speed:407.99  Motor Position:4397
State Word:7e76  Speed:407.99  Motor Position:4423
State Word:7e76  Speed:407.99  Motor Position:4449
State Word:7e76  Speed:407.99  Motor Position:4475
State Word:7e76  Speed:407.99  Motor Position:4501
State Word:7e76  Speed:407.99  Motor Position:4527
State Word:7e76  Speed:407.99  Motor Position:4553
State Word:7e76  Speed:407.99  Motor Position:4580
State Word:7e76  Speed:407.99  Motor Position:4605
State Word:7e76  Speed:407.99  Motor Position:4632
State Word:7e76  Speed:407.99  Motor Position:4658
State Word:7e76  Speed:407.99  Motor Position:4684
State Word:7e76  Speed:407.99  Motor Position:4710
State Word:7e76  Speed:407.99  Motor Position:4736
State Word:7e76  Speed:407.99  Motor Position:4762
State Word:7e76  Speed:407.99  Motor Position:4789
State Word:7e76  Speed:407.99  Motor Position:4814
State Word:7e76  Speed:407.99  Motor Position:4841
State Word:7e76  Speed:407.99  Motor Position:4867
State Word:7e76  Speed:407.99  Motor Position:4893
State Word:7e76  Speed:407.99  Motor Position:4919
State Word:7e76  Speed:407.99  Motor Position:4945
State Word:7e76  Speed:407.99  Motor Position:4971
State Word:7e76  Speed:407.99  Motor Position:4997
State Word:7e76  Speed:407.99  Motor Position:5023
State Word:7e76  Speed:407.99  Motor Position:5050
State Word:7e76  Speed:407.99  Motor Position:5076
State Word:7e76  Speed:407.99  Motor Position:5102
State Word:7e76  Speed:407.99  Motor Position:5128
State Word:7e76  Speed:407.99  Motor Position:5154
State Word:7e76  Speed:407.99  Motor Position:5180
State Word:7e76  Speed:407.99  Motor Position:5206
State Word:7e76  Speed:407.99  Motor Position:5232
State Word:7e76  Speed:407.99  Motor Position:5258
State Word:7e76  Speed:407.99  Motor Position:5284
State Word:7e76  Speed:407.99  Motor Position:5310
State Word:7e76  Speed:407.99  Motor Position:5337
State Word:7e76  Speed:407.99  Motor Position:5363
State Word:7e76  Speed:407.99  Motor Position:5389
State Word:7e76  Speed:407.99  Motor Position:5415
State Word:7e76  Speed:407.99  Motor Position:5441
State Word:7e76  Speed:407.99  Motor Position:5467
State Word:7e76  Speed:407.99  Motor Position:5493
State Word:7e76  Speed:407.99  Motor Position:5519
State Word:7e76  Speed:407.99  Motor Position:5546
State Word:7e76  Speed:407.99  Motor Position:5572
State Word:7e76  Speed:407.99  Motor Position:5598
State Word:7e76  Speed:407.99  Motor Position:5624
State Word:7e76  Speed:407.99  Motor Position:5650
State Word:7e76  Speed:407.99  Motor Position:5676
State Word:7e76  Speed:407.99  Motor Position:5702
State Word:7e76  Speed:407.99  Motor Position:5728
State Word:7e76  Speed:407.99  Motor Position:5754
State Word:7e76  Speed:407.99  Motor Position:5781
State Word:7e76  Speed:407.99  Motor Position:5807
State Word:7e76  Speed:407.99  Motor Position:5833
State Word:7e76  Speed:407.99  Motor Position:5859
State Word:7e76  Speed:407.99  Motor Position:5885
State Word:17e76  Speed:407.99  Motor Position:5911
State Word:17e76  Speed:407.99  Motor Position:5937
State Word:17e76  Speed:407.99  Motor Position:5963
State Word:17e76  Speed:407.99  Motor Position:5990
State Word:17e76  Speed:407.99  Motor Position:6015
State Word:7e76  Speed:407.99  Motor Position:6042
State Word:7e54  Speed:319.99  Motor Position:6066
State Word:7e54  Speed:188.99  Motor Position:6082
State Word:7e16  Speed:0.00  Motor Position:6088
- - Registers after stop begin - -
State Word:7e16  Speed:0.00  Motor Position:6088
- - Registers after stop end - -
