Control Word:0
Speed Begin:100
Speed End:694
StepCount:6050
StepMode:1
- - Intial Registers begin - -
State Word:17e06  Speed:0.00  Motor Position:-109
- - Intial Registers end- -
State Word:17e34  Speed:217.99  Motor Position:13
State Word:17e34  Speed:270.99  Motor Position:21
State Word:17e34  Speed:364.99  Motor Position:41
State Word:7e34  Speed:460.00  Motor Position:68
State Word:7e34  Speed:554.99  Motor Position:100
State Word:7e34  Speed:649.99  Motor Position:139
State Word:7e76  Speed:693.99  Motor Position:183
State Word:7e76  Speed:693.99  Motor Position:226
State Word:7e76  Speed:693.99  Motor Position:272
State Word:7e76  Speed:693.99  Motor Position:316
State Word:7e76  Speed:693.99  Motor Position:360
State Word:7e76  Speed:693.99  Motor Position:404
State Word:7e76  Speed:693.99  Motor Position:449
State Word:7e76  Speed:693.99  Motor Position:493
State Word:7e76  Speed:693.99  Motor Position:538
State Word:7e76  Speed:693.99  Motor Position:582
State Word:7e76  Speed:693.99  Motor Position:627
State Word:7e76  Speed:693.99  Motor Position:671
State Word:7e76  Speed:693.99  Motor Position:715
State Word:7e76  Speed:693.99  Motor Position:760
State Word:7e76  Speed:693.99  Motor Position:804
State Word:7e76  Speed:693.99  Motor Position:849
State Word:7e76  Speed:693.99  Motor Position:893
State Word:7e76  Speed:693.99  Motor Position:936
State Word:7e76  Speed:693.99  Motor Position:982
State Word:7e76  Speed:693.99  Motor Position:1026
State Word:7e76  Speed:693.99  Motor Position:1070
State Word:7e76  Speed:693.99  Motor Position:1114
State Word:7e76  Speed:693.99  Motor Position:1159
State Word:7e76  Speed:693.99  Motor Position:1204
State Word:7e76  Speed:693.99  Motor Position:1248
State Word:7e76  Speed:693.99  Motor Position:1293
State Word:7e76  Speed:693.99  Motor Position:1337
State Word:7e76  Speed:693.99  Motor Position:1381
State Word:7e76  Speed:693.99  Motor Position:1426
State Word:7e76  Speed:693.99  Motor Position:1470
State Word:7e76  Speed:693.99  Motor Position:1515
State Word:7e76  Speed:693.99  Motor Position:1559
State Word:7e76  Speed:693.99  Motor Position:1603
State Word:7e76  Speed:693.99  Motor Position:1648
State Word:7e76  Speed:693.99  Motor Position:1692
State Word:7e76  Speed:693.99  Motor Position:1737
State Word:7e76  Speed:693.99  Motor Position:1780
State Word:7e76  Speed:693.99  Motor Position:1826
State Word:7e76  Speed:693.99  Motor Position:1870
State Word:7e76  Speed:693.99  Motor Position:1914
State Word:7e76  Speed:693.99  Motor Position:1959
State Word:7e76  Speed:693.99  Motor Position:2002
State Word:7e76  Speed:693.99  Motor Position:2048
State Word:7e76  Speed:693.99  Motor Position:2092
State Word:7e76  Speed:693.99  Motor Position:2135
State Word:7e76  Speed:693.99  Motor Position:2180
State Word:7e76  Speed:693.99  Motor Position:2224
State Word:7e76  Speed:693.99  Motor Position:2269
State Word:7e76  Speed:693.99  Motor Position:2313
State Word:7e76  Speed:693.99  Motor Position:2358
State Word:7e76  Speed:693.99  Motor Position:2402
State Word:7e76  Speed:693.99  Motor Position:2446
State Word:7e76  Speed:693.99  Motor Position:2491
State Word:7e76  Speed:693.99  Motor Position:2535
State Word:7e76  Speed:693.99  Motor Position:2580
State Word:7e76  Speed:693.99  Motor Position:2624
State Word:7e76  Speed:693.99  Motor Position:2668
State Word:7e76  Speed:693.99  Motor Position:2713
State Word:7e76  Speed:693.99  Motor Position:2758
State Word:7e76  Speed:693.99  Motor Position:2803
State Word:7e76  Speed:693.99  Motor Position:2846
State Word:7e76  Speed:693.99  Motor Position:2890
State Word:27e76  Speed:693.99  Motor Position:2935
State Word:27e76  Speed:693.99  Motor Position:2980
State Word:27e76  Speed:693.99  Motor Position:3024
State Word:27e76  Speed:693.99  Motor Position:3068
State Word:7e76  Speed:693.99  Motor Position:3113
State Word:7e76  Speed:693.99  Motor Position:3157
State Word:7e76  Speed:693.99  Motor Position:3202
State Word:7e76  Speed:693.99  Motor Position:3246
State Word:7e76  Speed:693.99  Motor Position:3291
State Word:7e76  Speed:693.99  Motor Position:3335
State Word:7e76  Speed:693.99  Motor Position:3379
State Word:7e76  Speed:693.99  Motor Position:3424
State Word:7e76  Speed:693.99  Motor Position:3468
State Word:7e76  Speed:693.99  Motor Position:3513
State Word:7e76  Speed:693.99  Motor Position:3557
State Word:7e76  Speed:693.99  Motor Position:3601
State Word:7e76  Speed:693.99  Motor Position:3646
State Word:7e76  Speed:693.99  Motor Position:3690
State Word:7e76  Speed:693.99  Motor Position:3735
State Word:7e76  Speed:693.99  Motor Position:3779
State Word:7e76  Speed:693.99  Motor Position:3824
State Word:7e76  Speed:693.99  Motor Position:3867
State Word:7e76  Speed:693.99  Motor Position:3912
State Word:7e76  Speed:693.99  Motor Position:3956
State Word:7e76  Speed:693.99  Motor Position:4001
State Word:7e76  Speed:693.99  Motor Position:4045
State Word:7e76  Speed:693.99  Motor Position:4090
State Word:7e76  Speed:693.99  Motor Position:4134
State Word:7e76  Speed:693.99  Motor Position:4178
State Word:7e76  Speed:693.99  Motor Position:4223
State Word:7e76  Speed:693.99  Motor Position:4267
State Word:7e76  Speed:693.99  Motor Position:4312
State Word:7e76  Speed:693.99  Motor Position:4356
State Word:7e76  Speed:693.99  Motor Position:4401
State Word:7e76  Speed:693.99  Motor Position:4446
State Word:7e76  Speed:693.99  Motor Position:4490
State Word:7e76  Speed:693.99  Motor Position:4533
State Word:7e76  Speed:693.99  Motor Position:4577
State Word:7e76  Speed:693.99  Motor Position:4623
State Word:7e76  Speed:693.99  Motor Position:4667
State Word:7e76  Speed:693.99  Motor Position:4711
State Word:7e76  Speed:693.99  Motor Position:4743
State Word:7e76  Speed:693.99  Motor Position:4788
State Word:7e76  Speed:693.99  Motor Position:4832
State Word:7e76  Speed:693.99  Motor Position:4877
State Word:7e76  Speed:693.99  Motor Position:4921
State Word:7e76  Speed:693.99  Motor Position:4966
State Word:7e76  Speed:693.99  Motor Position:5009
State Word:7e76  Speed:693.99  Motor Position:5054
State Word:7e76  Speed:693.99  Motor Position:5098
State Word:7e76  Speed:693.99  Motor Position:5142
State Word:7e76  Speed:693.99  Motor Position:5186
State Word:7e76  Speed:693.99  Motor Position:5232
State Word:7e76  Speed:693.99  Motor Position:5276
State Word:7e76  Speed:693.99  Motor Position:5320
State Word:7e76  Speed:693.99  Motor Position:5364
State Word:7e76  Speed:693.99  Motor Position:5409
State Word:7e76  Speed:693.99  Motor Position:5453
State Word:7e76  Speed:693.99  Motor Position:5498
State Word:7e76  Speed:693.99  Motor Position:5542
State Word:7e76  Speed:693.99  Motor Position:5587
State Word:7e76  Speed:693.99  Motor Position:5631
State Word:7e76  Speed:693.99  Motor Position:5675
State Word:7e76  Speed:693.99  Motor Position:5721
State Word:7e76  Speed:693.99  Motor Position:5764
State Word:7e76  Speed:693.99  Motor Position:5808
State Word:7e76  Speed:693.99  Motor Position:5853
State Word:7e76  Speed:693.99  Motor Position:5897
State Word:17e76  Speed:693.99  Motor Position:5942
State Word:17e76  Speed:693.99  Motor Position:5986
State Word:17e76  Speed:693.99  Motor Position:6030
State Word:7e54  Speed:568.99  Motor Position:6073
State Word:7e54  Speed:347.99  Motor Position:6102
State Word:7e54  Speed:123.99  Motor Position:6117
State Word:7e16  Speed:0.00  Motor Position:6118
- - Registers after stop begin - -
State Word:7e16  Speed:0.00  Motor Position:6118
- - Registers after stop end - -
