Control Word:0
Speed Begin:100
Speed End:642
StepCount:6050
StepMode:1
- - Intial Registers begin - -
State Word:17e06  Speed:0.00  Motor Position:-109
- - Intial Registers end- -
State Word:17e34  Speed:206.99  Motor Position:12
State Word:17e34  Speed:255.99  Motor Position:20
State Word:17e34  Speed:342.00  Motor Position:40
State Word:7e34  Speed:428.99  Motor Position:64
State Word:7e34  Speed:515.00  Motor Position:94
State Word:7e34  Speed:600.99  Motor Position:130
State Word:7e76  Speed:641.99  Motor Position:170
State Word:7e76  Speed:641.99  Motor Position:211
State Word:7e76  Speed:641.99  Motor Position:253
State Word:7e76  Speed:641.99  Motor Position:294
State Word:7e76  Speed:641.99  Motor Position:335
State Word:7e76  Speed:641.99  Motor Position:375
State Word:7e76  Speed:641.99  Motor Position:417
State Word:7e76  Speed:641.99  Motor Position:458
State Word:7e76  Speed:641.99  Motor Position:499
State Word:7e76  Speed:641.99  Motor Position:541
State Word:7e76  Speed:641.99  Motor Position:581
State Word:7e76  Speed:641.99  Motor Position:622
State Word:7e76  Speed:641.99  Motor Position:663
State Word:7e76  Speed:641.99  Motor Position:704
State Word:7e76  Speed:641.99  Motor Position:745
State Word:7e76  Speed:641.99  Motor Position:787
State Word:7e76  Speed:641.99  Motor Position:827
State Word:7e76  Speed:641.99  Motor Position:868
State Word:7e76  Speed:641.99  Motor Position:910
State Word:7e76  Speed:641.99  Motor Position:951
State Word:7e76  Speed:641.99  Motor Position:992
State Word:7e76  Speed:641.99  Motor Position:1033
State Word:7e76  Speed:641.99  Motor Position:1074
State Word:7e76  Speed:641.99  Motor Position:1115
State Word:7e76  Speed:641.99  Motor Position:1156
State Word:7e76  Speed:641.99  Motor Position:1197
State Word:7e76  Speed:641.99  Motor Position:1238
State Word:7e76  Speed:641.99  Motor Position:1279
State Word:7e76  Speed:641.99  Motor Position:1321
State Word:7e76  Speed:641.99  Motor Position:1362
State Word:7e76  Speed:641.99  Motor Position:1403
State Word:7e76  Speed:641.99  Motor Position:1444
State Word:7e76  Speed:641.99  Motor Position:1485
State Word:7e76  Speed:641.99  Motor Position:1526
State Word:7e76  Speed:641.99  Motor Position:1567
State Word:7e76  Speed:641.99  Motor Position:1608
State Word:7e76  Speed:641.99  Motor Position:1649
State Word:7e76  Speed:641.99  Motor Position:1690
State Word:7e76  Speed:641.99  Motor Position:1731
State Word:7e76  Speed:641.99  Motor Position:1772
State Word:7e76  Speed:641.99  Motor Position:1813
State Word:7e76  Speed:641.99  Motor Position:1855
State Word:7e76  Speed:641.99  Motor Position:1896
State Word:7e76  Speed:641.99  Motor Position:1937
State Word:7e76  Speed:641.99  Motor Position:1977
State Word:7e76  Speed:641.99  Motor Position:2018
State Word:7e76  Speed:641.99  Motor Position:2060
State Word:7e76  Speed:641.99  Motor Position:2101
State Word:7e76  Speed:641.99  Motor Position:2142
State Word:7e76  Speed:641.99  Motor Position:2183
State Word:7e76  Speed:641.99  Motor Position:2224
State Word:7e76  Speed:641.99  Motor Position:2265
State Word:7e76  Speed:641.99  Motor Position:2306
State Word:7e76  Speed:641.99  Motor Position:2347
State Word:7e76  Speed:641.99  Motor Position:2388
State Word:7e76  Speed:641.99  Motor Position:2429
State Word:7e76  Speed:641.99  Motor Position:2471
State Word:7e76  Speed:641.99  Motor Position:2512
State Word:7e76  Speed:641.99  Motor Position:2553
State Word:7e76  Speed:641.99  Motor Position:2594
State Word:7e76  Speed:641.99  Motor Position:2635
State Word:7e76  Speed:641.99  Motor Position:2676
State Word:7e76  Speed:641.99  Motor Position:2717
State Word:7e76  Speed:641.99  Motor Position:2758
State Word:7e76  Speed:641.99  Motor Position:2799
State Word:7e76  Speed:641.99  Motor Position:2840
State Word:7e76  Speed:641.99  Motor Position:2882
State Word:7e76  Speed:641.99  Motor Position:2922
State Word:27e76  Speed:641.99  Motor Position:2962
State Word:27e76  Speed:641.99  Motor Position:3005
State Word:27e76  Speed:641.99  Motor Position:3046
State Word:7e76  Speed:641.99  Motor Position:3087
State Word:7e76  Speed:641.99  Motor Position:3128
State Word:7e76  Speed:641.99  Motor Position:3169
State Word:7e76  Speed:641.99  Motor Position:3210
State Word:7e76  Speed:641.99  Motor Position:3251
State Word:7e76  Speed:641.99  Motor Position:3292
State Word:7e76  Speed:641.99  Motor Position:3333
State Word:7e76  Speed:641.99  Motor Position:3374
State Word:7e76  Speed:641.99  Motor Position:3415
State Word:7e76  Speed:641.99  Motor Position:3457
State Word:7e76  Speed:641.99  Motor Position:3497
State Word:7e76  Speed:641.99  Motor Position:3539
State Word:7e76  Speed:641.99  Motor Position:3580
State Word:7e76  Speed:641.99  Motor Position:3620
State Word:7e76  Speed:641.99  Motor Position:3662
State Word:7e76  Speed:641.99  Motor Position:3703
State Word:7e76  Speed:641.99  Motor Position:3745
State Word:7e76  Speed:641.99  Motor Position:3785
State Word:7e76  Speed:641.99  Motor Position:3826
State Word:7e76  Speed:641.99  Motor Position:3867
State Word:7e76  Speed:641.99  Motor Position:3908
State Word:7e76  Speed:641.99  Motor Position:3949
State Word:7e76  Speed:641.99  Motor Position:3991
State Word:7e76  Speed:641.99  Motor Position:4031
State Word:7e76  Speed:641.99  Motor Position:4072
State Word:7e76  Speed:641.99  Motor Position:4114
State Word:7e76  Speed:641.99  Motor Position:4155
State Word:7e76  Speed:641.99  Motor Position:4196
State Word:7e76  Speed:641.99  Motor Position:4237
State Word:7e76  Speed:641.99  Motor Position:4278
State Word:7e76  Speed:641.99  Motor Position:4319
State Word:7e76  Speed:641.99  Motor Position:4360
State Word:7e76  Speed:641.99  Motor Position:4401
State Word:7e76  Speed:641.99  Motor Position:4442
State Word:7e76  Speed:641.99  Motor Position:4483
State Word:7e76  Speed:641.99  Motor Position:4524
State Word:7e76  Speed:641.99  Motor Position:4565
State Word:7e76  Speed:641.99  Motor Position:4606
State Word:7e76  Speed:641.99  Motor Position:4647
State Word:7e76  Speed:641.99  Motor Position:4689
State Word:7e76  Speed:641.99  Motor Position:4730
State Word:7e76  Speed:641.99  Motor Position:4771
State Word:7e76  Speed:641.99  Motor Position:4812
State Word:7e76  Speed:641.99  Motor Position:4853
State Word:7e76  Speed:641.99  Motor Position:4894
State Word:7e76  Speed:641.99  Motor Position:4935
State Word:7e76  Speed:641.99  Motor Position:4976
State Word:7e76  Speed:641.99  Motor Position:5017
State Word:7e76  Speed:641.99  Motor Position:5058
State Word:7e76  Speed:641.99  Motor Position:5099
State Word:7e76  Speed:641.99  Motor Position:5140
State Word:7e76  Speed:641.99  Motor Position:5182
State Word:7e76  Speed:641.99  Motor Position:5223
State Word:7e76  Speed:641.99  Motor Position:5264
State Word:7e76  Speed:641.99  Motor Position:5305
State Word:7e76  Speed:641.99  Motor Position:5345
State Word:7e76  Speed:641.99  Motor Position:5387
State Word:7e76  Speed:641.99  Motor Position:5428
State Word:7e76  Speed:641.99  Motor Position:5469
State Word:7e76  Speed:641.99  Motor Position:5510
State Word:7e76  Speed:641.99  Motor Position:5551
State Word:7e76  Speed:641.99  Motor Position:5592
State Word:7e76  Speed:641.99  Motor Position:5634
State Word:7e76  Speed:641.99  Motor Position:5674
State Word:7e76  Speed:641.99  Motor Position:5716
State Word:7e76  Speed:641.99  Motor Position:5757
State Word:7e76  Speed:641.99  Motor Position:5798
State Word:7e76  Speed:641.99  Motor Position:5839
State Word:7e76  Speed:641.99  Motor Position:5880
State Word:17e76  Speed:641.99  Motor Position:5921
State Word:17e76  Speed:641.99  Motor Position:5962
State Word:17e76  Speed:641.99  Motor Position:6003
State Word:7e76  Speed:641.99  Motor Position:6044
State Word:7e54  Speed:465.99  Motor Position:6080
State Word:7e54  Speed:260.00  Motor Position:6104
State Word:7e16  Speed:0.00  Motor Position:6112
- - Registers after stop begin - -
State Word:7e16  Speed:0.00  Motor Position:6112
- - Registers after stop end - -
