Control Word:3
Speed Begin:50
Speed End:500
StepCount:21000
StepMode:1
- - Intial Registers begin - -
State Word:27e16  Speed:0.00  Motor Position:6228
- - Intial Registers end- -
State Word:27e24  Speed:245.99  Motor Position:-26
State Word:27e24  Speed:426.99  Motor Position:-80
State Word:27e66  Speed:499.99  Motor Position:-157
State Word:37e44  Speed:201.99  Motor Position:-220
State Word:37e06  Speed:0.00  Motor Position:-227
- - Registers after stop begin - -
State Word:37e06  Speed:0.00  Motor Position:-227
- - Registers after stop end - -
