Control Word:0
Speed Begin:100
Speed End:1005
StepCount:6050
StepMode:1
- - Intial Registers begin - -
State Word:17e06  Speed:0.00  Motor Position:-154
- - Intial Registers end- -
State Word:17e34  Speed:353.99  Motor Position:25
State Word:17e34  Speed:435.99  Motor Position:40
State Word:7e34  Speed:577.99  Motor Position:72
State Word:7e34  Speed:722.99  Motor Position:113
State Word:7e34  Speed:866.99  Motor Position:164
State Word:7e76  Speed:1004.99  Motor Position:225
State Word:7e76  Speed:1004.99  Motor Position:289
State Word:7e76  Speed:1004.99  Motor Position:353
State Word:7e76  Speed:1004.99  Motor Position:416
State Word:7e76  Speed:1004.99  Motor Position:482
State Word:7e76  Speed:1004.99  Motor Position:544
State Word:7e76  Speed:1004.99  Motor Position:610
State Word:7e76  Speed:1004.99  Motor Position:675
State Word:7e76  Speed:1004.99  Motor Position:738
State Word:7e76  Speed:1004.99  Motor Position:803
State Word:7e76  Speed:1004.99  Motor Position:867
State Word:7e76  Speed:1004.99  Motor Position:931
State Word:7e76  Speed:1004.99  Motor Position:1267
State Word:7e76  Speed:1004.99  Motor Position:1315
State Word:7e76  Speed:1004.99  Motor Position:1381
State Word:7e76  Speed:1004.99  Motor Position:1446
State Word:7e76  Speed:1004.99  Motor Position:1511
State Word:7e76  Speed:1004.99  Motor Position:1575
State Word:7e76  Speed:1004.99  Motor Position:1638
State Word:7e76  Speed:1004.99  Motor Position:1703
State Word:7e76  Speed:1004.99  Motor Position:1767
State Word:7e76  Speed:1004.99  Motor Position:1832
State Word:7e76  Speed:1004.99  Motor Position:1896
State Word:7e76  Speed:1004.99  Motor Position:1960
State Word:7e76  Speed:1004.99  Motor Position:2024
State Word:7e76  Speed:1004.99  Motor Position:2088
State Word:7e76  Speed:1004.99  Motor Position:2153
State Word:7e76  Speed:1004.99  Motor Position:2217
State Word:7e76  Speed:1004.99  Motor Position:2281
State Word:7e76  Speed:1004.99  Motor Position:2345
State Word:7e76  Speed:1004.99  Motor Position:2410
State Word:7e76  Speed:1004.99  Motor Position:2473
State Word:7e76  Speed:1004.99  Motor Position:2538
State Word:7e76  Speed:1004.99  Motor Position:2603
State Word:7e76  Speed:1004.99  Motor Position:2667
State Word:7e76  Speed:1004.99  Motor Position:2732
State Word:7e76  Speed:1004.99  Motor Position:2796
State Word:7e76  Speed:1004.99  Motor Position:2861
State Word:7e76  Speed:1004.99  Motor Position:2925
State Word:27e76  Speed:1004.99  Motor Position:2989
State Word:27e76  Speed:1004.99  Motor Position:3053
State Word:7e76  Speed:1004.99  Motor Position:3116
State Word:7e76  Speed:1004.99  Motor Position:3181
State Word:7e76  Speed:1004.99  Motor Position:3246
State Word:7e76  Speed:1004.99  Motor Position:3310
State Word:7e76  Speed:1004.99  Motor Position:3374
State Word:7e76  Speed:1004.99  Motor Position:3439
State Word:7e76  Speed:1004.99  Motor Position:3504
State Word:7e76  Speed:1004.99  Motor Position:3566
State Word:7e76  Speed:1004.99  Motor Position:3631
State Word:7e76  Speed:1004.99  Motor Position:3696
State Word:7e76  Speed:1004.99  Motor Position:3760
State Word:7e76  Speed:1004.99  Motor Position:3824
State Word:7e76  Speed:1004.99  Motor Position:3889
State Word:7e76  Speed:1004.99  Motor Position:3953
State Word:7e76  Speed:1004.99  Motor Position:4017
State Word:7e76  Speed:1004.99  Motor Position:4082
State Word:7e76  Speed:1004.99  Motor Position:4146
State Word:7e76  Speed:1004.99  Motor Position:4211
State Word:7e76  Speed:1004.99  Motor Position:4275
State Word:7e76  Speed:1004.99  Motor Position:4339
State Word:7e76  Speed:1004.99  Motor Position:4403
State Word:7e76  Speed:1004.99  Motor Position:4467
State Word:7e76  Speed:1004.99  Motor Position:4532
State Word:7e76  Speed:1004.99  Motor Position:4596
State Word:7e76  Speed:1004.99  Motor Position:4660
State Word:7e76  Speed:1004.99  Motor Position:4724
State Word:7e76  Speed:1004.99  Motor Position:4789
State Word:7e76  Speed:1004.99  Motor Position:4853
State Word:7e76  Speed:1004.99  Motor Position:4917
State Word:7e76  Speed:1004.99  Motor Position:4982
State Word:7e76  Speed:1004.99  Motor Position:5047
State Word:7e76  Speed:1004.99  Motor Position:5110
State Word:7e76  Speed:1004.99  Motor Position:5175
State Word:7e76  Speed:1004.99  Motor Position:5239
State Word:7e76  Speed:1004.99  Motor Position:5304
State Word:7e76  Speed:1004.99  Motor Position:5368
State Word:7e76  Speed:1004.99  Motor Position:5433
State Word:7e76  Speed:1004.99  Motor Position:5497
State Word:7e76  Speed:1004.99  Motor Position:5561
State Word:7e76  Speed:1004.99  Motor Position:5626
State Word:7e76  Speed:1004.99  Motor Position:5689
State Word:7e76  Speed:1004.99  Motor Position:5754
State Word:7e76  Speed:1004.99  Motor Position:5818
State Word:7e76  Speed:1004.99  Motor Position:5883
State Word:17e76  Speed:1004.99  Motor Position:5946
State Word:17e76  Speed:1004.99  Motor Position:6011
State Word:7e54  Speed:878.99  Motor Position:6073
State Word:7e54  Speed:558.99  Motor Position:6119
State Word:7e54  Speed:236.99  Motor Position:6145
State Word:7e16  Speed:0.00  Motor Position:6149
- - Registers after stop begin - -
State Word:7e16  Speed:0.00  Motor Position:6149
- - Registers after stop end - -
