Control Word:0
Speed Begin:100
Speed End:720
StepCount:6500
StepMode:1
- - Intial Registers begin - -
State Word:17e06  Speed:0.00  Motor Position:-565
- - Intial Registers end- -
State Word:17e34  Speed:224.99  Motor Position:13
State Word:17e34  Speed:278.00  Motor Position:22
State Word:17e34  Speed:379.99  Motor Position:43
State Word:7e34  Speed:476.99  Motor Position:70
State Word:7e34  Speed:575.99  Motor Position:104
State Word:7e76  Speed:719.99  Motor Position:190
State Word:7e76  Speed:719.99  Motor Position:234
State Word:7e76  Speed:719.99  Motor Position:281
State Word:7e76  Speed:719.99  Motor Position:327
State Word:7e76  Speed:719.99  Motor Position:374
State Word:7e76  Speed:719.99  Motor Position:419
State Word:7e76  Speed:719.99  Motor Position:466
State Word:7e76  Speed:719.99  Motor Position:512
State Word:7e76  Speed:719.99  Motor Position:558
State Word:7e76  Speed:719.99  Motor Position:603
State Word:7e76  Speed:719.99  Motor Position:650
State Word:7e76  Speed:719.99  Motor Position:696
State Word:7e76  Speed:719.99  Motor Position:741
State Word:7e76  Speed:719.99  Motor Position:788
State Word:7e76  Speed:719.99  Motor Position:834
State Word:7e76  Speed:719.99  Motor Position:880
State Word:7e76  Speed:719.99  Motor Position:926
State Word:7e76  Speed:719.99  Motor Position:972
State Word:7e76  Speed:719.99  Motor Position:1018
State Word:7e76  Speed:719.99  Motor Position:1064
State Word:7e76  Speed:719.99  Motor Position:1111
State Word:7e76  Speed:719.99  Motor Position:1157
State Word:7e76  Speed:719.99  Motor Position:1203
State Word:7e76  Speed:719.99  Motor Position:1249
State Word:7e76  Speed:719.99  Motor Position:1295
State Word:7e76  Speed:719.99  Motor Position:1341
State Word:7e76  Speed:719.99  Motor Position:1387
State Word:7e76  Speed:719.99  Motor Position:1432
State Word:7e76  Speed:719.99  Motor Position:1478
State Word:7e76  Speed:719.99  Motor Position:1525
State Word:7e76  Speed:719.99  Motor Position:1569
State Word:7e76  Speed:719.99  Motor Position:1594
State Word:7e76  Speed:719.99  Motor Position:1640
State Word:7e76  Speed:719.99  Motor Position:1686
State Word:7e76  Speed:719.99  Motor Position:1732
State Word:7e76  Speed:719.99  Motor Position:1778
State Word:7e76  Speed:719.99  Motor Position:1824
State Word:7e76  Speed:719.99  Motor Position:1871
State Word:7e76  Speed:719.99  Motor Position:1917
State Word:7e76  Speed:719.99  Motor Position:1962
State Word:7e76  Speed:719.99  Motor Position:2009
State Word:7e76  Speed:719.99  Motor Position:2054
State Word:7e76  Speed:719.99  Motor Position:2101
State Word:7e76  Speed:719.99  Motor Position:2147
State Word:7e76  Speed:719.99  Motor Position:2193
State Word:7e76  Speed:719.99  Motor Position:2239
State Word:7e76  Speed:719.99  Motor Position:2285
State Word:7e76  Speed:719.99  Motor Position:2331
State Word:7e76  Speed:719.99  Motor Position:2377
State Word:7e76  Speed:719.99  Motor Position:2424
State Word:7e76  Speed:719.99  Motor Position:2469
State Word:7e76  Speed:719.99  Motor Position:2515
State Word:7e76  Speed:719.99  Motor Position:2561
State Word:7e76  Speed:719.99  Motor Position:2607
State Word:7e76  Speed:719.99  Motor Position:2654
State Word:7e76  Speed:719.99  Motor Position:2699
State Word:7e76  Speed:719.99  Motor Position:2745
State Word:7e76  Speed:719.99  Motor Position:2792
State Word:7e76  Speed:719.99  Motor Position:2837
State Word:7e76  Speed:719.99  Motor Position:2883
State Word:7e76  Speed:719.99  Motor Position:2930
State Word:27e76  Speed:719.99  Motor Position:2976
State Word:27e76  Speed:719.99  Motor Position:3022
State Word:27e76  Speed:719.99  Motor Position:3068
State Word:7e76  Speed:719.99  Motor Position:3114
State Word:7e76  Speed:719.99  Motor Position:3160
State Word:7e76  Speed:719.99  Motor Position:3206
State Word:7e76  Speed:719.99  Motor Position:3253
State Word:7e76  Speed:719.99  Motor Position:3298
State Word:7e76  Speed:719.99  Motor Position:3345
State Word:7e76  Speed:719.99  Motor Position:3391
State Word:7e76  Speed:719.99  Motor Position:3437
State Word:7e76  Speed:719.99  Motor Position:3483
State Word:7e76  Speed:719.99  Motor Position:3528
State Word:7e76  Speed:719.99  Motor Position:3575
State Word:7e76  Speed:719.99  Motor Position:3621
State Word:7e76  Speed:719.99  Motor Position:3666
State Word:7e76  Speed:719.99  Motor Position:3713
State Word:7e76  Speed:719.99  Motor Position:3759
State Word:7e76  Speed:719.99  Motor Position:3805
State Word:7e76  Speed:719.99  Motor Position:3851
State Word:7e76  Speed:719.99  Motor Position:3898
State Word:7e76  Speed:719.99  Motor Position:3944
State Word:7e76  Speed:719.99  Motor Position:3989
State Word:7e76  Speed:719.99  Motor Position:4036
State Word:7e76  Speed:719.99  Motor Position:4082
State Word:7e76  Speed:719.99  Motor Position:4128
State Word:7e76  Speed:719.99  Motor Position:4174
State Word:7e76  Speed:719.99  Motor Position:4220
State Word:7e76  Speed:719.99  Motor Position:4265
State Word:7e76  Speed:719.99  Motor Position:4311
State Word:7e76  Speed:719.99  Motor Position:4357
State Word:7e76  Speed:719.99  Motor Position:4403
State Word:7e76  Speed:719.99  Motor Position:4450
State Word:7e76  Speed:719.99  Motor Position:4497
State Word:7e76  Speed:719.99  Motor Position:4542
State Word:7e76  Speed:719.99  Motor Position:4589
State Word:7e76  Speed:719.99  Motor Position:4634
State Word:7e76  Speed:719.99  Motor Position:4667
State Word:7e76  Speed:719.99  Motor Position:4713
State Word:7e76  Speed:719.99  Motor Position:4760
State Word:7e76  Speed:719.99  Motor Position:4806
State Word:7e76  Speed:719.99  Motor Position:4852
State Word:7e76  Speed:719.99  Motor Position:4898
State Word:7e76  Speed:719.99  Motor Position:4943
State Word:7e76  Speed:719.99  Motor Position:4990
State Word:7e76  Speed:719.99  Motor Position:5036
State Word:7e76  Speed:719.99  Motor Position:5082
State Word:7e76  Speed:719.99  Motor Position:5127
State Word:7e76  Speed:719.99  Motor Position:5174
State Word:7e76  Speed:719.99  Motor Position:5220
State Word:7e76  Speed:719.99  Motor Position:5266
State Word:7e76  Speed:719.99  Motor Position:5312
State Word:7e76  Speed:719.99  Motor Position:5358
State Word:7e76  Speed:719.99  Motor Position:5405
State Word:7e76  Speed:719.99  Motor Position:5451
State Word:7e76  Speed:719.99  Motor Position:5497
State Word:7e76  Speed:719.99  Motor Position:5543
State Word:7e76  Speed:719.99  Motor Position:5588
State Word:7e76  Speed:719.99  Motor Position:5634
State Word:7e76  Speed:719.99  Motor Position:5681
State Word:7e76  Speed:719.99  Motor Position:5726
State Word:7e76  Speed:719.99  Motor Position:5773
State Word:7e76  Speed:719.99  Motor Position:5819
State Word:7e76  Speed:719.99  Motor Position:5865
State Word:7e76  Speed:719.99  Motor Position:5911
State Word:17e76  Speed:719.99  Motor Position:5957
State Word:17e76  Speed:719.99  Motor Position:6003
State Word:17e76  Speed:719.99  Motor Position:6049
State Word:7e76  Speed:719.99  Motor Position:6095
State Word:7e76  Speed:719.99  Motor Position:6141
State Word:7e76  Speed:719.99  Motor Position:6187
State Word:7e76  Speed:719.99  Motor Position:6233
State Word:7e76  Speed:719.99  Motor Position:6280
State Word:7e76  Speed:719.99  Motor Position:6326
State Word:7e76  Speed:719.99  Motor Position:6372
State Word:7e76  Speed:719.99  Motor Position:6418
State Word:7e76  Speed:719.99  Motor Position:6464
State Word:7e54  Speed:668.99  Motor Position:6510
State Word:7e54  Speed:438.99  Motor Position:6545
State Word:7e54  Speed:208.99  Motor Position:6566
State Word:7e16  Speed:0.00  Motor Position:6570
- - Registers after stop begin - -
State Word:7e16  Speed:0.00  Motor Position:6570
- - Registers after stop end - -
