Control Word:0
Speed Begin:100
Speed End:361
StepCount:120
StepMode:1
- - Intial Registers begin - -
State Word:17e06  Speed:0.00  Motor Position:-154
- - Intial Registers end- -
State Word:17e34  Speed:151.99  Motor Position:10
State Word:17e34  Speed:176.00  Motor Position:16
State Word:17e34  Speed:217.99  Motor Position:28
State Word:17e34  Speed:260.00  Motor Position:44
State Word:7e34  Speed:300.99  Motor Position:62
State Word:7e34  Speed:342.99  Motor Position:82
State Word:7e76  Speed:361.00  Motor Position:105
State Word:7e54  Speed:317.99  Motor Position:128
State Word:7e54  Speed:201.99  Motor Position:144
State Word:7e16  Speed:0.00  Motor Position:153
- - Registers after stop begin - -
State Word:7e16  Speed:0.00  Motor Position:153
- - Registers after stop end - -
