Control Word:3
Speed Begin:50
Speed End:500
StepCount:21000
StepMode:1
- - Intial Registers begin - -
State Word:7e16  Speed:0.00  Motor Position:7561
- - Intial Registers end- -
State Word:7e24  Speed:173.99  Motor Position:-12
State Word:7e24  Speed:214.00  Motor Position:-19
State Word:7e24  Speed:286.00  Motor Position:-35
State Word:7e24  Speed:357.99  Motor Position:-56
State Word:7e24  Speed:434.99  Motor Position:-83
State Word:7e66  Speed:499.99  Motor Position:-111
State Word:7e66  Speed:499.99  Motor Position:-142
State Word:7e66  Speed:499.99  Motor Position:-175
State Word:7e66  Speed:499.99  Motor Position:-207
State Word:7e66  Speed:499.99  Motor Position:-238
State Word:7e66  Speed:499.99  Motor Position:-270
State Word:7e66  Speed:499.99  Motor Position:-303
State Word:7e66  Speed:499.99  Motor Position:-335
State Word:7e66  Speed:499.99  Motor Position:-367
State Word:7e66  Speed:499.99  Motor Position:-398
State Word:7e66  Speed:499.99  Motor Position:-430
State Word:7e66  Speed:499.99  Motor Position:-476
State Word:7e66  Speed:499.99  Motor Position:-495
State Word:7e66  Speed:499.99  Motor Position:-528
State Word:7e66  Speed:499.99  Motor Position:-560
State Word:7e66  Speed:499.99  Motor Position:-595
State Word:7e66  Speed:499.99  Motor Position:-628
State Word:7e66  Speed:499.99  Motor Position:-656
State Word:7e66  Speed:499.99  Motor Position:-688
State Word:7e66  Speed:499.99  Motor Position:-718
State Word:7e66  Speed:499.99  Motor Position:-751
State Word:7e66  Speed:499.99  Motor Position:-796
State Word:7e66  Speed:499.99  Motor Position:-829
State Word:7e66  Speed:499.99  Motor Position:-847
State Word:7e66  Speed:499.99  Motor Position:-885
State Word:7e66  Speed:499.99  Motor Position:-914
State Word:7e66  Speed:499.99  Motor Position:-955
State Word:7e66  Speed:499.99  Motor Position:-985
State Word:7e66  Speed:499.99  Motor Position:-1021
State Word:7e66  Speed:499.99  Motor Position:-1061
State Word:7e66  Speed:499.99  Motor Position:-1092
State Word:7e66  Speed:499.99  Motor Position:-1125
State Word:7e66  Speed:499.99  Motor Position:-1160
State Word:7e66  Speed:499.99  Motor Position:-1193
State Word:7e66  Speed:499.99  Motor Position:-1224
State Word:7e66  Speed:499.99  Motor Position:-1257
State Word:7e66  Speed:499.99  Motor Position:-1286
State Word:7e66  Speed:499.99  Motor Position:-1317
State Word:7e66  Speed:499.99  Motor Position:-1345
State Word:7e66  Speed:499.99  Motor Position:-1374
State Word:7e66  Speed:499.99  Motor Position:-1411
State Word:7e66  Speed:499.99  Motor Position:-1442
State Word:7e66  Speed:499.99  Motor Position:-1488
State Word:17e44  Speed:429.99  Motor Position:-1522
State Word:17e44  Speed:270.99  Motor Position:-1545
State Word:17e44  Speed:104.00  Motor Position:-1557
State Word:17e06  Speed:0.00  Motor Position:-1559
- - Registers after stop begin - -
State Word:17e06  Speed:0.00  Motor Position:-1559
- - Registers after stop end - -
