Control Word:3
Speed Begin:50
Speed End:500
StepCount:21000
StepMode:1
- - Intial Registers begin - -
State Word:7e16  Speed:0.00  Motor Position:6199
- - Intial Registers end- -
State Word:7e24  Speed:140.00  Motor Position:-7
State Word:7e24  Speed:180.99  Motor Position:-13
State Word:7e24  Speed:252.99  Motor Position:-27
State Word:7e24  Speed:324.00  Motor Position:-45
State Word:7e24  Speed:396.00  Motor Position:-68
State Word:7e24  Speed:470.00  Motor Position:-97
State Word:7e66  Speed:499.99  Motor Position:-128
State Word:17e44  Speed:434.00  Motor Position:-159
State Word:17e44  Speed:273.99  Motor Position:-182
State Word:17e44  Speed:113.99  Motor Position:-194
State Word:17e06  Speed:0.00  Motor Position:-196
- - Registers after stop begin - -
State Word:17e06  Speed:0.00  Motor Position:-196
- - Registers after stop end - -
