Control Word:0
Speed Begin:100
Speed End:488
StepCount:7500
StepMode:1
- - Intial Registers begin - -
State Word:17e06  Speed:0.00  Motor Position:-1535
- - Intial Registers end- -
State Word:17e34  Speed:177.00  Motor Position:11
State Word:17e34  Speed:212.00  Motor Position:18
State Word:17e34  Speed:272.99  Motor Position:33
State Word:17e34  Speed:335.99  Motor Position:53
State Word:7e34  Speed:396.00  Motor Position:76
State Word:7e34  Speed:457.99  Motor Position:103
State Word:7e76  Speed:488.00  Motor Position:134
State Word:7e76  Speed:488.00  Motor Position:165
State Word:7e76  Speed:488.00  Motor Position:196
State Word:7e76  Speed:488.00  Motor Position:228
State Word:7e76  Speed:488.00  Motor Position:259
State Word:7e76  Speed:488.00  Motor Position:291
State Word:7e76  Speed:488.00  Motor Position:322
State Word:7e76  Speed:488.00  Motor Position:352
State Word:7e76  Speed:488.00  Motor Position:383
State Word:7e76  Speed:488.00  Motor Position:414
State Word:7e76  Speed:488.00  Motor Position:430
State Word:7e76  Speed:488.00  Motor Position:461
State Word:7e76  Speed:488.00  Motor Position:492
State Word:7e76  Speed:488.00  Motor Position:524
State Word:7e76  Speed:488.00  Motor Position:555
State Word:7e76  Speed:488.00  Motor Position:586
State Word:7e76  Speed:488.00  Motor Position:618
State Word:7e76  Speed:488.00  Motor Position:649
State Word:7e76  Speed:488.00  Motor Position:680
State Word:7e76  Speed:488.00  Motor Position:712
State Word:7e76  Speed:488.00  Motor Position:743
State Word:7e76  Speed:488.00  Motor Position:774
State Word:7e76  Speed:488.00  Motor Position:805
State Word:7e76  Speed:488.00  Motor Position:837
State Word:7e76  Speed:488.00  Motor Position:868
State Word:7e76  Speed:488.00  Motor Position:899
State Word:7e76  Speed:488.00  Motor Position:931
State Word:7e76  Speed:488.00  Motor Position:962
State Word:7e76  Speed:488.00  Motor Position:993
State Word:7e76  Speed:488.00  Motor Position:1024
State Word:7e76  Speed:488.00  Motor Position:1055
State Word:7e76  Speed:488.00  Motor Position:1086
State Word:7e76  Speed:488.00  Motor Position:1118
State Word:7e76  Speed:488.00  Motor Position:1149
State Word:7e76  Speed:488.00  Motor Position:1180
State Word:7e76  Speed:488.00  Motor Position:1211
State Word:7e76  Speed:488.00  Motor Position:1242
State Word:7e76  Speed:488.00  Motor Position:1274
State Word:7e76  Speed:488.00  Motor Position:1305
State Word:7e76  Speed:488.00  Motor Position:1336
State Word:7e76  Speed:488.00  Motor Position:1367
State Word:7e76  Speed:488.00  Motor Position:1398
State Word:7e76  Speed:488.00  Motor Position:1430
State Word:7e76  Speed:488.00  Motor Position:1461
State Word:7e76  Speed:488.00  Motor Position:1492
State Word:7e76  Speed:488.00  Motor Position:1524
State Word:7e76  Speed:488.00  Motor Position:1555
State Word:7e76  Speed:488.00  Motor Position:1586
State Word:7e76  Speed:488.00  Motor Position:1616
State Word:7e76  Speed:488.00  Motor Position:1649
State Word:7e76  Speed:488.00  Motor Position:1679
State Word:7e76  Speed:488.00  Motor Position:1711
State Word:7e76  Speed:488.00  Motor Position:1742
State Word:7e76  Speed:488.00  Motor Position:1773
State Word:7e76  Speed:488.00  Motor Position:1804
State Word:7e76  Speed:488.00  Motor Position:1836
State Word:7e76  Speed:488.00  Motor Position:1867
State Word:7e76  Speed:488.00  Motor Position:1898
State Word:7e76  Speed:488.00  Motor Position:1929
State Word:7e76  Speed:488.00  Motor Position:1960
State Word:7e76  Speed:488.00  Motor Position:1992
State Word:7e76  Speed:488.00  Motor Position:2023
State Word:7e76  Speed:488.00  Motor Position:2054
State Word:7e76  Speed:488.00  Motor Position:2086
State Word:7e76  Speed:488.00  Motor Position:2117
State Word:7e76  Speed:488.00  Motor Position:2148
State Word:7e76  Speed:488.00  Motor Position:2179
State Word:7e76  Speed:488.00  Motor Position:2210
State Word:7e76  Speed:488.00  Motor Position:2241
State Word:7e76  Speed:488.00  Motor Position:2273
State Word:7e76  Speed:488.00  Motor Position:2304
State Word:7e76  Speed:488.00  Motor Position:2335
State Word:7e76  Speed:488.00  Motor Position:2366
State Word:7e76  Speed:488.00  Motor Position:2398
State Word:7e76  Speed:488.00  Motor Position:2429
State Word:7e76  Speed:488.00  Motor Position:2460
State Word:7e76  Speed:488.00  Motor Position:2491
State Word:7e76  Speed:488.00  Motor Position:2523
State Word:7e76  Speed:488.00  Motor Position:2554
State Word:7e76  Speed:488.00  Motor Position:2585
State Word:7e76  Speed:488.00  Motor Position:2616
State Word:7e76  Speed:488.00  Motor Position:2647
State Word:7e76  Speed:488.00  Motor Position:2679
State Word:7e76  Speed:488.00  Motor Position:2710
State Word:7e76  Speed:488.00  Motor Position:2741
State Word:7e76  Speed:488.00  Motor Position:2773
State Word:7e76  Speed:488.00  Motor Position:2803
State Word:7e76  Speed:488.00  Motor Position:2835
State Word:7e76  Speed:488.00  Motor Position:2866
State Word:7e76  Speed:488.00  Motor Position:2897
State Word:7e76  Speed:488.00  Motor Position:2928
State Word:27e76  Speed:488.00  Motor Position:2960
State Word:27e76  Speed:488.00  Motor Position:2991
State Word:27e76  Speed:488.00  Motor Position:3013
State Word:27e76  Speed:488.00  Motor Position:3045
State Word:7e76  Speed:488.00  Motor Position:3076
State Word:7e76  Speed:488.00  Motor Position:3107
State Word:7e76  Speed:488.00  Motor Position:3138
State Word:7e76  Speed:488.00  Motor Position:3169
State Word:7e76  Speed:488.00  Motor Position:3200
State Word:7e76  Speed:488.00  Motor Position:3232
State Word:7e76  Speed:488.00  Motor Position:3263
State Word:7e76  Speed:488.00  Motor Position:3294
State Word:7e76  Speed:488.00  Motor Position:3326
State Word:7e76  Speed:488.00  Motor Position:3357
State Word:7e76  Speed:488.00  Motor Position:3388
State Word:7e76  Speed:488.00  Motor Position:3419
State Word:7e76  Speed:488.00  Motor Position:3450
State Word:7e76  Speed:488.00  Motor Position:3482
State Word:7e76  Speed:488.00  Motor Position:3513
State Word:7e76  Speed:488.00  Motor Position:3544
State Word:7e76  Speed:488.00  Motor Position:3576
State Word:7e76  Speed:488.00  Motor Position:3607
State Word:7e76  Speed:488.00  Motor Position:3638
State Word:7e76  Speed:488.00  Motor Position:3669
State Word:7e76  Speed:488.00  Motor Position:3700
State Word:7e76  Speed:488.00  Motor Position:3732
State Word:7e76  Speed:488.00  Motor Position:3763
State Word:7e76  Speed:488.00  Motor Position:3794
State Word:7e76  Speed:488.00  Motor Position:3825
State Word:7e76  Speed:488.00  Motor Position:3856
State Word:7e76  Speed:488.00  Motor Position:3888
State Word:7e76  Speed:488.00  Motor Position:3919
State Word:7e76  Speed:488.00  Motor Position:3950
State Word:7e76  Speed:488.00  Motor Position:3981
State Word:7e76  Speed:488.00  Motor Position:4013
State Word:7e76  Speed:488.00  Motor Position:4044
State Word:7e76  Speed:488.00  Motor Position:4075
State Word:7e76  Speed:488.00  Motor Position:4106
State Word:7e76  Speed:488.00  Motor Position:4138
State Word:7e76  Speed:488.00  Motor Position:4168
State Word:7e76  Speed:488.00  Motor Position:4200
State Word:7e76  Speed:488.00  Motor Position:4231
State Word:7e76  Speed:488.00  Motor Position:4262
State Word:7e76  Speed:488.00  Motor Position:4294
State Word:7e76  Speed:488.00  Motor Position:4325
State Word:7e76  Speed:488.00  Motor Position:4356
State Word:7e76  Speed:488.00  Motor Position:4387
State Word:7e76  Speed:488.00  Motor Position:4418
State Word:7e76  Speed:488.00  Motor Position:4450
State Word:7e76  Speed:488.00  Motor Position:4481
State Word:7e76  Speed:488.00  Motor Position:4512
State Word:7e76  Speed:488.00  Motor Position:4543
State Word:7e76  Speed:488.00  Motor Position:4575
State Word:7e76  Speed:488.00  Motor Position:4606
State Word:7e76  Speed:488.00  Motor Position:4637
State Word:7e76  Speed:488.00  Motor Position:4668
State Word:7e76  Speed:488.00  Motor Position:4700
State Word:7e76  Speed:488.00  Motor Position:4731
State Word:7e76  Speed:488.00  Motor Position:4762
State Word:7e76  Speed:488.00  Motor Position:4793
State Word:7e76  Speed:488.00  Motor Position:4824
State Word:7e76  Speed:488.00  Motor Position:4855
State Word:7e76  Speed:488.00  Motor Position:4886
State Word:7e76  Speed:488.00  Motor Position:4918
State Word:7e76  Speed:488.00  Motor Position:4949
State Word:7e76  Speed:488.00  Motor Position:4981
State Word:7e76  Speed:488.00  Motor Position:5012
State Word:7e76  Speed:488.00  Motor Position:5043
State Word:7e76  Speed:488.00  Motor Position:5074
State Word:7e76  Speed:488.00  Motor Position:5105
State Word:7e76  Speed:488.00  Motor Position:5137
State Word:7e76  Speed:488.00  Motor Position:5168
State Word:7e76  Speed:488.00  Motor Position:5199
State Word:7e76  Speed:488.00  Motor Position:5230
State Word:7e76  Speed:488.00  Motor Position:5261
State Word:7e76  Speed:488.00  Motor Position:5293
State Word:7e76  Speed:488.00  Motor Position:5324
State Word:7e76  Speed:488.00  Motor Position:5355
State Word:7e76  Speed:488.00  Motor Position:5386
State Word:7e76  Speed:488.00  Motor Position:5418
State Word:7e76  Speed:488.00  Motor Position:5449
State Word:7e76  Speed:488.00  Motor Position:5480
State Word:7e76  Speed:488.00  Motor Position:5511
State Word:7e76  Speed:488.00  Motor Position:5542
State Word:7e76  Speed:488.00  Motor Position:5574
State Word:7e76  Speed:488.00  Motor Position:5604
State Word:7e76  Speed:488.00  Motor Position:5636
State Word:7e76  Speed:488.00  Motor Position:5667
State Word:7e76  Speed:488.00  Motor Position:5699
State Word:7e76  Speed:488.00  Motor Position:5729
State Word:7e76  Speed:488.00  Motor Position:5761
State Word:7e76  Speed:488.00  Motor Position:5792
State Word:7e76  Speed:488.00  Motor Position:5823
State Word:7e76  Speed:488.00  Motor Position:5855
State Word:7e76  Speed:488.00  Motor Position:5886
State Word:7e76  Speed:488.00  Motor Position:5917
State Word:17e76  Speed:488.00  Motor Position:5948
State Word:17e76  Speed:488.00  Motor Position:5980
State Word:17e76  Speed:488.00  Motor Position:6011
State Word:17e76  Speed:488.00  Motor Position:6042
State Word:7e76  Speed:488.00  Motor Position:6073
State Word:7e76  Speed:488.00  Motor Position:6105
State Word:7e76  Speed:488.00  Motor Position:6136
State Word:7e76  Speed:488.00  Motor Position:6167
State Word:7e76  Speed:488.00  Motor Position:6198
State Word:7e76  Speed:488.00  Motor Position:6230
State Word:7e76  Speed:488.00  Motor Position:6261
State Word:7e76  Speed:488.00  Motor Position:6292
State Word:7e76  Speed:488.00  Motor Position:6323
State Word:7e76  Speed:488.00  Motor Position:6354
State Word:7e76  Speed:488.00  Motor Position:6385
State Word:7e76  Speed:488.00  Motor Position:6416
State Word:7e76  Speed:488.00  Motor Position:6448
State Word:7e76  Speed:488.00  Motor Position:6479
State Word:7e76  Speed:488.00  Motor Position:6510
State Word:7e76  Speed:488.00  Motor Position:6542
State Word:7e76  Speed:488.00  Motor Position:6573
State Word:7e76  Speed:488.00  Motor Position:6604
State Word:7e76  Speed:488.00  Motor Position:6635
State Word:7e76  Speed:488.00  Motor Position:6666
State Word:7e76  Speed:488.00  Motor Position:6698
State Word:7e76  Speed:488.00  Motor Position:6729
State Word:7e76  Speed:488.00  Motor Position:6760
State Word:7e76  Speed:488.00  Motor Position:6791
State Word:7e76  Speed:488.00  Motor Position:6822
State Word:7e76  Speed:488.00  Motor Position:6853
State Word:7e76  Speed:488.00  Motor Position:6884
State Word:7e76  Speed:488.00  Motor Position:6915
State Word:7e76  Speed:488.00  Motor Position:6947
State Word:7e76  Speed:488.00  Motor Position:6979
State Word:7e76  Speed:488.00  Motor Position:7010
State Word:7e76  Speed:488.00  Motor Position:7041
State Word:7e76  Speed:488.00  Motor Position:7072
State Word:7e76  Speed:488.00  Motor Position:7103
State Word:7e76  Speed:488.00  Motor Position:7134
State Word:7e76  Speed:488.00  Motor Position:7166
State Word:7e76  Speed:488.00  Motor Position:7197
State Word:7e76  Speed:488.00  Motor Position:7228
State Word:7e76  Speed:488.00  Motor Position:7259
State Word:7e76  Speed:488.00  Motor Position:7291
State Word:7e76  Speed:488.00  Motor Position:7322
State Word:7e76  Speed:488.00  Motor Position:7353
State Word:7e76  Speed:488.00  Motor Position:7385
State Word:7e76  Speed:488.00  Motor Position:7416
State Word:7e76  Speed:488.00  Motor Position:7447
State Word:7e76  Speed:488.00  Motor Position:7478
State Word:7e54  Speed:438.99  Motor Position:7509
State Word:7e54  Speed:283.99  Motor Position:7532
State Word:7e54  Speed:125.99  Motor Position:7545
State Word:7e16  Speed:0.00  Motor Position:7546
- - Registers after stop begin - -
State Word:7e16  Speed:0.00  Motor Position:7546
- - Registers after stop end - -
