Control Word:0
Speed Begin:100
Speed End:382
StepCount:6050
StepMode:1
- - Intial Registers begin - -
State Word:17e06  Speed:0.00  Motor Position:-85
- - Intial Registers end- -
State Word:17e34  Speed:155.99  Motor Position:10
State Word:17e34  Speed:180.99  Motor Position:16
State Word:17e34  Speed:225.99  Motor Position:29
State Word:7e34  Speed:270.99  Motor Position:45
State Word:7e34  Speed:316.99  Motor Position:64
State Word:7e34  Speed:361.99  Motor Position:86
State Word:7e76  Speed:381.99  Motor Position:110
State Word:7e76  Speed:381.99  Motor Position:134
State Word:7e76  Speed:381.99  Motor Position:159
State Word:7e76  Speed:381.99  Motor Position:183
State Word:7e76  Speed:381.99  Motor Position:208
State Word:7e76  Speed:381.99  Motor Position:232
State Word:7e76  Speed:381.99  Motor Position:256
State Word:7e76  Speed:381.99  Motor Position:281
State Word:7e76  Speed:381.99  Motor Position:305
State Word:7e76  Speed:381.99  Motor Position:330
State Word:7e76  Speed:381.99  Motor Position:354
State Word:7e76  Speed:381.99  Motor Position:378
State Word:7e76  Speed:381.99  Motor Position:403
State Word:7e76  Speed:381.99  Motor Position:427
State Word:7e76  Speed:381.99  Motor Position:452
State Word:7e76  Speed:381.99  Motor Position:477
State Word:7e76  Speed:381.99  Motor Position:501
State Word:7e76  Speed:381.99  Motor Position:525
State Word:7e76  Speed:381.99  Motor Position:550
State Word:7e76  Speed:381.99  Motor Position:574
State Word:7e76  Speed:381.99  Motor Position:598
State Word:7e76  Speed:381.99  Motor Position:623
State Word:7e76  Speed:381.99  Motor Position:648
State Word:7e76  Speed:381.99  Motor Position:672
State Word:7e76  Speed:381.99  Motor Position:696
State Word:7e76  Speed:381.99  Motor Position:721
State Word:7e76  Speed:381.99  Motor Position:745
State Word:7e76  Speed:381.99  Motor Position:770
State Word:7e76  Speed:381.99  Motor Position:794
State Word:7e76  Speed:381.99  Motor Position:818
State Word:7e76  Speed:381.99  Motor Position:843
State Word:7e76  Speed:381.99  Motor Position:867
State Word:7e76  Speed:381.99  Motor Position:892
State Word:7e76  Speed:381.99  Motor Position:917
State Word:7e76  Speed:381.99  Motor Position:941
State Word:7e76  Speed:381.99  Motor Position:965
State Word:7e76  Speed:381.99  Motor Position:989
State Word:7e76  Speed:381.99  Motor Position:1014
State Word:7e76  Speed:381.99  Motor Position:1038
State Word:7e76  Speed:381.99  Motor Position:1063
State Word:7e76  Speed:381.99  Motor Position:1087
State Word:7e76  Speed:381.99  Motor Position:1112
State Word:7e76  Speed:381.99  Motor Position:1136
State Word:7e76  Speed:381.99  Motor Position:1161
State Word:7e76  Speed:381.99  Motor Position:1185
State Word:7e76  Speed:381.99  Motor Position:1210
State Word:7e76  Speed:381.99  Motor Position:1234
State Word:7e76  Speed:381.99  Motor Position:1259
State Word:7e76  Speed:381.99  Motor Position:1283
State Word:7e76  Speed:381.99  Motor Position:1308
State Word:7e76  Speed:381.99  Motor Position:1332
State Word:7e76  Speed:381.99  Motor Position:1356
State Word:7e76  Speed:381.99  Motor Position:1380
State Word:7e76  Speed:381.99  Motor Position:1405
State Word:7e76  Speed:381.99  Motor Position:1429
State Word:7e76  Speed:381.99  Motor Position:1454
State Word:7e76  Speed:381.99  Motor Position:1478
State Word:7e76  Speed:381.99  Motor Position:1503
State Word:7e76  Speed:381.99  Motor Position:1527
State Word:7e76  Speed:381.99  Motor Position:1552
State Word:7e76  Speed:381.99  Motor Position:1576
State Word:7e76  Speed:381.99  Motor Position:1601
State Word:7e76  Speed:381.99  Motor Position:1625
State Word:7e76  Speed:381.99  Motor Position:1650
State Word:7e76  Speed:381.99  Motor Position:1674
State Word:7e76  Speed:381.99  Motor Position:1698
State Word:7e76  Speed:381.99  Motor Position:1723
State Word:7e76  Speed:381.99  Motor Position:1747
State Word:7e76  Speed:381.99  Motor Position:1772
State Word:7e76  Speed:381.99  Motor Position:1796
State Word:7e76  Speed:381.99  Motor Position:1821
State Word:7e76  Speed:381.99  Motor Position:1845
State Word:7e76  Speed:381.99  Motor Position:1869
State Word:7e76  Speed:381.99  Motor Position:1894
State Word:7e76  Speed:381.99  Motor Position:1918
State Word:7e76  Speed:381.99  Motor Position:1943
State Word:7e76  Speed:381.99  Motor Position:1967
State Word:7e76  Speed:381.99  Motor Position:1992
State Word:7e76  Speed:381.99  Motor Position:2016
State Word:7e76  Speed:381.99  Motor Position:2041
State Word:7e76  Speed:381.99  Motor Position:2065
State Word:7e76  Speed:381.99  Motor Position:2089
State Word:7e76  Speed:381.99  Motor Position:2114
State Word:7e76  Speed:381.99  Motor Position:2138
State Word:7e76  Speed:381.99  Motor Position:2163
State Word:7e76  Speed:381.99  Motor Position:2187
State Word:7e76  Speed:381.99  Motor Position:2212
State Word:7e76  Speed:381.99  Motor Position:2236
State Word:7e76  Speed:381.99  Motor Position:2260
State Word:7e76  Speed:381.99  Motor Position:2285
State Word:7e76  Speed:381.99  Motor Position:2309
State Word:7e76  Speed:381.99  Motor Position:2334
State Word:7e76  Speed:381.99  Motor Position:2358
State Word:7e76  Speed:381.99  Motor Position:2382
State Word:7e76  Speed:381.99  Motor Position:2407
State Word:7e76  Speed:381.99  Motor Position:2432
State Word:7e76  Speed:381.99  Motor Position:2456
State Word:7e76  Speed:381.99  Motor Position:2481
State Word:7e76  Speed:381.99  Motor Position:2505
State Word:7e76  Speed:381.99  Motor Position:2529
State Word:7e76  Speed:381.99  Motor Position:2554
State Word:7e76  Speed:381.99  Motor Position:2578
State Word:7e76  Speed:381.99  Motor Position:2603
State Word:7e76  Speed:381.99  Motor Position:2627
State Word:7e76  Speed:381.99  Motor Position:2652
State Word:7e76  Speed:381.99  Motor Position:2676
State Word:7e76  Speed:381.99  Motor Position:2700
State Word:7e76  Speed:381.99  Motor Position:2725
State Word:7e76  Speed:381.99  Motor Position:2749
State Word:7e76  Speed:381.99  Motor Position:2774
State Word:7e76  Speed:381.99  Motor Position:2798
State Word:7e76  Speed:381.99  Motor Position:2822
State Word:7e76  Speed:381.99  Motor Position:2847
State Word:7e76  Speed:381.99  Motor Position:2871
State Word:7e76  Speed:381.99  Motor Position:2896
State Word:27e76  Speed:381.99  Motor Position:2921
State Word:27e76  Speed:381.99  Motor Position:2945
State Word:27e76  Speed:381.99  Motor Position:2969
State Word:27e76  Speed:381.99  Motor Position:2994
State Word:27e76  Speed:381.99  Motor Position:3018
State Word:27e76  Speed:381.99  Motor Position:3043
State Word:27e76  Speed:381.99  Motor Position:3067
State Word:7e76  Speed:381.99  Motor Position:3091
State Word:7e76  Speed:381.99  Motor Position:3115
State Word:7e76  Speed:381.99  Motor Position:3140
State Word:7e76  Speed:381.99  Motor Position:3165
State Word:7e76  Speed:381.99  Motor Position:3189
State Word:7e76  Speed:381.99  Motor Position:3214
State Word:7e76  Speed:381.99  Motor Position:3238
State Word:7e76  Speed:381.99  Motor Position:3263
State Word:7e76  Speed:381.99  Motor Position:3288
State Word:7e76  Speed:381.99  Motor Position:3311
State Word:7e76  Speed:381.99  Motor Position:3336
State Word:7e76  Speed:381.99  Motor Position:3360
State Word:7e76  Speed:381.99  Motor Position:3385
State Word:7e76  Speed:381.99  Motor Position:3409
State Word:7e76  Speed:381.99  Motor Position:3434
State Word:7e76  Speed:381.99  Motor Position:3458
State Word:7e76  Speed:381.99  Motor Position:3483
State Word:7e76  Speed:381.99  Motor Position:3507
State Word:7e76  Speed:381.99  Motor Position:3531
State Word:7e76  Speed:381.99  Motor Position:3556
State Word:7e76  Speed:381.99  Motor Position:3580
State Word:7e76  Speed:381.99  Motor Position:3604
State Word:7e76  Speed:381.99  Motor Position:3629
State Word:7e76  Speed:381.99  Motor Position:3654
State Word:7e76  Speed:381.99  Motor Position:3678
State Word:7e76  Speed:381.99  Motor Position:3702
State Word:7e76  Speed:381.99  Motor Position:3727
State Word:7e76  Speed:381.99  Motor Position:3751
State Word:7e76  Speed:381.99  Motor Position:3776
State Word:7e76  Speed:381.99  Motor Position:3800
State Word:7e76  Speed:381.99  Motor Position:3825
State Word:7e76  Speed:381.99  Motor Position:3849
State Word:7e76  Speed:381.99  Motor Position:3874
State Word:7e76  Speed:381.99  Motor Position:3898
State Word:7e76  Speed:381.99  Motor Position:3923
State Word:7e76  Speed:381.99  Motor Position:3947
State Word:7e76  Speed:381.99  Motor Position:3971
State Word:7e76  Speed:381.99  Motor Position:3996
State Word:7e76  Speed:381.99  Motor Position:4020
State Word:7e76  Speed:381.99  Motor Position:4045
State Word:7e76  Speed:381.99  Motor Position:4069
State Word:7e76  Speed:381.99  Motor Position:4094
State Word:7e76  Speed:381.99  Motor Position:4118
State Word:7e76  Speed:381.99  Motor Position:4142
State Word:7e76  Speed:381.99  Motor Position:4167
State Word:7e76  Speed:381.99  Motor Position:4191
State Word:7e76  Speed:381.99  Motor Position:4216
State Word:7e76  Speed:381.99  Motor Position:4240
State Word:7e76  Speed:381.99  Motor Position:4265
State Word:7e76  Speed:381.99  Motor Position:4289
State Word:7e76  Speed:381.99  Motor Position:4314
State Word:7e76  Speed:381.99  Motor Position:4338
State Word:7e76  Speed:381.99  Motor Position:4362
State Word:7e76  Speed:381.99  Motor Position:4387
State Word:7e76  Speed:381.99  Motor Position:4411
State Word:7e76  Speed:381.99  Motor Position:4436
State Word:7e76  Speed:381.99  Motor Position:4460
State Word:7e76  Speed:381.99  Motor Position:4484
State Word:7e76  Speed:381.99  Motor Position:4509
State Word:7e76  Speed:381.99  Motor Position:4533
State Word:7e76  Speed:381.99  Motor Position:4558
State Word:7e76  Speed:381.99  Motor Position:4582
State Word:7e76  Speed:381.99  Motor Position:4607
State Word:7e76  Speed:381.99  Motor Position:4631
State Word:7e76  Speed:381.99  Motor Position:4656
State Word:7e76  Speed:381.99  Motor Position:4680
State Word:7e76  Speed:381.99  Motor Position:4705
State Word:7e76  Speed:381.99  Motor Position:4729
State Word:7e76  Speed:381.99  Motor Position:4753
State Word:7e76  Speed:381.99  Motor Position:4778
State Word:7e76  Speed:381.99  Motor Position:4802
State Word:7e76  Speed:381.99  Motor Position:4827
State Word:7e76  Speed:381.99  Motor Position:4851
State Word:7e76  Speed:381.99  Motor Position:4876
State Word:7e76  Speed:381.99  Motor Position:4900
State Word:7e76  Speed:381.99  Motor Position:4925
State Word:7e76  Speed:381.99  Motor Position:4949
State Word:7e76  Speed:381.99  Motor Position:4973
State Word:7e76  Speed:381.99  Motor Position:4998
State Word:7e76  Speed:381.99  Motor Position:5022
State Word:7e76  Speed:381.99  Motor Position:5046
State Word:7e76  Speed:381.99  Motor Position:5071
State Word:7e76  Speed:381.99  Motor Position:5096
State Word:7e76  Speed:381.99  Motor Position:5120
State Word:7e76  Speed:381.99  Motor Position:5144
State Word:7e76  Speed:381.99  Motor Position:5169
State Word:7e76  Speed:381.99  Motor Position:5194
State Word:7e76  Speed:381.99  Motor Position:5218
State Word:7e76  Speed:381.99  Motor Position:5242
State Word:7e76  Speed:381.99  Motor Position:5267
State Word:7e76  Speed:381.99  Motor Position:5291
State Word:7e76  Speed:381.99  Motor Position:5315
State Word:7e76  Speed:381.99  Motor Position:5340
State Word:7e76  Speed:381.99  Motor Position:5365
State Word:7e76  Speed:381.99  Motor Position:5389
State Word:7e76  Speed:381.99  Motor Position:5413
State Word:7e76  Speed:381.99  Motor Position:5437
State Word:7e76  Speed:381.99  Motor Position:5462
State Word:7e76  Speed:381.99  Motor Position:5487
State Word:7e76  Speed:381.99  Motor Position:5511
State Word:7e76  Speed:381.99  Motor Position:5536
State Word:7e76  Speed:381.99  Motor Position:5560
State Word:7e76  Speed:381.99  Motor Position:5584
State Word:7e76  Speed:381.99  Motor Position:5609
State Word:7e76  Speed:381.99  Motor Position:5632
State Word:7e76  Speed:381.99  Motor Position:5658
State Word:7e76  Speed:381.99  Motor Position:5682
State Word:7e76  Speed:381.99  Motor Position:5707
State Word:7e76  Speed:381.99  Motor Position:5731
State Word:7e76  Speed:381.99  Motor Position:5755
State Word:7e76  Speed:381.99  Motor Position:5780
State Word:7e76  Speed:381.99  Motor Position:5804
State Word:7e76  Speed:381.99  Motor Position:5829
State Word:7e76  Speed:381.99  Motor Position:5853
State Word:7e76  Speed:381.99  Motor Position:5878
State Word:17e76  Speed:381.99  Motor Position:5902
State Word:17e76  Speed:381.99  Motor Position:5927
State Word:17e76  Speed:381.99  Motor Position:5951
State Word:17e76  Speed:381.99  Motor Position:5975
State Word:17e76  Speed:381.99  Motor Position:6000
State Word:17e76  Speed:381.99  Motor Position:6024
State Word:7e76  Speed:381.99  Motor Position:6049
State Word:7e54  Speed:264.99  Motor Position:6069
State Word:7e54  Speed:142.99  Motor Position:6083
State Word:7e16  Speed:0.00  Motor Position:6085
- - Registers after stop begin - -
State Word:7e16  Speed:0.00  Motor Position:6085
- - Registers after stop end - -
