Control Word:0
Speed Begin:100
Speed End:1166
StepCount:6050
StepMode:1
- - Intial Registers begin - -
State Word:17e06  Speed:0.00  Motor Position:-164
- - Intial Registers end- -
State Word:17e34  Speed:313.00  Motor Position:17
State Word:17e34  Speed:407.00  Motor Position:29
State Word:7e76  Speed:1165.99  Motor Position:301
State Word:7e76  Speed:1165.99  Motor Position:366
State Word:7e76  Speed:1165.99  Motor Position:403
State Word:7e76  Speed:1165.99  Motor Position:441
State Word:7e76  Speed:1165.99  Motor Position:518
State Word:7e76  Speed:1165.99  Motor Position:592
State Word:7e76  Speed:1165.99  Motor Position:666
State Word:7e76  Speed:1165.99  Motor Position:742
State Word:7e76  Speed:1165.99  Motor Position:816
State Word:7e76  Speed:1165.99  Motor Position:890
State Word:7e76  Speed:1165.99  Motor Position:966
State Word:7e76  Speed:1165.99  Motor Position:1039
State Word:7e76  Speed:1165.99  Motor Position:1113
State Word:7e76  Speed:1165.99  Motor Position:1188
State Word:7e76  Speed:1165.99  Motor Position:1263
State Word:7e76  Speed:1165.99  Motor Position:1338
State Word:7e76  Speed:1165.99  Motor Position:1412
State Word:7e76  Speed:1165.99  Motor Position:1487
State Word:7e76  Speed:1165.99  Motor Position:1562
State Word:7e76  Speed:1165.99  Motor Position:1637
State Word:7e76  Speed:1165.99  Motor Position:1711
State Word:7e76  Speed:1165.99  Motor Position:1785
State Word:7e76  Speed:1165.99  Motor Position:1860
State Word:7e76  Speed:1165.99  Motor Position:1935
State Word:7e76  Speed:1165.99  Motor Position:2010
State Word:7e76  Speed:1165.99  Motor Position:2085
State Word:7e76  Speed:1165.99  Motor Position:2158
State Word:7e76  Speed:1165.99  Motor Position:2234
State Word:7e76  Speed:1165.99  Motor Position:2307
State Word:7e76  Speed:1165.99  Motor Position:2381
State Word:7e76  Speed:1165.99  Motor Position:2457
State Word:7e76  Speed:1165.99  Motor Position:2532
State Word:7e76  Speed:1165.99  Motor Position:2606
State Word:7e76  Speed:1165.99  Motor Position:2681
State Word:7e76  Speed:1165.99  Motor Position:2755
State Word:7e76  Speed:1165.99  Motor Position:2830
State Word:7e76  Speed:1165.99  Motor Position:2905
State Word:27e76  Speed:1165.99  Motor Position:2979
State Word:27e76  Speed:1165.99  Motor Position:3054
State Word:7e76  Speed:1165.99  Motor Position:3128
State Word:7e76  Speed:1165.99  Motor Position:3203
State Word:7e76  Speed:1165.99  Motor Position:3277
State Word:7e76  Speed:1165.99  Motor Position:3350
State Word:7e76  Speed:1165.99  Motor Position:3426
State Word:7e76  Speed:1165.99  Motor Position:3500
State Word:7e76  Speed:1165.99  Motor Position:3578
State Word:7e76  Speed:1165.99  Motor Position:3650
State Word:7e76  Speed:1165.99  Motor Position:3725
State Word:7e76  Speed:1165.99  Motor Position:3800
State Word:7e76  Speed:1165.99  Motor Position:3873
State Word:7e76  Speed:1165.99  Motor Position:3949
State Word:7e76  Speed:1165.99  Motor Position:4023
State Word:7e76  Speed:1165.99  Motor Position:4098
State Word:7e76  Speed:1165.99  Motor Position:4173
State Word:7e76  Speed:1165.99  Motor Position:4247
State Word:7e76  Speed:1165.99  Motor Position:4322
State Word:7e76  Speed:1165.99  Motor Position:4397
State Word:7e76  Speed:1165.99  Motor Position:4471
State Word:7e76  Speed:1165.99  Motor Position:4546
State Word:7e76  Speed:1165.99  Motor Position:4621
State Word:7e76  Speed:1165.99  Motor Position:4695
State Word:7e76  Speed:1165.99  Motor Position:4770
State Word:7e76  Speed:1165.99  Motor Position:4844
State Word:7e76  Speed:1165.99  Motor Position:4919
State Word:7e76  Speed:1165.99  Motor Position:4993
State Word:7e76  Speed:1165.99  Motor Position:5068
State Word:7e76  Speed:1165.99  Motor Position:5141
State Word:7e76  Speed:1165.99  Motor Position:5216
State Word:7e76  Speed:1165.99  Motor Position:5292
State Word:7e76  Speed:1165.99  Motor Position:5366
State Word:7e76  Speed:1165.99  Motor Position:5441
State Word:7e76  Speed:1165.99  Motor Position:5516
State Word:7e76  Speed:1165.99  Motor Position:5590
State Word:7e76  Speed:1165.99  Motor Position:5664
State Word:7e76  Speed:1165.99  Motor Position:5740
State Word:7e76  Speed:1165.99  Motor Position:5813
State Word:7e76  Speed:1165.99  Motor Position:5888
State Word:17e76  Speed:1165.99  Motor Position:5963
State Word:17e76  Speed:1165.99  Motor Position:6038
State Word:7e54  Speed:856.00  Motor Position:6104
State Word:7e54  Speed:482.99  Motor Position:6147
State Word:7e54  Speed:107.99  Motor Position:6166
State Word:7e16  Speed:0.00  Motor Position:6166
- - Registers after stop begin - -
State Word:7e16  Speed:0.00  Motor Position:6166
- - Registers after stop end - -
