Control Word:0
Speed Begin:100
Speed End:1064
StepCount:7500
StepMode:1
- - Intial Registers begin - -
State Word:17e06  Speed:0.00  Motor Position:-1591
- - Intial Registers end- -
State Word:17e34  Speed:290.99  Motor Position:15
State Word:17e34  Speed:372.99  Motor Position:27
State Word:17e34  Speed:525.00  Motor Position:55
State Word:7e34  Speed:677.99  Motor Position:93
State Word:7e34  Speed:831.99  Motor Position:142
State Word:7e34  Speed:987.99  Motor Position:200
State Word:7e76  Speed:1063.99  Motor Position:266
State Word:7e76  Speed:1063.99  Motor Position:335
State Word:7e76  Speed:1063.99  Motor Position:402
State Word:7e76  Speed:1063.99  Motor Position:473
State Word:7e76  Speed:1063.99  Motor Position:539
State Word:7e76  Speed:1063.99  Motor Position:606
State Word:7e76  Speed:1063.99  Motor Position:676
State Word:7e76  Speed:1063.99  Motor Position:743
State Word:7e76  Speed:1063.99  Motor Position:810
State Word:7e76  Speed:1063.99  Motor Position:879
State Word:7e76  Speed:1063.99  Motor Position:948
State Word:7e76  Speed:1063.99  Motor Position:1016
State Word:7e76  Speed:1063.99  Motor Position:1084
State Word:7e76  Speed:1063.99  Motor Position:1151
State Word:7e76  Speed:1063.99  Motor Position:1219
State Word:7e76  Speed:1063.99  Motor Position:1287
State Word:7e76  Speed:1063.99  Motor Position:1354
State Word:7e76  Speed:1063.99  Motor Position:1423
State Word:7e76  Speed:1063.99  Motor Position:1491
State Word:7e76  Speed:1063.99  Motor Position:1559
State Word:7e76  Speed:1063.99  Motor Position:1627
State Word:7e76  Speed:1063.99  Motor Position:1695
State Word:7e76  Speed:1063.99  Motor Position:1763
State Word:7e76  Speed:1063.99  Motor Position:1831
State Word:7e76  Speed:1063.99  Motor Position:1899
State Word:7e76  Speed:1063.99  Motor Position:1967
State Word:7e76  Speed:1063.99  Motor Position:2036
State Word:7e76  Speed:1063.99  Motor Position:2103
State Word:7e76  Speed:1063.99  Motor Position:2171
State Word:7e76  Speed:1063.99  Motor Position:2238
State Word:7e76  Speed:1063.99  Motor Position:2307
State Word:7e76  Speed:1063.99  Motor Position:2374
State Word:7e76  Speed:1063.99  Motor Position:2443
State Word:7e76  Speed:1063.99  Motor Position:2511
State Word:7e76  Speed:1063.99  Motor Position:2580
State Word:7e76  Speed:1063.99  Motor Position:2646
State Word:7e76  Speed:1063.99  Motor Position:2716
State Word:7e76  Speed:1063.99  Motor Position:2783
State Word:7e76  Speed:1063.99  Motor Position:2850
State Word:7e76  Speed:1063.99  Motor Position:2918
State Word:27e76  Speed:1063.99  Motor Position:2986
State Word:27e76  Speed:1063.99  Motor Position:3056
State Word:7e76  Speed:1063.99  Motor Position:3124
State Word:7e76  Speed:1063.99  Motor Position:3190
State Word:7e76  Speed:1063.99  Motor Position:3259
State Word:7e76  Speed:1063.99  Motor Position:3326
State Word:7e76  Speed:1063.99  Motor Position:3396
State Word:7e76  Speed:1063.99  Motor Position:3466
State Word:7e76  Speed:1063.99  Motor Position:3530
State Word:7e76  Speed:1063.99  Motor Position:3564
State Word:7e76  Speed:1063.99  Motor Position:3599
State Word:7e76  Speed:1063.99  Motor Position:3666
State Word:7e76  Speed:1063.99  Motor Position:3735
State Word:7e76  Speed:1063.99  Motor Position:3804
State Word:7e76  Speed:1063.99  Motor Position:3870
State Word:7e76  Speed:1063.99  Motor Position:3939
State Word:7e76  Speed:1063.99  Motor Position:4007
State Word:7e76  Speed:1063.99  Motor Position:4076
State Word:7e76  Speed:1063.99  Motor Position:4145
State Word:7e76  Speed:1063.99  Motor Position:4211
State Word:7e76  Speed:1063.99  Motor Position:4279
State Word:7e76  Speed:1063.99  Motor Position:4347
State Word:7e76  Speed:1063.99  Motor Position:4415
State Word:7e76  Speed:1063.99  Motor Position:4483
State Word:7e76  Speed:1063.99  Motor Position:4550
State Word:7e76  Speed:1063.99  Motor Position:4618
State Word:7e76  Speed:1063.99  Motor Position:4687
State Word:7e76  Speed:1063.99  Motor Position:4756
State Word:7e76  Speed:1063.99  Motor Position:4824
State Word:7e76  Speed:1063.99  Motor Position:4895
State Word:7e76  Speed:1063.99  Motor Position:4982
State Word:7e76  Speed:1063.99  Motor Position:5065
State Word:7e76  Speed:1063.99  Motor Position:5288
State Word:7e76  Speed:1063.99  Motor Position:5404
State Word:7e76  Speed:1063.99  Motor Position:5646
State Word:7e76  Speed:1063.99  Motor Position:5733
State Word:7e76  Speed:1063.99  Motor Position:5810
State Word:7e76  Speed:1063.99  Motor Position:5876
State Word:17e76  Speed:1063.99  Motor Position:5955
State Word:17e76  Speed:1063.99  Motor Position:6015
State Word:7e76  Speed:1063.99  Motor Position:6083
State Word:7e76  Speed:1063.99  Motor Position:6172
State Word:7e76  Speed:1063.99  Motor Position:6253
State Word:7e76  Speed:1063.99  Motor Position:6318
State Word:7e76  Speed:1063.99  Motor Position:6392
State Word:7e76  Speed:1063.99  Motor Position:6456
State Word:7e76  Speed:1063.99  Motor Position:6524
State Word:7e76  Speed:1063.99  Motor Position:6592
State Word:7e76  Speed:1063.99  Motor Position:6660
State Word:7e76  Speed:1063.99  Motor Position:6726
State Word:7e76  Speed:1063.99  Motor Position:6794
State Word:7e76  Speed:1063.99  Motor Position:6862
State Word:7e76  Speed:1063.99  Motor Position:6930
State Word:7e76  Speed:1063.99  Motor Position:6999
State Word:7e76  Speed:1063.99  Motor Position:7068
State Word:7e76  Speed:1063.99  Motor Position:7136
State Word:7e76  Speed:1063.99  Motor Position:7202
State Word:7e76  Speed:1063.99  Motor Position:7270
State Word:7e76  Speed:1063.99  Motor Position:7341
State Word:7e76  Speed:1063.99  Motor Position:7408
State Word:7e76  Speed:1063.99  Motor Position:7498
State Word:7e54  Speed:794.99  Motor Position:7547
State Word:7e54  Speed:383.99  Motor Position:7592
State Word:7e16  Speed:0.00  Motor Position:7605
- - Registers after stop begin - -
State Word:7e16  Speed:0.00  Motor Position:7605
- - Registers after stop end - -
