Control Word:0
Speed Begin:100
Speed End:330
StepCount:6050
StepMode:1
- - Intial Registers begin - -
State Word:17e06  Speed:0.00  Motor Position:-85
- - Intial Registers end- -
State Word:17e34  Speed:147.00  Motor Position:10
State Word:17e34  Speed:167.00  Motor Position:15
State Word:17e34  Speed:203.00  Motor Position:27
State Word:7e34  Speed:240.00  Motor Position:41
State Word:7e34  Speed:277.00  Motor Position:58
State Word:7e34  Speed:313.00  Motor Position:77
State Word:7e76  Speed:329.99  Motor Position:97
State Word:7e76  Speed:329.99  Motor Position:119
State Word:7e76  Speed:329.99  Motor Position:140
State Word:7e76  Speed:329.99  Motor Position:161
State Word:7e76  Speed:329.99  Motor Position:182
State Word:7e76  Speed:329.99  Motor Position:203
State Word:7e76  Speed:329.99  Motor Position:224
State Word:7e76  Speed:329.99  Motor Position:245
State Word:7e76  Speed:329.99  Motor Position:266
State Word:7e76  Speed:329.99  Motor Position:288
State Word:7e76  Speed:329.99  Motor Position:309
State Word:7e76  Speed:329.99  Motor Position:330
State Word:7e76  Speed:329.99  Motor Position:351
State Word:7e76  Speed:329.99  Motor Position:372
State Word:7e76  Speed:329.99  Motor Position:393
State Word:7e76  Speed:329.99  Motor Position:414
State Word:7e76  Speed:329.99  Motor Position:435
State Word:7e76  Speed:329.99  Motor Position:457
State Word:7e76  Speed:329.99  Motor Position:478
State Word:7e76  Speed:329.99  Motor Position:499
State Word:7e76  Speed:329.99  Motor Position:520
State Word:7e76  Speed:329.99  Motor Position:541
State Word:7e76  Speed:329.99  Motor Position:562
State Word:7e76  Speed:329.99  Motor Position:583
State Word:7e76  Speed:329.99  Motor Position:604
State Word:7e76  Speed:329.99  Motor Position:625
State Word:7e76  Speed:329.99  Motor Position:646
State Word:7e76  Speed:329.99  Motor Position:668
State Word:7e76  Speed:329.99  Motor Position:689
State Word:7e76  Speed:329.99  Motor Position:710
State Word:7e76  Speed:329.99  Motor Position:731
State Word:7e76  Speed:329.99  Motor Position:752
State Word:7e76  Speed:329.99  Motor Position:773
State Word:7e76  Speed:329.99  Motor Position:794
State Word:7e76  Speed:329.99  Motor Position:815
State Word:7e76  Speed:329.99  Motor Position:837
State Word:7e76  Speed:329.99  Motor Position:858
State Word:7e76  Speed:329.99  Motor Position:879
State Word:7e76  Speed:329.99  Motor Position:900
State Word:7e76  Speed:329.99  Motor Position:921
State Word:7e76  Speed:329.99  Motor Position:942
State Word:7e76  Speed:329.99  Motor Position:963
State Word:7e76  Speed:329.99  Motor Position:984
State Word:7e76  Speed:329.99  Motor Position:1006
State Word:7e76  Speed:329.99  Motor Position:1027
State Word:7e76  Speed:329.99  Motor Position:1048
State Word:7e76  Speed:329.99  Motor Position:1069
State Word:7e76  Speed:329.99  Motor Position:1090
State Word:7e76  Speed:329.99  Motor Position:1111
State Word:7e76  Speed:329.99  Motor Position:1132
State Word:7e76  Speed:329.99  Motor Position:1153
State Word:7e76  Speed:329.99  Motor Position:1174
State Word:7e76  Speed:329.99  Motor Position:1195
State Word:7e76  Speed:329.99  Motor Position:1217
State Word:7e76  Speed:329.99  Motor Position:1238
State Word:7e76  Speed:329.99  Motor Position:1259
State Word:7e76  Speed:329.99  Motor Position:1280
State Word:7e76  Speed:329.99  Motor Position:1301
State Word:7e76  Speed:329.99  Motor Position:1322
State Word:7e76  Speed:329.99  Motor Position:1343
State Word:7e76  Speed:329.99  Motor Position:1364
State Word:7e76  Speed:329.99  Motor Position:1385
State Word:7e76  Speed:329.99  Motor Position:1407
State Word:7e76  Speed:329.99  Motor Position:1427
State Word:7e76  Speed:329.99  Motor Position:1449
State Word:7e76  Speed:329.99  Motor Position:1470
State Word:7e76  Speed:329.99  Motor Position:1491
State Word:7e76  Speed:329.99  Motor Position:1512
State Word:7e76  Speed:329.99  Motor Position:1533
State Word:7e76  Speed:329.99  Motor Position:1554
State Word:7e76  Speed:329.99  Motor Position:1576
State Word:7e76  Speed:329.99  Motor Position:1596
State Word:7e76  Speed:329.99  Motor Position:1618
State Word:7e76  Speed:329.99  Motor Position:1639
State Word:7e76  Speed:329.99  Motor Position:1660
State Word:7e76  Speed:329.99  Motor Position:1681
State Word:7e76  Speed:329.99  Motor Position:1702
State Word:7e76  Speed:329.99  Motor Position:1723
State Word:7e76  Speed:329.99  Motor Position:1744
State Word:7e76  Speed:329.99  Motor Position:1765
State Word:7e76  Speed:329.99  Motor Position:1786
State Word:7e76  Speed:329.99  Motor Position:1808
State Word:7e76  Speed:329.99  Motor Position:1829
State Word:7e76  Speed:329.99  Motor Position:1850
State Word:7e76  Speed:329.99  Motor Position:1871
State Word:7e76  Speed:329.99  Motor Position:1892
State Word:7e76  Speed:329.99  Motor Position:1913
State Word:7e76  Speed:329.99  Motor Position:1934
State Word:7e76  Speed:329.99  Motor Position:1956
State Word:7e76  Speed:329.99  Motor Position:1977
State Word:7e76  Speed:329.99  Motor Position:1998
State Word:7e76  Speed:329.99  Motor Position:2019
State Word:7e76  Speed:329.99  Motor Position:2040
State Word:7e76  Speed:329.99  Motor Position:2061
State Word:7e76  Speed:329.99  Motor Position:2082
State Word:7e76  Speed:329.99  Motor Position:2103
State Word:7e76  Speed:329.99  Motor Position:2124
State Word:7e76  Speed:329.99  Motor Position:2146
State Word:7e76  Speed:329.99  Motor Position:2166
State Word:7e76  Speed:329.99  Motor Position:2188
State Word:7e76  Speed:329.99  Motor Position:2209
State Word:7e76  Speed:329.99  Motor Position:2230
State Word:7e76  Speed:329.99  Motor Position:2251
State Word:7e76  Speed:329.99  Motor Position:2272
State Word:7e76  Speed:329.99  Motor Position:2293
State Word:7e76  Speed:329.99  Motor Position:2315
State Word:7e76  Speed:329.99  Motor Position:2335
State Word:7e76  Speed:329.99  Motor Position:2357
State Word:7e76  Speed:329.99  Motor Position:2378
State Word:7e76  Speed:329.99  Motor Position:2399
State Word:7e76  Speed:329.99  Motor Position:2420
State Word:7e76  Speed:329.99  Motor Position:2441
State Word:7e76  Speed:329.99  Motor Position:2462
State Word:7e76  Speed:329.99  Motor Position:2483
State Word:7e76  Speed:329.99  Motor Position:2504
State Word:7e76  Speed:329.99  Motor Position:2526
State Word:7e76  Speed:329.99  Motor Position:2547
State Word:7e76  Speed:329.99  Motor Position:2568
State Word:7e76  Speed:329.99  Motor Position:2589
State Word:7e76  Speed:329.99  Motor Position:2610
State Word:7e76  Speed:329.99  Motor Position:2631
State Word:7e76  Speed:329.99  Motor Position:2652
State Word:7e76  Speed:329.99  Motor Position:2673
State Word:7e76  Speed:329.99  Motor Position:2695
State Word:7e76  Speed:329.99  Motor Position:2716
State Word:7e76  Speed:329.99  Motor Position:2736
State Word:7e76  Speed:329.99  Motor Position:2758
State Word:7e76  Speed:329.99  Motor Position:2779
State Word:7e76  Speed:329.99  Motor Position:2800
State Word:7e76  Speed:329.99  Motor Position:2821
State Word:7e76  Speed:329.99  Motor Position:2842
State Word:7e76  Speed:329.99  Motor Position:2864
State Word:7e76  Speed:329.99  Motor Position:2884
State Word:7e76  Speed:329.99  Motor Position:2905
State Word:27e76  Speed:329.99  Motor Position:2927
State Word:27e76  Speed:329.99  Motor Position:2948
State Word:27e76  Speed:329.99  Motor Position:2969
State Word:27e76  Speed:329.99  Motor Position:2990
State Word:27e76  Speed:329.99  Motor Position:3011
State Word:27e76  Speed:329.99  Motor Position:3033
State Word:27e76  Speed:329.99  Motor Position:3053
State Word:7e76  Speed:329.99  Motor Position:3074
State Word:7e76  Speed:329.99  Motor Position:3096
State Word:7e76  Speed:329.99  Motor Position:3117
State Word:7e76  Speed:329.99  Motor Position:3138
State Word:7e76  Speed:329.99  Motor Position:3159
State Word:7e76  Speed:329.99  Motor Position:3180
State Word:7e76  Speed:329.99  Motor Position:3201
State Word:7e76  Speed:329.99  Motor Position:3222
State Word:7e76  Speed:329.99  Motor Position:3243
State Word:7e76  Speed:329.99  Motor Position:3264
State Word:7e76  Speed:329.99  Motor Position:3285
State Word:7e76  Speed:329.99  Motor Position:3307
State Word:7e76  Speed:329.99  Motor Position:3328
State Word:7e76  Speed:329.99  Motor Position:3349
State Word:7e76  Speed:329.99  Motor Position:3370
State Word:7e76  Speed:329.99  Motor Position:3391
State Word:7e76  Speed:329.99  Motor Position:3412
State Word:7e76  Speed:329.99  Motor Position:3433
State Word:7e76  Speed:329.99  Motor Position:3455
State Word:7e76  Speed:329.99  Motor Position:3476
State Word:7e76  Speed:329.99  Motor Position:3497
State Word:7e76  Speed:329.99  Motor Position:3518
State Word:7e76  Speed:329.99  Motor Position:3539
State Word:7e76  Speed:329.99  Motor Position:3560
State Word:7e76  Speed:329.99  Motor Position:3581
State Word:7e76  Speed:329.99  Motor Position:3602
State Word:7e76  Speed:329.99  Motor Position:3623
State Word:7e76  Speed:329.99  Motor Position:3645
State Word:7e76  Speed:329.99  Motor Position:3666
State Word:7e76  Speed:329.99  Motor Position:3687
State Word:7e76  Speed:329.99  Motor Position:3708
State Word:7e76  Speed:329.99  Motor Position:3729
State Word:7e76  Speed:329.99  Motor Position:3750
State Word:7e76  Speed:329.99  Motor Position:3771
State Word:7e76  Speed:329.99  Motor Position:3792
State Word:7e76  Speed:329.99  Motor Position:3814
State Word:7e76  Speed:329.99  Motor Position:3835
State Word:7e76  Speed:329.99  Motor Position:3856
State Word:7e76  Speed:329.99  Motor Position:3877
State Word:7e76  Speed:329.99  Motor Position:3898
State Word:7e76  Speed:329.99  Motor Position:3919
State Word:7e76  Speed:329.99  Motor Position:3940
State Word:7e76  Speed:329.99  Motor Position:3961
State Word:7e76  Speed:329.99  Motor Position:3983
State Word:7e76  Speed:329.99  Motor Position:4003
State Word:7e76  Speed:329.99  Motor Position:4025
State Word:7e76  Speed:329.99  Motor Position:4046
State Word:7e76  Speed:329.99  Motor Position:4067
State Word:7e76  Speed:329.99  Motor Position:4088
State Word:7e76  Speed:329.99  Motor Position:4109
State Word:7e76  Speed:329.99  Motor Position:4130
State Word:7e76  Speed:329.99  Motor Position:4151
State Word:7e76  Speed:329.99  Motor Position:4172
State Word:7e76  Speed:329.99  Motor Position:4193
State Word:7e76  Speed:329.99  Motor Position:4215
State Word:7e76  Speed:329.99  Motor Position:4236
State Word:7e76  Speed:329.99  Motor Position:4257
State Word:7e76  Speed:329.99  Motor Position:4278
State Word:7e76  Speed:329.99  Motor Position:4299
State Word:7e76  Speed:329.99  Motor Position:4320
State Word:7e76  Speed:329.99  Motor Position:4341
State Word:7e76  Speed:329.99  Motor Position:4362
State Word:7e76  Speed:329.99  Motor Position:4384
State Word:7e76  Speed:329.99  Motor Position:4405
State Word:7e76  Speed:329.99  Motor Position:4426
State Word:7e76  Speed:329.99  Motor Position:4447
State Word:7e76  Speed:329.99  Motor Position:4468
State Word:7e76  Speed:329.99  Motor Position:4489
State Word:7e76  Speed:329.99  Motor Position:4510
State Word:7e76  Speed:329.99  Motor Position:4531
State Word:7e76  Speed:329.99  Motor Position:4552
State Word:7e76  Speed:329.99  Motor Position:4573
State Word:7e76  Speed:329.99  Motor Position:4594
State Word:7e76  Speed:329.99  Motor Position:4616
State Word:7e76  Speed:329.99  Motor Position:4637
State Word:7e76  Speed:329.99  Motor Position:4658
State Word:7e76  Speed:329.99  Motor Position:4679
State Word:7e76  Speed:329.99  Motor Position:4700
State Word:7e76  Speed:329.99  Motor Position:4722
State Word:7e76  Speed:329.99  Motor Position:4742
State Word:7e76  Speed:329.99  Motor Position:4764
State Word:7e76  Speed:329.99  Motor Position:4785
State Word:7e76  Speed:329.99  Motor Position:4806
State Word:7e76  Speed:329.99  Motor Position:4827
State Word:7e76  Speed:329.99  Motor Position:4848
State Word:7e76  Speed:329.99  Motor Position:4869
State Word:7e76  Speed:329.99  Motor Position:4890
State Word:7e76  Speed:329.99  Motor Position:4911
State Word:7e76  Speed:329.99  Motor Position:4932
State Word:7e76  Speed:329.99  Motor Position:4954
State Word:7e76  Speed:329.99  Motor Position:4975
State Word:7e76  Speed:329.99  Motor Position:4996
State Word:7e76  Speed:329.99  Motor Position:5017
State Word:7e76  Speed:329.99  Motor Position:5038
State Word:7e76  Speed:329.99  Motor Position:5059
State Word:7e76  Speed:329.99  Motor Position:5080
State Word:7e76  Speed:329.99  Motor Position:5101
State Word:7e76  Speed:329.99  Motor Position:5123
State Word:7e76  Speed:329.99  Motor Position:5144
State Word:7e76  Speed:329.99  Motor Position:5165
State Word:7e76  Speed:329.99  Motor Position:5186
State Word:7e76  Speed:329.99  Motor Position:5207
State Word:7e76  Speed:329.99  Motor Position:5228
State Word:7e76  Speed:329.99  Motor Position:5249
State Word:7e76  Speed:329.99  Motor Position:5270
State Word:7e76  Speed:329.99  Motor Position:5291
State Word:7e76  Speed:329.99  Motor Position:5312
State Word:7e76  Speed:329.99  Motor Position:5334
State Word:7e76  Speed:329.99  Motor Position:5355
State Word:7e76  Speed:329.99  Motor Position:5376
State Word:7e76  Speed:329.99  Motor Position:5397
State Word:7e76  Speed:329.99  Motor Position:5418
State Word:7e76  Speed:329.99  Motor Position:5438
State Word:7e76  Speed:329.99  Motor Position:5450
State Word:7e76  Speed:329.99  Motor Position:5471
State Word:7e76  Speed:329.99  Motor Position:5492
State Word:7e76  Speed:329.99  Motor Position:5513
State Word:7e76  Speed:329.99  Motor Position:5534
State Word:7e76  Speed:329.99  Motor Position:5555
State Word:7e76  Speed:329.99  Motor Position:5576
State Word:7e76  Speed:329.99  Motor Position:5598
State Word:7e76  Speed:329.99  Motor Position:5619
State Word:7e76  Speed:329.99  Motor Position:5640
State Word:7e76  Speed:329.99  Motor Position:5661
State Word:7e76  Speed:329.99  Motor Position:5682
State Word:7e76  Speed:329.99  Motor Position:5703
State Word:7e76  Speed:329.99  Motor Position:5724
State Word:7e76  Speed:329.99  Motor Position:5745
State Word:7e76  Speed:329.99  Motor Position:5766
State Word:7e76  Speed:329.99  Motor Position:5788
State Word:7e76  Speed:329.99  Motor Position:5809
State Word:7e76  Speed:329.99  Motor Position:5830
State Word:7e76  Speed:329.99  Motor Position:5851
State Word:7e76  Speed:329.99  Motor Position:5872
State Word:7e76  Speed:329.99  Motor Position:5893
State Word:17e76  Speed:329.99  Motor Position:5914
State Word:17e76  Speed:329.99  Motor Position:5935
State Word:17e76  Speed:329.99  Motor Position:5956
State Word:17e76  Speed:329.99  Motor Position:5978
State Word:17e76  Speed:329.99  Motor Position:5999
State Word:17e76  Speed:329.99  Motor Position:6020
State Word:7e76  Speed:329.99  Motor Position:6041
State Word:7e54  Speed:269.00  Motor Position:6061
State Word:7e54  Speed:162.99  Motor Position:6075
State Word:7e16  Speed:0.00  Motor Position:6080
- - Registers after stop begin - -
State Word:7e16  Speed:0.00  Motor Position:6080
- - Registers after stop end - -
