Control Word:3
Speed Begin:50
Speed End:500
StepCount:21000
StepMode:1
- - Intial Registers begin - -
State Word:7e16  Speed:0.00  Motor Position:6194
- - Intial Registers end- -
State Word:7e24  Speed:176.00  Motor Position:-13
State Word:7e24  Speed:215.99  Motor Position:-20
State Word:7e24  Speed:287.00  Motor Position:-35
State Word:7e24  Speed:360.00  Motor Position:-56
State Word:7e24  Speed:430.99  Motor Position:-81
State Word:7e66  Speed:499.99  Motor Position:-111
State Word:17e44  Speed:473.99  Motor Position:-143
State Word:17e44  Speed:314.00  Motor Position:-168
State Word:17e44  Speed:152.99  Motor Position:-183
State Word:17e06  Speed:0.00  Motor Position:-188
- - Registers after stop begin - -
State Word:17e06  Speed:0.00  Motor Position:-188
- - Registers after stop end - -
