Control Word:0
Speed Begin:100
Speed End:1444
StepCount:6020
StepMode:1
- - Intial Registers begin - -
State Word:37e06  Speed:0.00  Motor Position:-140
- - Intial Registers end- -
State Word:27e34  Speed:683.99  Motor Position:68
State Word:27e34  Speed:1222.00  Motor Position:221
State Word:27e76  Speed:1444.00  Motor Position:444
State Word:27e76  Speed:1444.00  Motor Position:674
State Word:27e76  Speed:1444.00  Motor Position:906
State Word:27e76  Speed:1444.00  Motor Position:1138
State Word:27e76  Speed:1444.00  Motor Position:1367
State Word:27e76  Speed:1444.00  Motor Position:1598
State Word:27e76  Speed:1444.00  Motor Position:1829
State Word:27e76  Speed:1444.00  Motor Position:2061
State Word:27e76  Speed:1444.00  Motor Position:2292
State Word:27e76  Speed:1444.00  Motor Position:2523
State Word:27e76  Speed:1444.00  Motor Position:2754
State Word:27e76  Speed:1444.00  Motor Position:2985
State Word:27e76  Speed:1444.00  Motor Position:3216
State Word:27e76  Speed:1444.00  Motor Position:3447
State Word:27e76  Speed:1444.00  Motor Position:3678
State Word:27e76  Speed:1444.00  Motor Position:3908
State Word:27e76  Speed:1444.00  Motor Position:4139
State Word:27e76  Speed:1444.00  Motor Position:4370
State Word:27e76  Speed:1444.00  Motor Position:4601
State Word:27e76  Speed:1444.00  Motor Position:4832
State Word:27e76  Speed:1444.00  Motor Position:5063
State Word:27e76  Speed:1444.00  Motor Position:5294
State Word:27e76  Speed:1444.00  Motor Position:5526
State Word:27e76  Speed:1444.00  Motor Position:5757
State Word:37e76  Speed:1444.00  Motor Position:5988
State Word:27e54  Speed:685.99  Motor Position:6133
State Word:27e16  Speed:0.00  Motor Position:6165
- - Registers after stop begin - -
State Word:27e16  Speed:0.00  Motor Position:6165
- - Registers after stop end - -
