Control Word:3
Speed Begin:50
Speed End:500
StepCount:21000
StepMode:1
- - Intial Registers begin - -
State Word:7e16  Speed:0.00  Motor Position:6246
- - Intial Registers end- -
State Word:7e24  Speed:140.99  Motor Position:-8
State Word:7e24  Speed:179.99  Motor Position:-13
State Word:7e24  Speed:251.99  Motor Position:-27
State Word:7e24  Speed:324.99  Motor Position:-46
State Word:7e24  Speed:395.00  Motor Position:-68
State Word:7e24  Speed:467.99  Motor Position:-96
State Word:7e66  Speed:499.99  Motor Position:-128
State Word:7e66  Speed:499.99  Motor Position:-160
State Word:7e66  Speed:499.99  Motor Position:-192
State Word:17e44  Speed:361.00  Motor Position:-220
State Word:17e44  Speed:199.99  Motor Position:-238
State Word:17e06  Speed:0.00  Motor Position:-245
- - Registers after stop begin - -
State Word:17e06  Speed:0.00  Motor Position:-245
- - Registers after stop end - -
