Control Word:0
Speed Begin:100
Speed End:2224
StepCount:120
StepMode:1
- - Intial Registers begin - -
State Word:17e06  Speed:0.00  Motor Position:-173
- - Intial Registers end- -
State Word:17e34  Speed:515.00  Motor Position:24
State Word:17e34  Speed:705.99  Motor Position:46
State Word:7e34  Speed:1050.99  Motor Position:103
State Word:7e54  Speed:602.99  Motor Position:162
State Word:7e16  Speed:0.00  Motor Position:178
- - Registers after stop begin - -
State Word:7e16  Speed:0.00  Motor Position:178
- - Registers after stop end - -
