Control Word:0
Speed Begin:100
Speed End:223
StepCount:6050
StepMode:1
- - Intial Registers begin - -
State Word:17e06  Speed:0.00  Motor Position:-14
- - Intial Registers end- -
State Word:7e34  Speed:134.99  Motor Position:13
State Word:7e34  Speed:145.99  Motor Position:18
State Word:7e34  Speed:164.99  Motor Position:28
State Word:7e34  Speed:185.00  Motor Position:39
State Word:7e34  Speed:204.00  Motor Position:52
State Word:7e76  Speed:223.00  Motor Position:65
State Word:7e76  Speed:223.00  Motor Position:80
State Word:7e76  Speed:223.00  Motor Position:94
State Word:7e76  Speed:223.00  Motor Position:108
State Word:7e76  Speed:223.00  Motor Position:122
State Word:7e76  Speed:223.00  Motor Position:137
State Word:7e76  Speed:223.00  Motor Position:151
State Word:7e76  Speed:223.00  Motor Position:165
State Word:7e76  Speed:223.00  Motor Position:180
State Word:7e76  Speed:223.00  Motor Position:194
State Word:7e76  Speed:223.00  Motor Position:208
State Word:7e76  Speed:223.00  Motor Position:222
State Word:7e76  Speed:223.00  Motor Position:237
State Word:7e76  Speed:223.00  Motor Position:251
State Word:7e76  Speed:223.00  Motor Position:265
State Word:7e76  Speed:223.00  Motor Position:279
State Word:7e76  Speed:223.00  Motor Position:294
State Word:7e76  Speed:223.00  Motor Position:308
State Word:7e76  Speed:223.00  Motor Position:318
State Word:7e76  Speed:223.00  Motor Position:385
State Word:7e76  Speed:223.00  Motor Position:396
State Word:7e76  Speed:223.00  Motor Position:411
State Word:7e76  Speed:223.00  Motor Position:425
State Word:7e76  Speed:223.00  Motor Position:439
State Word:7e76  Speed:223.00  Motor Position:454
State Word:7e76  Speed:223.00  Motor Position:468
State Word:7e76  Speed:223.00  Motor Position:482
State Word:7e76  Speed:223.00  Motor Position:497
State Word:7e76  Speed:223.00  Motor Position:511
State Word:7e76  Speed:223.00  Motor Position:525
State Word:7e76  Speed:223.00  Motor Position:539
State Word:7e76  Speed:223.00  Motor Position:554
State Word:7e76  Speed:223.00  Motor Position:568
State Word:7e76  Speed:223.00  Motor Position:582
State Word:7e76  Speed:223.00  Motor Position:596
State Word:7e76  Speed:223.00  Motor Position:611
State Word:7e76  Speed:223.00  Motor Position:625
State Word:7e76  Speed:223.00  Motor Position:639
State Word:7e76  Speed:223.00  Motor Position:653
State Word:7e76  Speed:223.00  Motor Position:668
State Word:7e76  Speed:223.00  Motor Position:682
State Word:7e76  Speed:223.00  Motor Position:696
State Word:7e76  Speed:223.00  Motor Position:710
State Word:7e76  Speed:223.00  Motor Position:725
State Word:7e76  Speed:223.00  Motor Position:739
State Word:7e76  Speed:223.00  Motor Position:753
State Word:7e76  Speed:223.00  Motor Position:768
State Word:7e76  Speed:223.00  Motor Position:781
State Word:7e76  Speed:223.00  Motor Position:796
State Word:7e76  Speed:223.00  Motor Position:810
State Word:7e76  Speed:223.00  Motor Position:825
State Word:7e76  Speed:223.00  Motor Position:839
State Word:7e76  Speed:223.00  Motor Position:853
State Word:7e76  Speed:223.00  Motor Position:867
State Word:7e76  Speed:223.00  Motor Position:882
State Word:7e76  Speed:223.00  Motor Position:896
State Word:7e76  Speed:223.00  Motor Position:910
State Word:7e76  Speed:223.00  Motor Position:925
State Word:7e76  Speed:223.00  Motor Position:939
State Word:7e76  Speed:223.00  Motor Position:953
State Word:7e76  Speed:223.00  Motor Position:967
State Word:7e76  Speed:223.00  Motor Position:982
State Word:7e76  Speed:223.00  Motor Position:996
State Word:7e76  Speed:223.00  Motor Position:1010
State Word:7e76  Speed:223.00  Motor Position:1024
State Word:7e76  Speed:223.00  Motor Position:1038
State Word:7e76  Speed:223.00  Motor Position:1053
State Word:7e76  Speed:223.00  Motor Position:1067
State Word:7e76  Speed:223.00  Motor Position:1081
State Word:7e76  Speed:223.00  Motor Position:1096
State Word:7e76  Speed:223.00  Motor Position:1110
State Word:7e76  Speed:223.00  Motor Position:1124
State Word:7e76  Speed:223.00  Motor Position:1138
State Word:7e76  Speed:223.00  Motor Position:1153
State Word:7e76  Speed:223.00  Motor Position:1167
State Word:7e76  Speed:223.00  Motor Position:1181
State Word:7e76  Speed:223.00  Motor Position:1196
State Word:7e76  Speed:223.00  Motor Position:1210
State Word:7e76  Speed:223.00  Motor Position:1224
State Word:7e76  Speed:223.00  Motor Position:1238
State Word:7e76  Speed:223.00  Motor Position:1253
State Word:7e76  Speed:223.00  Motor Position:1267
State Word:7e76  Speed:223.00  Motor Position:1281
State Word:7e76  Speed:223.00  Motor Position:1296
State Word:7e76  Speed:223.00  Motor Position:1310
State Word:7e76  Speed:223.00  Motor Position:1324
State Word:7e76  Speed:223.00  Motor Position:1338
State Word:7e76  Speed:223.00  Motor Position:1353
State Word:7e76  Speed:223.00  Motor Position:1367
State Word:7e76  Speed:223.00  Motor Position:1381
State Word:7e76  Speed:223.00  Motor Position:1395
State Word:7e76  Speed:223.00  Motor Position:1410
State Word:7e76  Speed:223.00  Motor Position:1424
State Word:7e76  Speed:223.00  Motor Position:1438
State Word:7e76  Speed:223.00  Motor Position:1453
State Word:7e76  Speed:223.00  Motor Position:1466
State Word:7e76  Speed:223.00  Motor Position:1481
State Word:7e76  Speed:223.00  Motor Position:1495
State Word:7e76  Speed:223.00  Motor Position:1510
State Word:7e76  Speed:223.00  Motor Position:1524
State Word:7e76  Speed:223.00  Motor Position:1538
State Word:7e76  Speed:223.00  Motor Position:1552
State Word:7e76  Speed:223.00  Motor Position:1567
State Word:7e76  Speed:223.00  Motor Position:1581
State Word:7e76  Speed:223.00  Motor Position:1595
State Word:7e76  Speed:223.00  Motor Position:1609
State Word:7e76  Speed:223.00  Motor Position:1624
State Word:7e76  Speed:223.00  Motor Position:1638
State Word:7e76  Speed:223.00  Motor Position:1652
State Word:7e76  Speed:223.00  Motor Position:1666
State Word:7e76  Speed:223.00  Motor Position:1681
State Word:7e76  Speed:223.00  Motor Position:1695
State Word:7e76  Speed:223.00  Motor Position:1709
State Word:7e76  Speed:223.00  Motor Position:1724
State Word:7e76  Speed:223.00  Motor Position:1738
State Word:7e76  Speed:223.00  Motor Position:1752
State Word:7e76  Speed:223.00  Motor Position:1766
State Word:7e76  Speed:223.00  Motor Position:1781
State Word:7e76  Speed:223.00  Motor Position:1795
State Word:7e76  Speed:223.00  Motor Position:1809
State Word:7e76  Speed:223.00  Motor Position:1824
State Word:7e76  Speed:223.00  Motor Position:1838
State Word:7e76  Speed:223.00  Motor Position:1852
State Word:7e76  Speed:223.00  Motor Position:1866
State Word:7e76  Speed:223.00  Motor Position:1880
State Word:7e76  Speed:223.00  Motor Position:1895
State Word:7e76  Speed:223.00  Motor Position:1909
State Word:7e76  Speed:223.00  Motor Position:1923
State Word:7e76  Speed:223.00  Motor Position:1938
State Word:7e76  Speed:223.00  Motor Position:1952
State Word:7e76  Speed:223.00  Motor Position:1966
State Word:7e76  Speed:223.00  Motor Position:1980
State Word:7e76  Speed:223.00  Motor Position:1995
State Word:7e76  Speed:223.00  Motor Position:2009
State Word:7e76  Speed:223.00  Motor Position:2023
State Word:7e76  Speed:223.00  Motor Position:2037
State Word:7e76  Speed:223.00  Motor Position:2052
State Word:7e76  Speed:223.00  Motor Position:2066
State Word:7e76  Speed:223.00  Motor Position:2080
State Word:7e76  Speed:223.00  Motor Position:2094
State Word:7e76  Speed:223.00  Motor Position:2109
State Word:7e76  Speed:223.00  Motor Position:2123
State Word:7e76  Speed:223.00  Motor Position:2137
State Word:7e76  Speed:223.00  Motor Position:2152
State Word:7e76  Speed:223.00  Motor Position:2166
State Word:7e76  Speed:223.00  Motor Position:2180
State Word:7e76  Speed:223.00  Motor Position:2194
State Word:7e76  Speed:223.00  Motor Position:2209
State Word:7e76  Speed:223.00  Motor Position:2223
State Word:7e76  Speed:223.00  Motor Position:2237
State Word:7e76  Speed:223.00  Motor Position:2251
State Word:7e76  Speed:223.00  Motor Position:2266
State Word:7e76  Speed:223.00  Motor Position:2280
State Word:7e76  Speed:223.00  Motor Position:2294
State Word:7e76  Speed:223.00  Motor Position:2309
State Word:7e76  Speed:223.00  Motor Position:2323
State Word:7e76  Speed:223.00  Motor Position:2337
State Word:7e76  Speed:223.00  Motor Position:2351
State Word:7e76  Speed:223.00  Motor Position:2366
State Word:7e76  Speed:223.00  Motor Position:2380
State Word:7e76  Speed:223.00  Motor Position:2394
State Word:7e76  Speed:223.00  Motor Position:2409
State Word:7e76  Speed:223.00  Motor Position:2423
State Word:7e76  Speed:223.00  Motor Position:2437
State Word:7e76  Speed:223.00  Motor Position:2451
State Word:7e76  Speed:223.00  Motor Position:2465
State Word:7e76  Speed:223.00  Motor Position:2480
State Word:7e76  Speed:223.00  Motor Position:2494
State Word:7e76  Speed:223.00  Motor Position:2508
State Word:7e76  Speed:223.00  Motor Position:2523
State Word:7e76  Speed:223.00  Motor Position:2537
State Word:7e76  Speed:223.00  Motor Position:2551
State Word:7e76  Speed:223.00  Motor Position:2565
State Word:7e76  Speed:223.00  Motor Position:2580
State Word:7e76  Speed:223.00  Motor Position:2594
State Word:7e76  Speed:223.00  Motor Position:2608
State Word:7e76  Speed:223.00  Motor Position:2622
State Word:7e76  Speed:223.00  Motor Position:2637
State Word:7e76  Speed:223.00  Motor Position:2651
State Word:7e76  Speed:223.00  Motor Position:2665
State Word:7e76  Speed:223.00  Motor Position:2679
State Word:7e76  Speed:223.00  Motor Position:2694
State Word:7e76  Speed:223.00  Motor Position:2708
State Word:7e76  Speed:223.00  Motor Position:2722
State Word:7e76  Speed:223.00  Motor Position:2737
State Word:7e76  Speed:223.00  Motor Position:2751
State Word:7e76  Speed:223.00  Motor Position:2765
State Word:7e76  Speed:223.00  Motor Position:2779
State Word:7e76  Speed:223.00  Motor Position:2794
State Word:7e76  Speed:223.00  Motor Position:2808
State Word:7e76  Speed:223.00  Motor Position:2822
State Word:7e76  Speed:223.00  Motor Position:2836
State Word:7e76  Speed:223.00  Motor Position:2851
State Word:7e76  Speed:223.00  Motor Position:2865
State Word:7e76  Speed:223.00  Motor Position:2879
State Word:7e76  Speed:223.00  Motor Position:2894
State Word:27e76  Speed:223.00  Motor Position:2908
State Word:27e76  Speed:223.00  Motor Position:2922
State Word:27e76  Speed:223.00  Motor Position:2936
State Word:27e76  Speed:223.00  Motor Position:2951
State Word:27e76  Speed:223.00  Motor Position:2965
State Word:27e76  Speed:223.00  Motor Position:2979
State Word:27e76  Speed:223.00  Motor Position:2993
State Word:27e76  Speed:223.00  Motor Position:3008
State Word:27e76  Speed:223.00  Motor Position:3022
State Word:27e76  Speed:223.00  Motor Position:3036
State Word:7e76  Speed:223.00  Motor Position:3051
State Word:7e76  Speed:223.00  Motor Position:3065
State Word:7e76  Speed:223.00  Motor Position:3079
State Word:7e76  Speed:223.00  Motor Position:3093
State Word:7e76  Speed:223.00  Motor Position:3108
State Word:7e76  Speed:223.00  Motor Position:3122
State Word:7e76  Speed:223.00  Motor Position:3136
State Word:7e76  Speed:223.00  Motor Position:3150
State Word:7e76  Speed:223.00  Motor Position:3165
State Word:7e76  Speed:223.00  Motor Position:3179
State Word:7e76  Speed:223.00  Motor Position:3193
State Word:7e76  Speed:223.00  Motor Position:3207
State Word:7e76  Speed:223.00  Motor Position:3222
State Word:7e76  Speed:223.00  Motor Position:3236
State Word:7e76  Speed:223.00  Motor Position:3250
State Word:7e76  Speed:223.00  Motor Position:3264
State Word:7e76  Speed:223.00  Motor Position:3278
State Word:7e76  Speed:223.00  Motor Position:3293
State Word:7e76  Speed:223.00  Motor Position:3307
State Word:7e76  Speed:223.00  Motor Position:3322
State Word:7e76  Speed:223.00  Motor Position:3336
State Word:7e76  Speed:223.00  Motor Position:3350
State Word:7e76  Speed:223.00  Motor Position:3364
State Word:7e76  Speed:223.00  Motor Position:3379
State Word:7e76  Speed:223.00  Motor Position:3393
State Word:7e76  Speed:223.00  Motor Position:3407
State Word:7e76  Speed:223.00  Motor Position:3422
State Word:7e76  Speed:223.00  Motor Position:3436
State Word:7e76  Speed:223.00  Motor Position:3450
State Word:7e76  Speed:223.00  Motor Position:3464
State Word:7e76  Speed:223.00  Motor Position:3479
State Word:7e76  Speed:223.00  Motor Position:3493
State Word:7e76  Speed:223.00  Motor Position:3507
State Word:7e76  Speed:223.00  Motor Position:3521
State Word:7e76  Speed:223.00  Motor Position:3536
State Word:7e76  Speed:223.00  Motor Position:3550
State Word:7e76  Speed:223.00  Motor Position:3564
State Word:7e76  Speed:223.00  Motor Position:3578
State Word:7e76  Speed:223.00  Motor Position:3593
State Word:7e76  Speed:223.00  Motor Position:3607
State Word:7e76  Speed:223.00  Motor Position:3621
State Word:7e76  Speed:223.00  Motor Position:3635
State Word:7e76  Speed:223.00  Motor Position:3650
State Word:7e76  Speed:223.00  Motor Position:3664
State Word:7e76  Speed:223.00  Motor Position:3678
State Word:7e76  Speed:223.00  Motor Position:3693
State Word:7e76  Speed:223.00  Motor Position:3707
State Word:7e76  Speed:223.00  Motor Position:3721
State Word:7e76  Speed:223.00  Motor Position:3735
State Word:7e76  Speed:223.00  Motor Position:3750
State Word:7e76  Speed:223.00  Motor Position:3764
State Word:7e76  Speed:223.00  Motor Position:3778
State Word:7e76  Speed:223.00  Motor Position:3793
State Word:7e76  Speed:223.00  Motor Position:3807
State Word:7e76  Speed:223.00  Motor Position:3821
State Word:7e76  Speed:223.00  Motor Position:3835
State Word:7e76  Speed:223.00  Motor Position:3849
State Word:7e76  Speed:223.00  Motor Position:3864
State Word:7e76  Speed:223.00  Motor Position:3878
State Word:7e76  Speed:223.00  Motor Position:3892
State Word:7e76  Speed:223.00  Motor Position:3907
State Word:7e76  Speed:223.00  Motor Position:3921
State Word:7e76  Speed:223.00  Motor Position:3935
State Word:7e76  Speed:223.00  Motor Position:3949
State Word:7e76  Speed:223.00  Motor Position:3964
State Word:7e76  Speed:223.00  Motor Position:3978
State Word:7e76  Speed:223.00  Motor Position:3992
State Word:7e76  Speed:223.00  Motor Position:4007
State Word:7e76  Speed:223.00  Motor Position:4021
State Word:7e76  Speed:223.00  Motor Position:4035
State Word:7e76  Speed:223.00  Motor Position:4049
State Word:7e76  Speed:223.00  Motor Position:4063
State Word:7e76  Speed:223.00  Motor Position:4078
State Word:7e76  Speed:223.00  Motor Position:4092
State Word:7e76  Speed:223.00  Motor Position:4106
State Word:7e76  Speed:223.00  Motor Position:4121
State Word:7e76  Speed:223.00  Motor Position:4135
State Word:7e76  Speed:223.00  Motor Position:4149
State Word:7e76  Speed:223.00  Motor Position:4163
State Word:7e76  Speed:223.00  Motor Position:4178
State Word:7e76  Speed:223.00  Motor Position:4192
State Word:7e76  Speed:223.00  Motor Position:4206
State Word:7e76  Speed:223.00  Motor Position:4220
State Word:7e76  Speed:223.00  Motor Position:4235
State Word:7e76  Speed:223.00  Motor Position:4249
State Word:7e76  Speed:223.00  Motor Position:4263
State Word:7e76  Speed:223.00  Motor Position:4277
State Word:7e76  Speed:223.00  Motor Position:4292
State Word:7e76  Speed:223.00  Motor Position:4306
State Word:7e76  Speed:223.00  Motor Position:4320
State Word:7e76  Speed:223.00  Motor Position:4335
State Word:7e76  Speed:223.00  Motor Position:4349
State Word:7e76  Speed:223.00  Motor Position:4363
State Word:7e76  Speed:223.00  Motor Position:4377
State Word:7e76  Speed:223.00  Motor Position:4392
State Word:7e76  Speed:223.00  Motor Position:4406
State Word:7e76  Speed:223.00  Motor Position:4420
State Word:7e76  Speed:223.00  Motor Position:4435
State Word:7e76  Speed:223.00  Motor Position:4449
State Word:7e76  Speed:223.00  Motor Position:4463
State Word:7e76  Speed:223.00  Motor Position:4477
State Word:7e76  Speed:223.00  Motor Position:4492
State Word:7e76  Speed:223.00  Motor Position:4506
State Word:7e76  Speed:223.00  Motor Position:4520
State Word:7e76  Speed:223.00  Motor Position:4534
State Word:7e76  Speed:223.00  Motor Position:4549
State Word:7e76  Speed:223.00  Motor Position:4563
State Word:7e76  Speed:223.00  Motor Position:4577
State Word:7e76  Speed:223.00  Motor Position:4591
State Word:7e76  Speed:223.00  Motor Position:4606
State Word:7e76  Speed:223.00  Motor Position:4620
State Word:7e76  Speed:223.00  Motor Position:4634
State Word:7e76  Speed:223.00  Motor Position:4648
State Word:7e76  Speed:223.00  Motor Position:4663
State Word:7e76  Speed:223.00  Motor Position:4677
State Word:7e76  Speed:223.00  Motor Position:4691
State Word:7e76  Speed:223.00  Motor Position:4706
State Word:7e76  Speed:223.00  Motor Position:4720
State Word:7e76  Speed:223.00  Motor Position:4734
State Word:7e76  Speed:223.00  Motor Position:4748
State Word:7e76  Speed:223.00  Motor Position:4763
State Word:7e76  Speed:223.00  Motor Position:4777
State Word:7e76  Speed:223.00  Motor Position:4791
State Word:7e76  Speed:223.00  Motor Position:4806
State Word:7e76  Speed:223.00  Motor Position:4820
State Word:7e76  Speed:223.00  Motor Position:4834
State Word:7e76  Speed:223.00  Motor Position:4848
State Word:7e76  Speed:223.00  Motor Position:4862
State Word:7e76  Speed:223.00  Motor Position:4877
State Word:7e76  Speed:223.00  Motor Position:4891
State Word:7e76  Speed:223.00  Motor Position:4905
State Word:7e76  Speed:223.00  Motor Position:4920
State Word:7e76  Speed:223.00  Motor Position:4934
State Word:7e76  Speed:223.00  Motor Position:4948
State Word:7e76  Speed:223.00  Motor Position:4962
State Word:7e76  Speed:223.00  Motor Position:4977
State Word:7e76  Speed:223.00  Motor Position:4991
State Word:7e76  Speed:223.00  Motor Position:5005
State Word:7e76  Speed:223.00  Motor Position:5019
State Word:7e76  Speed:223.00  Motor Position:5034
State Word:7e76  Speed:223.00  Motor Position:5048
State Word:7e76  Speed:223.00  Motor Position:5062
State Word:7e76  Speed:223.00  Motor Position:5077
State Word:7e76  Speed:223.00  Motor Position:5090
State Word:7e76  Speed:223.00  Motor Position:5105
State Word:7e76  Speed:223.00  Motor Position:5119
State Word:7e76  Speed:223.00  Motor Position:5134
State Word:7e76  Speed:223.00  Motor Position:5148
State Word:7e76  Speed:223.00  Motor Position:5162
State Word:7e76  Speed:223.00  Motor Position:5177
State Word:7e76  Speed:223.00  Motor Position:5191
State Word:7e76  Speed:223.00  Motor Position:5205
State Word:7e76  Speed:223.00  Motor Position:5219
State Word:7e76  Speed:223.00  Motor Position:5233
State Word:7e76  Speed:223.00  Motor Position:5248
State Word:7e76  Speed:223.00  Motor Position:5262
State Word:7e76  Speed:223.00  Motor Position:5276
State Word:7e76  Speed:223.00  Motor Position:5291
State Word:7e76  Speed:223.00  Motor Position:5305
State Word:7e76  Speed:223.00  Motor Position:5319
State Word:7e76  Speed:223.00  Motor Position:5333
State Word:7e76  Speed:223.00  Motor Position:5348
State Word:7e76  Speed:223.00  Motor Position:5361
State Word:7e76  Speed:223.00  Motor Position:5376
State Word:7e76  Speed:223.00  Motor Position:5390
State Word:7e76  Speed:223.00  Motor Position:5405
State Word:7e76  Speed:223.00  Motor Position:5419
State Word:7e76  Speed:223.00  Motor Position:5433
State Word:7e76  Speed:223.00  Motor Position:5447
State Word:7e76  Speed:223.00  Motor Position:5462
State Word:7e76  Speed:223.00  Motor Position:5476
State Word:7e76  Speed:223.00  Motor Position:5490
State Word:7e76  Speed:223.00  Motor Position:5505
State Word:7e76  Speed:223.00  Motor Position:5519
State Word:7e76  Speed:223.00  Motor Position:5533
State Word:7e76  Speed:223.00  Motor Position:5547
State Word:7e76  Speed:223.00  Motor Position:5562
State Word:7e76  Speed:223.00  Motor Position:5576
State Word:7e76  Speed:223.00  Motor Position:5590
State Word:7e76  Speed:223.00  Motor Position:5605
State Word:7e76  Speed:223.00  Motor Position:5619
State Word:7e76  Speed:223.00  Motor Position:5633
State Word:7e76  Speed:223.00  Motor Position:5647
State Word:7e76  Speed:223.00  Motor Position:5661
State Word:7e76  Speed:223.00  Motor Position:5676
State Word:7e76  Speed:223.00  Motor Position:5690
State Word:7e76  Speed:223.00  Motor Position:5704
State Word:7e76  Speed:223.00  Motor Position:5718
State Word:7e76  Speed:223.00  Motor Position:5733
State Word:7e76  Speed:223.00  Motor Position:5747
State Word:7e76  Speed:223.00  Motor Position:5761
State Word:7e76  Speed:223.00  Motor Position:5776
State Word:7e76  Speed:223.00  Motor Position:5790
State Word:7e76  Speed:223.00  Motor Position:5804
State Word:7e76  Speed:223.00  Motor Position:5818
State Word:7e76  Speed:223.00  Motor Position:5833
State Word:7e76  Speed:223.00  Motor Position:5847
State Word:7e76  Speed:223.00  Motor Position:5861
State Word:7e76  Speed:223.00  Motor Position:5875
State Word:17e76  Speed:223.00  Motor Position:5890
State Word:17e76  Speed:223.00  Motor Position:5904
State Word:17e76  Speed:223.00  Motor Position:5918
State Word:17e76  Speed:223.00  Motor Position:5933
State Word:17e76  Speed:223.00  Motor Position:5947
State Word:17e76  Speed:223.00  Motor Position:5961
State Word:17e76  Speed:223.00  Motor Position:5976
State Word:17e76  Speed:223.00  Motor Position:5990
State Word:17e76  Speed:223.00  Motor Position:6004
State Word:7e76  Speed:223.00  Motor Position:6018
State Word:7e76  Speed:223.00  Motor Position:6033
State Word:7e76  Speed:223.00  Motor Position:6047
State Word:7e54  Speed:166.00  Motor Position:6060
State Word:7e16  Speed:0.00  Motor Position:6067
- - Registers after stop begin - -
State Word:7e16  Speed:0.00  Motor Position:6067
- - Registers after stop end - -
