Control Word:0
Speed Begin:100
Speed End:2270
StepCount:120
StepMode:1
- - Intial Registers begin - -
State Word:17e06  Speed:0.00  Motor Position:-173
- - Intial Registers end- -
State Word:17e34  Speed:531.99  Motor Position:25
State Word:17e34  Speed:721.99  Motor Position:47
State Word:7e34  Speed:1068.99  Motor Position:104
State Word:7e54  Speed:577.99  Motor Position:163
State Word:7e16  Speed:0.00  Motor Position:177
- - Registers after stop begin - -
State Word:7e16  Speed:0.00  Motor Position:177
- - Registers after stop end - -
