Control Word:0
Speed Begin:100
Speed End:1442
StepCount:6050
StepMode:1
- - Intial Registers begin - -
State Word:17e06  Speed:0.00  Motor Position:-190
- - Intial Registers end- -
State Word:17e34  Speed:366.99  Motor Position:19
State Word:17e34  Speed:487.00  Motor Position:34
State Word:7e34  Speed:701.99  Motor Position:72
State Word:7e34  Speed:1312.99  Motor Position:255
State Word:7e76  Speed:1441.99  Motor Position:333
State Word:7e76  Speed:1441.99  Motor Position:404
State Word:7e76  Speed:1441.99  Motor Position:497
State Word:7e76  Speed:1441.99  Motor Position:589
State Word:7e76  Speed:1441.99  Motor Position:681
State Word:7e76  Speed:1441.99  Motor Position:774
State Word:7e76  Speed:1441.99  Motor Position:866
State Word:7e76  Speed:1441.99  Motor Position:960
State Word:7e76  Speed:1441.99  Motor Position:1050
State Word:7e76  Speed:1441.99  Motor Position:1142
State Word:7e76  Speed:1441.99  Motor Position:1235
State Word:7e76  Speed:1441.99  Motor Position:1327
State Word:7e76  Speed:1441.99  Motor Position:1420
State Word:7e76  Speed:1441.99  Motor Position:1509
State Word:7e76  Speed:1441.99  Motor Position:1556
State Word:7e76  Speed:1441.99  Motor Position:1650
State Word:7e76  Speed:1441.99  Motor Position:1742
State Word:7e76  Speed:1441.99  Motor Position:1832
State Word:7e76  Speed:1441.99  Motor Position:1925
State Word:7e76  Speed:1441.99  Motor Position:2019
State Word:7e76  Speed:1441.99  Motor Position:2112
State Word:7e76  Speed:1441.99  Motor Position:2201
State Word:7e76  Speed:1441.99  Motor Position:2296
State Word:7e76  Speed:1441.99  Motor Position:2387
State Word:7e76  Speed:1441.99  Motor Position:2479
State Word:7e76  Speed:1441.99  Motor Position:2572
State Word:7e76  Speed:1441.99  Motor Position:2664
State Word:7e76  Speed:1441.99  Motor Position:2758
State Word:7e76  Speed:1441.99  Motor Position:2849
State Word:7e76  Speed:1441.99  Motor Position:2942
State Word:27e76  Speed:1441.99  Motor Position:3034
State Word:7e76  Speed:1441.99  Motor Position:3127
State Word:7e76  Speed:1441.99  Motor Position:3219
State Word:7e76  Speed:1441.99  Motor Position:3310
State Word:7e76  Speed:1441.99  Motor Position:3403
State Word:7e76  Speed:1441.99  Motor Position:3493
State Word:7e76  Speed:1441.99  Motor Position:3588
State Word:7e76  Speed:1441.99  Motor Position:3680
State Word:7e76  Speed:1441.99  Motor Position:3771
State Word:7e76  Speed:1441.99  Motor Position:3865
State Word:7e76  Speed:1441.99  Motor Position:3957
State Word:7e76  Speed:1441.99  Motor Position:4049
State Word:7e76  Speed:1441.99  Motor Position:4141
State Word:7e76  Speed:1441.99  Motor Position:4234
State Word:7e76  Speed:1441.99  Motor Position:4326
State Word:7e76  Speed:1441.99  Motor Position:4419
State Word:7e76  Speed:1441.99  Motor Position:4511
State Word:7e76  Speed:1441.99  Motor Position:4603
State Word:7e76  Speed:1441.99  Motor Position:4694
State Word:7e76  Speed:1441.99  Motor Position:4787
State Word:7e76  Speed:1441.99  Motor Position:4878
State Word:7e76  Speed:1441.99  Motor Position:4971
State Word:7e76  Speed:1441.99  Motor Position:5063
State Word:7e76  Speed:1441.99  Motor Position:5156
State Word:7e76  Speed:1441.99  Motor Position:5248
State Word:7e76  Speed:1441.99  Motor Position:5340
State Word:7e76  Speed:1441.99  Motor Position:5432
State Word:7e76  Speed:1441.99  Motor Position:5524
State Word:7e76  Speed:1441.99  Motor Position:5617
State Word:7e76  Speed:1441.99  Motor Position:5708
State Word:7e76  Speed:1441.99  Motor Position:5802
State Word:7e76  Speed:1441.99  Motor Position:5894
State Word:17e76  Speed:1441.99  Motor Position:5987
State Word:7e54  Speed:1299.99  Motor Position:6078
State Word:7e54  Speed:852.99  Motor Position:6145
State Word:7e54  Speed:379.99  Motor Position:6185
State Word:7e16  Speed:0.00  Motor Position:6194
- - Registers after stop begin - -
State Word:7e16  Speed:0.00  Motor Position:6194
- - Registers after stop end - -
