Control Word:3
Speed Begin:50
Speed End:500
StepCount:21000
StepMode:1
- - Intial Registers begin - -
State Word:7e16  Speed:0.00  Motor Position:6104
- - Intial Registers end- -
State Word:7e24  Speed:176.00  Motor Position:-13
State Word:7e24  Speed:215.99  Motor Position:-20
State Word:7e24  Speed:287.99  Motor Position:-36
State Word:7e24  Speed:357.99  Motor Position:-56
State Word:17e44  Speed:306.99  Motor Position:-79
State Word:17e44  Speed:148.00  Motor Position:-94
State Word:17e06  Speed:0.00  Motor Position:-98
- - Registers after stop begin - -
State Word:17e06  Speed:0.00  Motor Position:-98
- - Registers after stop end - -
