Control Word:0
Speed Begin:100
Speed End:252
StepCount:6050
StepMode:1
- - Intial Registers begin - -
State Word:17e06  Speed:0.00  Motor Position:-98
- - Intial Registers end- -
State Word:17e34  Speed:131.00  Motor Position:9
State Word:17e34  Speed:143.99  Motor Position:14
State Word:17e34  Speed:168.00  Motor Position:24
State Word:7e34  Speed:191.99  Motor Position:35
State Word:7e34  Speed:216.99  Motor Position:48
State Word:7e34  Speed:241.00  Motor Position:63
State Word:7e76  Speed:251.99  Motor Position:79
State Word:7e76  Speed:251.99  Motor Position:95
State Word:7e76  Speed:251.99  Motor Position:111
State Word:7e76  Speed:251.99  Motor Position:128
State Word:7e76  Speed:251.99  Motor Position:144
State Word:7e76  Speed:251.99  Motor Position:160
State Word:7e76  Speed:251.99  Motor Position:176
State Word:7e76  Speed:251.99  Motor Position:192
State Word:7e76  Speed:251.99  Motor Position:208
State Word:7e76  Speed:251.99  Motor Position:224
State Word:7e76  Speed:251.99  Motor Position:240
State Word:7e76  Speed:251.99  Motor Position:257
State Word:7e76  Speed:251.99  Motor Position:273
State Word:7e76  Speed:251.99  Motor Position:289
State Word:7e76  Speed:251.99  Motor Position:305
State Word:7e76  Speed:251.99  Motor Position:321
State Word:7e76  Speed:251.99  Motor Position:337
State Word:7e76  Speed:251.99  Motor Position:353
State Word:7e76  Speed:251.99  Motor Position:369
State Word:7e76  Speed:251.99  Motor Position:385
State Word:7e76  Speed:251.99  Motor Position:402
State Word:7e76  Speed:251.99  Motor Position:418
State Word:7e76  Speed:251.99  Motor Position:434
State Word:7e76  Speed:251.99  Motor Position:450
State Word:7e76  Speed:251.99  Motor Position:466
State Word:7e76  Speed:251.99  Motor Position:482
State Word:7e76  Speed:251.99  Motor Position:498
State Word:7e76  Speed:251.99  Motor Position:514
State Word:7e76  Speed:251.99  Motor Position:531
State Word:7e76  Speed:251.99  Motor Position:547
State Word:7e76  Speed:251.99  Motor Position:563
State Word:7e76  Speed:251.99  Motor Position:579
State Word:7e76  Speed:251.99  Motor Position:595
State Word:7e76  Speed:251.99  Motor Position:611
State Word:7e76  Speed:251.99  Motor Position:627
State Word:7e76  Speed:251.99  Motor Position:644
State Word:7e76  Speed:251.99  Motor Position:660
State Word:7e76  Speed:251.99  Motor Position:676
State Word:7e76  Speed:251.99  Motor Position:692
State Word:7e76  Speed:251.99  Motor Position:708
State Word:7e76  Speed:251.99  Motor Position:724
State Word:7e76  Speed:251.99  Motor Position:740
State Word:7e76  Speed:251.99  Motor Position:756
State Word:7e76  Speed:251.99  Motor Position:772
State Word:7e76  Speed:251.99  Motor Position:789
State Word:7e76  Speed:251.99  Motor Position:805
State Word:7e76  Speed:251.99  Motor Position:820
State Word:7e76  Speed:251.99  Motor Position:837
State Word:7e76  Speed:251.99  Motor Position:853
State Word:7e76  Speed:251.99  Motor Position:869
State Word:7e76  Speed:251.99  Motor Position:885
State Word:7e76  Speed:251.99  Motor Position:901
State Word:7e76  Speed:251.99  Motor Position:917
State Word:7e76  Speed:251.99  Motor Position:934
State Word:7e76  Speed:251.99  Motor Position:950
State Word:7e76  Speed:251.99  Motor Position:966
State Word:7e76  Speed:251.99  Motor Position:982
State Word:7e76  Speed:251.99  Motor Position:998
State Word:7e76  Speed:251.99  Motor Position:1014
State Word:7e76  Speed:251.99  Motor Position:1030
State Word:7e76  Speed:251.99  Motor Position:1046
State Word:7e76  Speed:251.99  Motor Position:1063
State Word:7e76  Speed:251.99  Motor Position:1079
State Word:7e76  Speed:251.99  Motor Position:1091
State Word:7e76  Speed:251.99  Motor Position:1107
State Word:7e76  Speed:251.99  Motor Position:1123
State Word:7e76  Speed:251.99  Motor Position:1139
State Word:7e76  Speed:251.99  Motor Position:1155
State Word:7e76  Speed:251.99  Motor Position:1172
State Word:7e76  Speed:251.99  Motor Position:1188
State Word:7e76  Speed:251.99  Motor Position:1204
State Word:7e76  Speed:251.99  Motor Position:1220
State Word:7e76  Speed:251.99  Motor Position:1236
State Word:7e76  Speed:251.99  Motor Position:1252
State Word:7e76  Speed:251.99  Motor Position:1268
State Word:7e76  Speed:251.99  Motor Position:1284
State Word:7e76  Speed:251.99  Motor Position:1301
State Word:7e76  Speed:251.99  Motor Position:1317
State Word:7e76  Speed:251.99  Motor Position:1332
State Word:7e76  Speed:251.99  Motor Position:1349
State Word:7e76  Speed:251.99  Motor Position:1365
State Word:7e76  Speed:251.99  Motor Position:1381
State Word:7e76  Speed:251.99  Motor Position:1397
State Word:7e76  Speed:251.99  Motor Position:1413
State Word:7e76  Speed:251.99  Motor Position:1430
State Word:7e76  Speed:251.99  Motor Position:1446
State Word:7e76  Speed:251.99  Motor Position:1462
State Word:7e76  Speed:251.99  Motor Position:1478
State Word:7e76  Speed:251.99  Motor Position:1494
State Word:7e76  Speed:251.99  Motor Position:1510
State Word:7e76  Speed:251.99  Motor Position:1526
State Word:7e76  Speed:251.99  Motor Position:1542
State Word:7e76  Speed:251.99  Motor Position:1559
State Word:7e76  Speed:251.99  Motor Position:1575
State Word:7e76  Speed:251.99  Motor Position:1591
State Word:7e76  Speed:251.99  Motor Position:1607
State Word:7e76  Speed:251.99  Motor Position:1623
State Word:7e76  Speed:251.99  Motor Position:1639
State Word:7e76  Speed:251.99  Motor Position:1655
State Word:7e76  Speed:251.99  Motor Position:1671
State Word:7e76  Speed:251.99  Motor Position:1687
State Word:7e76  Speed:251.99  Motor Position:1704
State Word:7e76  Speed:251.99  Motor Position:1720
State Word:7e76  Speed:251.99  Motor Position:1736
State Word:7e76  Speed:251.99  Motor Position:1752
State Word:7e76  Speed:251.99  Motor Position:1768
State Word:7e76  Speed:251.99  Motor Position:1784
State Word:7e76  Speed:251.99  Motor Position:1800
State Word:7e76  Speed:251.99  Motor Position:1817
State Word:7e76  Speed:251.99  Motor Position:1833
State Word:7e76  Speed:251.99  Motor Position:1849
State Word:7e76  Speed:251.99  Motor Position:1865
State Word:7e76  Speed:251.99  Motor Position:1881
State Word:7e76  Speed:251.99  Motor Position:1897
State Word:7e76  Speed:251.99  Motor Position:1913
State Word:7e76  Speed:251.99  Motor Position:1929
State Word:7e76  Speed:251.99  Motor Position:1946
State Word:7e76  Speed:251.99  Motor Position:1962
State Word:7e76  Speed:251.99  Motor Position:1978
State Word:7e76  Speed:251.99  Motor Position:1994
State Word:7e76  Speed:251.99  Motor Position:2010
State Word:7e76  Speed:251.99  Motor Position:2026
State Word:7e76  Speed:251.99  Motor Position:2042
State Word:7e76  Speed:251.99  Motor Position:2058
State Word:7e76  Speed:251.99  Motor Position:2074
State Word:7e76  Speed:251.99  Motor Position:2090
State Word:7e76  Speed:251.99  Motor Position:2107
State Word:7e76  Speed:251.99  Motor Position:2123
State Word:7e76  Speed:251.99  Motor Position:2139
State Word:7e76  Speed:251.99  Motor Position:2155
State Word:7e76  Speed:251.99  Motor Position:2171
State Word:7e76  Speed:251.99  Motor Position:2187
State Word:7e76  Speed:251.99  Motor Position:2204
State Word:7e76  Speed:251.99  Motor Position:2220
State Word:7e76  Speed:251.99  Motor Position:2236
State Word:7e76  Speed:251.99  Motor Position:2252
State Word:7e76  Speed:251.99  Motor Position:2268
State Word:7e76  Speed:251.99  Motor Position:2284
State Word:7e76  Speed:251.99  Motor Position:2300
State Word:7e76  Speed:251.99  Motor Position:2316
State Word:7e76  Speed:251.99  Motor Position:2332
State Word:7e76  Speed:251.99  Motor Position:2349
State Word:7e76  Speed:251.99  Motor Position:2365
State Word:7e76  Speed:251.99  Motor Position:2381
State Word:7e76  Speed:251.99  Motor Position:2397
State Word:7e76  Speed:251.99  Motor Position:2413
State Word:7e76  Speed:251.99  Motor Position:2429
State Word:7e76  Speed:251.99  Motor Position:2445
State Word:7e76  Speed:251.99  Motor Position:2461
State Word:7e76  Speed:251.99  Motor Position:2478
State Word:7e76  Speed:251.99  Motor Position:2494
State Word:7e76  Speed:251.99  Motor Position:2510
State Word:7e76  Speed:251.99  Motor Position:2526
State Word:7e76  Speed:251.99  Motor Position:2542
State Word:7e76  Speed:251.99  Motor Position:2558
State Word:7e76  Speed:251.99  Motor Position:2574
State Word:7e76  Speed:251.99  Motor Position:2590
State Word:7e76  Speed:251.99  Motor Position:2607
State Word:7e76  Speed:251.99  Motor Position:2623
State Word:7e76  Speed:251.99  Motor Position:2639
State Word:7e76  Speed:251.99  Motor Position:2655
State Word:7e76  Speed:251.99  Motor Position:2671
State Word:7e76  Speed:251.99  Motor Position:2687
State Word:7e76  Speed:251.99  Motor Position:2703
State Word:7e76  Speed:251.99  Motor Position:2719
State Word:7e76  Speed:251.99  Motor Position:2736
State Word:7e76  Speed:251.99  Motor Position:2752
State Word:7e76  Speed:251.99  Motor Position:2768
State Word:7e76  Speed:251.99  Motor Position:2784
State Word:7e76  Speed:251.99  Motor Position:2800
State Word:7e76  Speed:251.99  Motor Position:2816
State Word:7e76  Speed:251.99  Motor Position:2832
State Word:7e76  Speed:251.99  Motor Position:2848
State Word:7e76  Speed:251.99  Motor Position:2864
State Word:7e76  Speed:251.99  Motor Position:2881
State Word:7e76  Speed:251.99  Motor Position:2897
State Word:7e76  Speed:251.99  Motor Position:2913
State Word:27e76  Speed:251.99  Motor Position:2929
State Word:27e76  Speed:251.99  Motor Position:2945
State Word:27e76  Speed:251.99  Motor Position:2961
State Word:27e76  Speed:251.99  Motor Position:2977
State Word:27e76  Speed:251.99  Motor Position:2994
State Word:27e76  Speed:251.99  Motor Position:3010
State Word:27e76  Speed:251.99  Motor Position:3026
State Word:27e76  Speed:251.99  Motor Position:3042
State Word:27e76  Speed:251.99  Motor Position:3058
State Word:7e76  Speed:251.99  Motor Position:3074
State Word:7e76  Speed:251.99  Motor Position:3090
State Word:7e76  Speed:251.99  Motor Position:3106
State Word:7e76  Speed:251.99  Motor Position:3122
State Word:7e76  Speed:251.99  Motor Position:3139
State Word:7e76  Speed:251.99  Motor Position:3155
State Word:7e76  Speed:251.99  Motor Position:3171
State Word:7e76  Speed:251.99  Motor Position:3187
State Word:7e76  Speed:251.99  Motor Position:3203
State Word:7e76  Speed:251.99  Motor Position:3219
State Word:7e76  Speed:251.99  Motor Position:3235
State Word:7e76  Speed:251.99  Motor Position:3252
State Word:7e76  Speed:251.99  Motor Position:3267
State Word:7e76  Speed:251.99  Motor Position:3284
State Word:7e76  Speed:251.99  Motor Position:3300
State Word:7e76  Speed:251.99  Motor Position:3316
State Word:7e76  Speed:251.99  Motor Position:3332
State Word:7e76  Speed:251.99  Motor Position:3348
State Word:7e76  Speed:251.99  Motor Position:3364
State Word:7e76  Speed:251.99  Motor Position:3380
State Word:7e76  Speed:251.99  Motor Position:3397
State Word:7e76  Speed:251.99  Motor Position:3413
State Word:7e76  Speed:251.99  Motor Position:3429
State Word:7e76  Speed:251.99  Motor Position:3445
State Word:7e76  Speed:251.99  Motor Position:3461
State Word:7e76  Speed:251.99  Motor Position:3477
State Word:7e76  Speed:251.99  Motor Position:3493
State Word:7e76  Speed:251.99  Motor Position:3509
State Word:7e76  Speed:251.99  Motor Position:3525
State Word:7e76  Speed:251.99  Motor Position:3542
State Word:7e76  Speed:251.99  Motor Position:3558
State Word:7e76  Speed:251.99  Motor Position:3574
State Word:7e76  Speed:251.99  Motor Position:3590
State Word:7e76  Speed:251.99  Motor Position:3606
State Word:7e76  Speed:251.99  Motor Position:3622
State Word:7e76  Speed:251.99  Motor Position:3638
State Word:7e76  Speed:251.99  Motor Position:3655
State Word:7e76  Speed:251.99  Motor Position:3671
State Word:7e76  Speed:251.99  Motor Position:3687
State Word:7e76  Speed:251.99  Motor Position:3703
State Word:7e76  Speed:251.99  Motor Position:3719
State Word:7e76  Speed:251.99  Motor Position:3735
State Word:7e76  Speed:251.99  Motor Position:3751
State Word:7e76  Speed:251.99  Motor Position:3768
State Word:7e76  Speed:251.99  Motor Position:3783
State Word:7e76  Speed:251.99  Motor Position:3800
State Word:7e76  Speed:251.99  Motor Position:3816
State Word:7e76  Speed:251.99  Motor Position:3832
State Word:7e76  Speed:251.99  Motor Position:3848
State Word:7e76  Speed:251.99  Motor Position:3864
State Word:7e76  Speed:251.99  Motor Position:3880
State Word:7e76  Speed:251.99  Motor Position:3896
State Word:7e76  Speed:251.99  Motor Position:3913
State Word:7e76  Speed:251.99  Motor Position:3929
State Word:7e76  Speed:251.99  Motor Position:3945
State Word:7e76  Speed:251.99  Motor Position:3961
State Word:7e76  Speed:251.99  Motor Position:3977
State Word:7e76  Speed:251.99  Motor Position:3993
State Word:7e76  Speed:251.99  Motor Position:4009
State Word:7e76  Speed:251.99  Motor Position:4025
State Word:7e76  Speed:251.99  Motor Position:4042
State Word:7e76  Speed:251.99  Motor Position:4058
State Word:7e76  Speed:251.99  Motor Position:4074
State Word:7e76  Speed:251.99  Motor Position:4090
State Word:7e76  Speed:251.99  Motor Position:4106
State Word:7e76  Speed:251.99  Motor Position:4122
State Word:7e76  Speed:251.99  Motor Position:4138
State Word:7e76  Speed:251.99  Motor Position:4154
State Word:7e76  Speed:251.99  Motor Position:4170
State Word:7e76  Speed:251.99  Motor Position:4187
State Word:7e76  Speed:251.99  Motor Position:4203
State Word:7e76  Speed:251.99  Motor Position:4219
State Word:7e76  Speed:251.99  Motor Position:4235
State Word:7e76  Speed:251.99  Motor Position:4251
State Word:7e76  Speed:251.99  Motor Position:4267
State Word:7e76  Speed:251.99  Motor Position:4283
State Word:7e76  Speed:251.99  Motor Position:4300
State Word:7e76  Speed:251.99  Motor Position:4316
State Word:7e76  Speed:251.99  Motor Position:4332
State Word:7e76  Speed:251.99  Motor Position:4348
State Word:7e76  Speed:251.99  Motor Position:4364
State Word:7e76  Speed:251.99  Motor Position:4380
State Word:7e76  Speed:251.99  Motor Position:4396
State Word:7e76  Speed:251.99  Motor Position:4412
State Word:7e76  Speed:251.99  Motor Position:4429
State Word:7e76  Speed:251.99  Motor Position:4444
State Word:7e76  Speed:251.99  Motor Position:4461
State Word:7e76  Speed:251.99  Motor Position:4477
State Word:7e76  Speed:251.99  Motor Position:4493
State Word:7e76  Speed:251.99  Motor Position:4509
State Word:7e76  Speed:251.99  Motor Position:4525
State Word:7e76  Speed:251.99  Motor Position:4541
State Word:7e76  Speed:251.99  Motor Position:4557
State Word:7e76  Speed:251.99  Motor Position:4574
State Word:7e76  Speed:251.99  Motor Position:4590
State Word:7e76  Speed:251.99  Motor Position:4606
State Word:7e76  Speed:251.99  Motor Position:4622
State Word:7e76  Speed:251.99  Motor Position:4638
State Word:7e76  Speed:251.99  Motor Position:4654
State Word:7e76  Speed:251.99  Motor Position:4670
State Word:7e76  Speed:251.99  Motor Position:4686
State Word:7e76  Speed:251.99  Motor Position:4702
State Word:7e76  Speed:251.99  Motor Position:4719
State Word:7e76  Speed:251.99  Motor Position:4735
State Word:7e76  Speed:251.99  Motor Position:4751
State Word:7e76  Speed:251.99  Motor Position:4767
State Word:7e76  Speed:251.99  Motor Position:4783
State Word:7e76  Speed:251.99  Motor Position:4799
State Word:7e76  Speed:251.99  Motor Position:4815
State Word:7e76  Speed:251.99  Motor Position:4832
State Word:7e76  Speed:251.99  Motor Position:4848
State Word:7e76  Speed:251.99  Motor Position:4864
State Word:7e76  Speed:251.99  Motor Position:4880
State Word:7e76  Speed:251.99  Motor Position:4896
State Word:7e76  Speed:251.99  Motor Position:4912
State Word:7e76  Speed:251.99  Motor Position:4928
State Word:7e76  Speed:251.99  Motor Position:4944
State Word:7e76  Speed:251.99  Motor Position:4961
State Word:7e76  Speed:251.99  Motor Position:4977
State Word:7e76  Speed:251.99  Motor Position:4993
State Word:7e76  Speed:251.99  Motor Position:5009
State Word:7e76  Speed:251.99  Motor Position:5025
State Word:7e76  Speed:251.99  Motor Position:5041
State Word:7e76  Speed:251.99  Motor Position:5057
State Word:7e76  Speed:251.99  Motor Position:5073
State Word:7e76  Speed:251.99  Motor Position:5090
State Word:7e76  Speed:251.99  Motor Position:5106
State Word:7e76  Speed:251.99  Motor Position:5122
State Word:7e76  Speed:251.99  Motor Position:5138
State Word:7e76  Speed:251.99  Motor Position:5154
State Word:7e76  Speed:251.99  Motor Position:5170
State Word:7e76  Speed:251.99  Motor Position:5186
State Word:7e76  Speed:251.99  Motor Position:5202
State Word:7e76  Speed:251.99  Motor Position:5218
State Word:7e76  Speed:251.99  Motor Position:5235
State Word:7e76  Speed:251.99  Motor Position:5251
State Word:7e76  Speed:251.99  Motor Position:5267
State Word:7e76  Speed:251.99  Motor Position:5283
State Word:7e76  Speed:251.99  Motor Position:5299
State Word:7e76  Speed:251.99  Motor Position:5315
State Word:7e76  Speed:251.99  Motor Position:5331
State Word:7e76  Speed:251.99  Motor Position:5347
State Word:7e76  Speed:251.99  Motor Position:5364
State Word:7e76  Speed:251.99  Motor Position:5380
State Word:7e76  Speed:251.99  Motor Position:5396
State Word:7e76  Speed:251.99  Motor Position:5412
State Word:7e76  Speed:251.99  Motor Position:5428
State Word:7e76  Speed:251.99  Motor Position:5444
State Word:7e76  Speed:251.99  Motor Position:5460
State Word:7e76  Speed:251.99  Motor Position:5477
State Word:7e76  Speed:251.99  Motor Position:5492
State Word:7e76  Speed:251.99  Motor Position:5509
State Word:7e76  Speed:251.99  Motor Position:5525
State Word:7e76  Speed:251.99  Motor Position:5541
State Word:7e76  Speed:251.99  Motor Position:5557
State Word:7e76  Speed:251.99  Motor Position:5573
State Word:7e76  Speed:251.99  Motor Position:5589
State Word:7e76  Speed:251.99  Motor Position:5606
State Word:7e76  Speed:251.99  Motor Position:5622
State Word:7e76  Speed:251.99  Motor Position:5638
State Word:7e76  Speed:251.99  Motor Position:5654
State Word:7e76  Speed:251.99  Motor Position:5670
State Word:7e76  Speed:251.99  Motor Position:5686
State Word:7e76  Speed:251.99  Motor Position:5702
State Word:7e76  Speed:251.99  Motor Position:5718
State Word:7e76  Speed:251.99  Motor Position:5735
State Word:7e76  Speed:251.99  Motor Position:5750
State Word:7e76  Speed:251.99  Motor Position:5767
State Word:7e76  Speed:251.99  Motor Position:5783
State Word:7e76  Speed:251.99  Motor Position:5799
State Word:7e76  Speed:251.99  Motor Position:5815
State Word:7e76  Speed:251.99  Motor Position:5831
State Word:7e76  Speed:251.99  Motor Position:5847
State Word:7e76  Speed:251.99  Motor Position:5863
State Word:7e76  Speed:251.99  Motor Position:5879
State Word:7e76  Speed:251.99  Motor Position:5896
State Word:17e76  Speed:251.99  Motor Position:5912
State Word:17e76  Speed:251.99  Motor Position:5928
State Word:17e76  Speed:251.99  Motor Position:5944
State Word:17e76  Speed:251.99  Motor Position:5960
State Word:17e76  Speed:251.99  Motor Position:5976
State Word:17e76  Speed:251.99  Motor Position:5992
State Word:17e76  Speed:251.99  Motor Position:6009
State Word:17e76  Speed:251.99  Motor Position:6025
State Word:7e76  Speed:251.99  Motor Position:6041
State Word:7e54  Speed:215.99  Motor Position:6056
State Word:7e54  Speed:134.99  Motor Position:6068
State Word:7e16  Speed:0.00  Motor Position:6071
- - Registers after stop begin - -
State Word:7e16  Speed:0.00  Motor Position:6071
- - Registers after stop end - -
