Control Word:43
Speed Begin:100
Speed End:1327
StepCount:6050
StepMode:1
- - Intial Registers begin - -
State Word:97e06  Speed:0.00  Motor Position:-172
- - Intial Registers end- -
State Word:97e07  Speed:0.00  Motor Position:-172
