Control Word:3
Speed Begin:50
Speed End:500
StepCount:21000
StepMode:1
- - Intial Registers begin - -
State Word:7e17  Speed:0.00  Motor Position:6078
- - Intial Registers end- -
State Word:7e24  Speed:140.99  Motor Position:-8
State Word:7e24  Speed:179.99  Motor Position:-13
State Word:7e24  Speed:251.99  Motor Position:-27
State Word:7e24  Speed:324.00  Motor Position:-46
State Word:17e44  Speed:301.99  Motor Position:-68
State Word:17e44  Speed:147.00  Motor Position:-81
State Word:17e06  Speed:0.00  Motor Position:-85
- - Registers after stop begin - -
State Word:17e06  Speed:0.00  Motor Position:-85
- - Registers after stop end - -
