Control Word:0
Speed Begin:100
Speed End:2132
StepCount:6050
StepMode:1
- - Intial Registers begin - -
State Word:17e06  Speed:0.00  Motor Position:-261
- - Intial Registers end- -
State Word:17e34  Speed:504.99  Motor Position:24
State Word:17e34  Speed:685.99  Motor Position:45
State Word:7e34  Speed:1011.00  Motor Position:100
State Word:7e34  Speed:1332.00  Motor Position:174
State Word:7e34  Speed:1658.99  Motor Position:270
State Word:7e34  Speed:1983.99  Motor Position:386
State Word:7e76  Speed:2132.00  Motor Position:520
State Word:7e76  Speed:2132.00  Motor Position:657
State Word:7e76  Speed:2132.00  Motor Position:794
State Word:7e76  Speed:2132.00  Motor Position:929
State Word:7e76  Speed:2132.00  Motor Position:1065
State Word:7e76  Speed:2132.00  Motor Position:1200
State Word:7e76  Speed:2132.00  Motor Position:1339
State Word:7e76  Speed:2132.00  Motor Position:1473
State Word:7e76  Speed:2132.00  Motor Position:2262
State Word:7e76  Speed:2132.00  Motor Position:2356
State Word:7e76  Speed:2132.00  Motor Position:2425
State Word:7e76  Speed:2132.00  Motor Position:2534
State Word:7e76  Speed:2132.00  Motor Position:2769
State Word:7e76  Speed:2132.00  Motor Position:2906
State Word:27e76  Speed:2132.00  Motor Position:3042
State Word:7e76  Speed:2132.00  Motor Position:3179
State Word:7e76  Speed:2132.00  Motor Position:3317
State Word:7e76  Speed:2132.00  Motor Position:3452
State Word:7e76  Speed:2132.00  Motor Position:3588
State Word:7e76  Speed:2132.00  Motor Position:3725
State Word:7e76  Speed:2132.00  Motor Position:3862
State Word:7e76  Speed:2132.00  Motor Position:3997
State Word:7e76  Speed:2132.00  Motor Position:4134
State Word:7e76  Speed:2132.00  Motor Position:4269
State Word:7e76  Speed:2132.00  Motor Position:4408
State Word:7e76  Speed:2132.00  Motor Position:4544
State Word:7e76  Speed:2132.00  Motor Position:4680
State Word:7e76  Speed:2132.00  Motor Position:4816
State Word:7e76  Speed:2132.00  Motor Position:4952
State Word:7e76  Speed:2132.00  Motor Position:5089
State Word:7e76  Speed:2132.00  Motor Position:5225
State Word:7e76  Speed:2132.00  Motor Position:5361
State Word:7e76  Speed:2132.00  Motor Position:5499
State Word:7e76  Speed:2132.00  Motor Position:5635
State Word:7e76  Speed:2132.00  Motor Position:5772
State Word:7e76  Speed:2132.00  Motor Position:5907
State Word:17e76  Speed:2132.00  Motor Position:6045
State Word:7e54  Speed:1486.99  Motor Position:6161
State Word:7e54  Speed:804.99  Motor Position:6234
State Word:7e54  Speed:113.99  Motor Position:6264
State Word:7e16  Speed:0.00  Motor Position:6264
- - Registers after stop begin - -
State Word:7e16  Speed:0.00  Motor Position:6264
- - Registers after stop end - -
