Control Word:0
Speed Begin:100
Speed End:1212
StepCount:6050
StepMode:1
- - Intial Registers begin - -
State Word:17e06  Speed:0.00  Motor Position:-172
- - Intial Registers end- -
State Word:17e34  Speed:320.99  Motor Position:17
State Word:17e34  Speed:420.99  Motor Position:30
State Word:7e34  Speed:599.00  Motor Position:63
State Word:7e34  Speed:777.99  Motor Position:107
State Word:7e34  Speed:957.00  Motor Position:163
State Word:7e34  Speed:1132.00  Motor Position:229
State Word:7e76  Speed:1211.99  Motor Position:305
State Word:7e76  Speed:1211.99  Motor Position:382
State Word:7e76  Speed:1211.99  Motor Position:460
State Word:7e76  Speed:1211.99  Motor Position:538
State Word:7e76  Speed:1211.99  Motor Position:615
State Word:7e76  Speed:1211.99  Motor Position:693
State Word:7e76  Speed:1211.99  Motor Position:770
State Word:7e76  Speed:1211.99  Motor Position:845
State Word:7e76  Speed:1211.99  Motor Position:925
State Word:7e76  Speed:1211.99  Motor Position:1002
State Word:7e76  Speed:1211.99  Motor Position:1080
State Word:7e76  Speed:1211.99  Motor Position:1266
State Word:7e76  Speed:1211.99  Motor Position:1311
State Word:7e76  Speed:1211.99  Motor Position:1396
State Word:7e76  Speed:1211.99  Motor Position:1465
State Word:7e76  Speed:1211.99  Motor Position:1505
State Word:7e76  Speed:1211.99  Motor Position:1584
State Word:7e76  Speed:1211.99  Motor Position:1662
State Word:7e76  Speed:1211.99  Motor Position:1740
State Word:7e76  Speed:1211.99  Motor Position:1817
State Word:7e76  Speed:1211.99  Motor Position:1895
State Word:7e76  Speed:1211.99  Motor Position:1972
State Word:7e76  Speed:1211.99  Motor Position:2049
State Word:7e76  Speed:1211.99  Motor Position:2127
State Word:7e76  Speed:1211.99  Motor Position:2204
State Word:7e76  Speed:1211.99  Motor Position:2282
State Word:7e76  Speed:1211.99  Motor Position:2360
State Word:7e76  Speed:1211.99  Motor Position:2437
State Word:7e76  Speed:1211.99  Motor Position:2515
State Word:7e76  Speed:1211.99  Motor Position:2592
State Word:7e76  Speed:1211.99  Motor Position:2670
State Word:7e76  Speed:1211.99  Motor Position:2747
State Word:7e76  Speed:1211.99  Motor Position:2825
State Word:7e76  Speed:1211.99  Motor Position:2901
State Word:27e76  Speed:1211.99  Motor Position:2980
State Word:27e76  Speed:1211.99  Motor Position:3057
State Word:7e76  Speed:1211.99  Motor Position:3135
State Word:7e76  Speed:1211.99  Motor Position:3213
State Word:7e76  Speed:1211.99  Motor Position:3288
State Word:7e76  Speed:1211.99  Motor Position:3366
State Word:7e76  Speed:1211.99  Motor Position:3445
State Word:7e76  Speed:1211.99  Motor Position:3523
State Word:7e76  Speed:1211.99  Motor Position:3599
State Word:7e76  Speed:1211.99  Motor Position:3676
State Word:7e76  Speed:1211.99  Motor Position:3754
State Word:7e76  Speed:1211.99  Motor Position:3833
State Word:7e76  Speed:1211.99  Motor Position:3909
State Word:7e76  Speed:1211.99  Motor Position:3986
State Word:7e76  Speed:1211.99  Motor Position:4065
State Word:7e76  Speed:1211.99  Motor Position:4143
State Word:7e76  Speed:1211.99  Motor Position:4219
State Word:7e76  Speed:1211.99  Motor Position:4298
State Word:7e76  Speed:1211.99  Motor Position:4376
State Word:7e76  Speed:1211.99  Motor Position:4453
State Word:7e76  Speed:1211.99  Motor Position:4530
State Word:7e76  Speed:1211.99  Motor Position:4608
State Word:7e76  Speed:1211.99  Motor Position:4685
State Word:7e76  Speed:1211.99  Motor Position:4763
State Word:7e76  Speed:1211.99  Motor Position:4841
State Word:7e76  Speed:1211.99  Motor Position:4919
State Word:7e76  Speed:1211.99  Motor Position:4996
State Word:7e76  Speed:1211.99  Motor Position:5074
State Word:7e76  Speed:1211.99  Motor Position:5151
State Word:7e76  Speed:1211.99  Motor Position:5227
State Word:7e76  Speed:1211.99  Motor Position:5306
State Word:7e76  Speed:1211.99  Motor Position:5384
State Word:7e76  Speed:1211.99  Motor Position:5461
State Word:7e76  Speed:1211.99  Motor Position:5539
State Word:7e76  Speed:1211.99  Motor Position:5616
State Word:7e76  Speed:1211.99  Motor Position:5694
State Word:7e76  Speed:1211.99  Motor Position:5772
State Word:7e76  Speed:1211.99  Motor Position:5849
State Word:7e76  Speed:1211.99  Motor Position:5927
State Word:17e76  Speed:1211.99  Motor Position:6004
State Word:7e54  Speed:1057.00  Motor Position:6080
State Word:7e54  Speed:669.99  Motor Position:6135
State Word:7e54  Speed:291.99  Motor Position:6165
State Word:7e16  Speed:0.00  Motor Position:6171
- - Registers after stop begin - -
State Word:7e16  Speed:0.00  Motor Position:6171
- - Registers after stop end - -
