Control Word:3
Speed Begin:50
Speed End:500
StepCount:21000
StepMode:1
- - Intial Registers begin - -
State Word:7e16  Speed:0.00  Motor Position:6074
- - Intial Registers end- -
State Word:7e24  Speed:177.00  Motor Position:-13
State Word:7e24  Speed:215.99  Motor Position:-20
State Word:7e24  Speed:287.00  Motor Position:-35
State Word:17e44  Speed:301.99  Motor Position:-56
State Word:17e44  Speed:140.99  Motor Position:-70
State Word:17e06  Speed:0.00  Motor Position:-73
- - Registers after stop begin - -
State Word:17e06  Speed:0.00  Motor Position:-73
- - Registers after stop end - -
