Control Word:3
Speed Begin:50
Speed End:500
StepCount:21000
StepMode:1
- - Intial Registers begin - -
State Word:7e16  Speed:0.00  Motor Position:7547
- - Intial Registers end- -
State Word:7e24  Speed:175.00  Motor Position:-12
State Word:7e24  Speed:214.99  Motor Position:-19
State Word:7e24  Speed:287.99  Motor Position:-36
State Word:7e24  Speed:359.00  Motor Position:-56
State Word:7e24  Speed:432.00  Motor Position:-82
State Word:7e66  Speed:499.99  Motor Position:-111
State Word:7e66  Speed:499.99  Motor Position:-143
State Word:7e66  Speed:499.99  Motor Position:-175
State Word:7e66  Speed:499.99  Motor Position:-210
State Word:7e66  Speed:499.99  Motor Position:-253
State Word:7e66  Speed:499.99  Motor Position:-298
State Word:7e66  Speed:499.99  Motor Position:-318
State Word:7e66  Speed:499.99  Motor Position:-358
State Word:7e66  Speed:499.99  Motor Position:-382
State Word:7e66  Speed:499.99  Motor Position:-414
State Word:7e66  Speed:499.99  Motor Position:-448
State Word:7e66  Speed:499.99  Motor Position:-508
State Word:7e66  Speed:499.99  Motor Position:-530
State Word:7e66  Speed:499.99  Motor Position:-605
State Word:7e66  Speed:499.99  Motor Position:-655
State Word:7e66  Speed:499.99  Motor Position:-698
State Word:7e66  Speed:499.99  Motor Position:-763
State Word:7e66  Speed:499.99  Motor Position:-785
State Word:7e66  Speed:499.99  Motor Position:-831
State Word:7e66  Speed:499.99  Motor Position:-881
State Word:7e66  Speed:499.99  Motor Position:-923
State Word:7e66  Speed:499.99  Motor Position:-941
State Word:7e66  Speed:499.99  Motor Position:-974
State Word:7e66  Speed:499.99  Motor Position:-1006
State Word:7e66  Speed:499.99  Motor Position:-1038
State Word:7e66  Speed:499.99  Motor Position:-1070
State Word:7e66  Speed:499.99  Motor Position:-1116
State Word:7e66  Speed:499.99  Motor Position:-1137
State Word:7e66  Speed:499.99  Motor Position:-1165
State Word:7e66  Speed:499.99  Motor Position:-1197
State Word:7e66  Speed:499.99  Motor Position:-1229
State Word:7e66  Speed:499.99  Motor Position:-1261
State Word:7e66  Speed:499.99  Motor Position:-1293
State Word:7e66  Speed:499.99  Motor Position:-1325
State Word:7e66  Speed:499.99  Motor Position:-1357
State Word:7e66  Speed:499.99  Motor Position:-1390
State Word:7e66  Speed:499.99  Motor Position:-1421
State Word:7e66  Speed:499.99  Motor Position:-1453
State Word:7e66  Speed:499.99  Motor Position:-1487
State Word:17e44  Speed:419.99  Motor Position:-1516
State Word:17e44  Speed:260.99  Motor Position:-1538
State Word:17e44  Speed:100.99  Motor Position:-1549
State Word:17e06  Speed:0.00  Motor Position:-1551
- - Registers after stop begin - -
State Word:17e06  Speed:0.00  Motor Position:-1551
- - Registers after stop end - -
