Control Word:3
Speed Begin:50
Speed End:500
StepCount:21000
StepMode:1
- - Intial Registers begin - -
State Word:7e16  Speed:0.00  Motor Position:6173
- - Intial Registers end- -
State Word:7e24  Speed:177.00  Motor Position:-13
State Word:7e24  Speed:215.99  Motor Position:-20
State Word:7e24  Speed:287.99  Motor Position:-36
State Word:7e24  Speed:360.00  Motor Position:-56
State Word:7e24  Speed:430.99  Motor Position:-81
State Word:7e66  Speed:499.99  Motor Position:-112
State Word:17e44  Speed:395.00  Motor Position:-142
State Word:17e44  Speed:233.99  Motor Position:-162
State Word:17e44  Speed:75.00  Motor Position:-172
State Word:17e06  Speed:0.00  Motor Position:-172
- - Registers after stop begin - -
State Word:17e06  Speed:0.00  Motor Position:-172
- - Registers after stop end - -
