Control Word:3
Speed Begin:50
Speed End:500
StepCount:21000
StepMode:1
- - Intial Registers begin - -
State Word:7e17  Speed:0.00  Motor Position:172
- - Intial Registers end- -
State Word:7e24  Speed:177.00  Motor Position:-13
State Word:7e24  Speed:216.99  Motor Position:-20
State Word:7e24  Speed:287.99  Motor Position:-36
State Word:7e24  Speed:361.00  Motor Position:-57
State Word:7e24  Speed:433.00  Motor Position:-82
State Word:7e66  Speed:499.99  Motor Position:-112
State Word:17e44  Speed:400.99  Motor Position:-142
State Word:17e44  Speed:237.99  Motor Position:-162
State Word:17e44  Speed:80.99  Motor Position:-172
State Word:17e06  Speed:0.00  Motor Position:-173
- - Registers after stop begin - -
State Word:17e06  Speed:0.00  Motor Position:-173
- - Registers after stop end - -
