Control Word:3
Speed Begin:50
Speed End:500
StepCount:21000
StepMode:1
- - Intial Registers begin - -
State Word:7e16  Speed:0.00  Motor Position:6068
- - Intial Registers end- -
State Word:7e24  Speed:140.00  Motor Position:-8
State Word:7e24  Speed:178.99  Motor Position:-13
State Word:7e24  Speed:251.99  Motor Position:-27
State Word:7e24  Speed:324.99  Motor Position:-46
State Word:17e44  Speed:384.99  Motor Position:-68
State Word:17e44  Speed:224.99  Motor Position:-88
State Word:17e44  Speed:65.00  Motor Position:-97
State Word:17e06  Speed:0.00  Motor Position:-97
- - Registers after stop begin - -
State Word:17e06  Speed:0.00  Motor Position:-97
- - Registers after stop end - -
