Control Word:3
Speed Begin:50
Speed End:500
StepCount:21000
StepMode:1
- - Intial Registers begin - -
State Word:7e16  Speed:0.00  Motor Position:172
- - Intial Registers end- -
State Word:7e24  Speed:139.00  Motor Position:-7
State Word:7e24  Speed:179.99  Motor Position:-13
State Word:7e24  Speed:251.99  Motor Position:-27
State Word:7e24  Speed:324.00  Motor Position:-45
State Word:7e24  Speed:396.00  Motor Position:-68
State Word:7e24  Speed:469.00  Motor Position:-96
State Word:17e44  Speed:480.00  Motor Position:-128
State Word:17e44  Speed:319.99  Motor Position:-153
State Word:17e44  Speed:159.99  Motor Position:-169
State Word:17e06  Speed:0.00  Motor Position:-173
- - Registers after stop begin - -
State Word:17e06  Speed:0.00  Motor Position:-173
- - Registers after stop end - -
