Control Word:3
Speed Begin:50
Speed End:500
StepCount:21000
StepMode:1
- - Intial Registers begin - -
State Word:7e16  Speed:0.00  Motor Position:6115
- - Intial Registers end- -
State Word:7e24  Speed:175.00  Motor Position:-12
State Word:7e24  Speed:214.99  Motor Position:-19
State Word:7e24  Speed:287.00  Motor Position:-35
State Word:7e24  Speed:360.00  Motor Position:-56
State Word:17e44  Speed:374.99  Motor Position:-81
State Word:17e44  Speed:216.99  Motor Position:-100
State Word:17e44  Speed:53.99  Motor Position:-109
State Word:17e06  Speed:0.00  Motor Position:-109
- - Registers after stop begin - -
State Word:17e06  Speed:0.00  Motor Position:-109
- - Registers after stop end - -
