Control Word:0
Speed Begin:100
Speed End:798
StepCount:120
StepMode:1
- - Intial Registers begin - -
State Word:17e06  Speed:0.00  Motor Position:-173
- - Intial Registers end- -
State Word:17e34  Speed:295.00  Motor Position:22
State Word:17e34  Speed:356.99  Motor Position:34
State Word:7e34  Speed:466.99  Motor Position:60
State Word:7e34  Speed:579.00  Motor Position:93
State Word:7e54  Speed:571.00  Motor Position:133
State Word:7e54  Speed:319.99  Motor Position:161
State Word:7e16  Speed:0.00  Motor Position:172
- - Registers after stop begin - -
State Word:7e16  Speed:0.00  Motor Position:172
- - Registers after stop end - -
