Control Word:0
Speed Begin:100
Speed End:1649
StepCount:6050
StepMode:1
- - Intial Registers begin - -
State Word:17e06  Speed:0.00  Motor Position:-212
- - Intial Registers end- -
State Word:17e34  Speed:407.00  Motor Position:20
State Word:17e34  Speed:544.00  Motor Position:37
State Word:7e34  Speed:793.00  Motor Position:80
State Word:7e34  Speed:1031.00  Motor Position:136
State Word:7e34  Speed:1162.99  Motor Position:173
State Word:7e34  Speed:1411.99  Motor Position:256
State Word:7e76  Speed:1648.99  Motor Position:353
State Word:7e76  Speed:1648.99  Motor Position:459
State Word:7e76  Speed:1648.99  Motor Position:565
State Word:7e76  Speed:1648.99  Motor Position:671
State Word:7e76  Speed:1648.99  Motor Position:775
State Word:7e76  Speed:1648.99  Motor Position:881
State Word:7e76  Speed:1648.99  Motor Position:987
State Word:7e76  Speed:1648.99  Motor Position:1093
State Word:7e76  Speed:1648.99  Motor Position:1198
State Word:7e76  Speed:1648.99  Motor Position:1304
State Word:7e76  Speed:1648.99  Motor Position:1409
State Word:7e76  Speed:1648.99  Motor Position:1963
State Word:7e76  Speed:1648.99  Motor Position:2069
State Word:7e76  Speed:1648.99  Motor Position:2146
State Word:7e76  Speed:1648.99  Motor Position:2250
State Word:7e76  Speed:1648.99  Motor Position:2358
State Word:7e76  Speed:1648.99  Motor Position:2462
State Word:7e76  Speed:1648.99  Motor Position:2567
State Word:7e76  Speed:1648.99  Motor Position:2674
State Word:7e76  Speed:1648.99  Motor Position:2780
State Word:7e76  Speed:1648.99  Motor Position:2885
State Word:27e76  Speed:1648.99  Motor Position:2989
State Word:27e76  Speed:1648.99  Motor Position:3097
State Word:7e76  Speed:1648.99  Motor Position:3202
State Word:7e76  Speed:1648.99  Motor Position:3307
State Word:7e76  Speed:1648.99  Motor Position:3412
State Word:7e76  Speed:1648.99  Motor Position:3518
State Word:7e76  Speed:1648.99  Motor Position:3624
State Word:7e76  Speed:1648.99  Motor Position:3729
State Word:7e76  Speed:1648.99  Motor Position:3835
State Word:7e76  Speed:1648.99  Motor Position:3940
State Word:7e76  Speed:1648.99  Motor Position:4045
State Word:7e76  Speed:1648.99  Motor Position:4152
State Word:7e76  Speed:1648.99  Motor Position:4257
State Word:7e76  Speed:1648.99  Motor Position:4363
State Word:7e76  Speed:1648.99  Motor Position:4467
State Word:7e76  Speed:1648.99  Motor Position:4573
State Word:7e76  Speed:1648.99  Motor Position:4679
State Word:7e76  Speed:1648.99  Motor Position:4784
State Word:7e76  Speed:1648.99  Motor Position:4888
State Word:7e76  Speed:1648.99  Motor Position:4995
State Word:7e76  Speed:1648.99  Motor Position:5101
State Word:7e76  Speed:1648.99  Motor Position:5206
State Word:7e76  Speed:1648.99  Motor Position:5309
State Word:7e76  Speed:1648.99  Motor Position:5417
State Word:7e76  Speed:1648.99  Motor Position:5522
State Word:7e76  Speed:1648.99  Motor Position:5628
State Word:7e76  Speed:1648.99  Motor Position:5733
State Word:7e76  Speed:1648.99  Motor Position:5839
State Word:17e76  Speed:1648.99  Motor Position:5944
State Word:17e76  Speed:1648.99  Motor Position:6049
State Word:7e54  Speed:1114.99  Motor Position:6139
State Word:7e54  Speed:590.00  Motor Position:6194
State Word:7e16  Speed:0.00  Motor Position:6214
- - Registers after stop begin - -
State Word:7e16  Speed:0.00  Motor Position:6214
- - Registers after stop end - -
