Control Word:3
Speed Begin:50
Speed End:500
StepCount:21000
StepMode:1
- - Intial Registers begin - -
State Word:7e16  Speed:0.00  Motor Position:6131
- - Intial Registers end- -
State Word:7e24  Speed:176.00  Motor Position:-13
State Word:7e24  Speed:216.99  Motor Position:-20
State Word:7e24  Speed:288.99  Motor Position:-36
State Word:7e24  Speed:361.00  Motor Position:-57
State Word:7e24  Speed:433.00  Motor Position:-82
State Word:17e44  Speed:283.99  Motor Position:-105
State Word:17e44  Speed:122.99  Motor Position:-118
State Word:17e06  Speed:0.00  Motor Position:-121
- - Registers after stop begin - -
State Word:17e06  Speed:0.00  Motor Position:-121
- - Registers after stop end - -
