Control Word:0
Speed Begin:100
Speed End:315
StepCount:120
StepMode:1
- - Intial Registers begin - -
State Word:17e06  Speed:0.00  Motor Position:-143
- - Intial Registers end- -
State Word:17e34  Speed:159.99  Motor Position:14
State Word:17e34  Speed:179.99  Motor Position:21
State Word:17e34  Speed:214.00  Motor Position:33
State Word:17e34  Speed:247.99  Motor Position:48
State Word:7e34  Speed:282.99  Motor Position:65
State Word:7e76  Speed:315.00  Motor Position:84
State Word:7e76  Speed:315.00  Motor Position:104
State Word:7e54  Speed:290.99  Motor Position:124
State Word:7e54  Speed:188.99  Motor Position:140
State Word:7e16  Speed:0.00  Motor Position:148
- - Registers after stop begin - -
State Word:7e16  Speed:0.00  Motor Position:148
- - Registers after stop end - -
