Control Word:3
Speed Begin:50
Speed End:500
StepCount:21000
StepMode:1
- - Intial Registers begin - -
State Word:7e16  Speed:0.00  Motor Position:6187
- - Intial Registers end- -
State Word:7e24  Speed:140.00  Motor Position:-7
State Word:7e24  Speed:178.99  Motor Position:-13
State Word:7e24  Speed:251.99  Motor Position:-27
State Word:7e24  Speed:324.00  Motor Position:-45
State Word:7e24  Speed:396.00  Motor Position:-68
State Word:7e24  Speed:466.99  Motor Position:-96
State Word:7e66  Speed:499.99  Motor Position:-128
State Word:17e44  Speed:360.00  Motor Position:-156
State Word:17e44  Speed:200.99  Motor Position:-173
State Word:17e06  Speed:0.00  Motor Position:-181
- - Registers after stop begin - -
State Word:17e06  Speed:0.00  Motor Position:-181
- - Registers after stop end - -
