Control Word:0
Speed Begin:100
Speed End:660
StepCount:6050
StepMode:1
- - Intial Registers begin - -
State Word:17e06  Speed:0.00  Motor Position:-109
- - Intial Registers end- -
State Word:17e34  Speed:256.99  Motor Position:20
State Word:17e34  Speed:306.00  Motor Position:30
State Word:7e34  Speed:393.99  Motor Position:52
State Word:7e34  Speed:484.99  Motor Position:80
State Word:7e34  Speed:573.99  Motor Position:114
State Word:7e76  Speed:659.99  Motor Position:154
State Word:7e76  Speed:659.99  Motor Position:196
State Word:7e76  Speed:659.99  Motor Position:238
State Word:7e76  Speed:659.99  Motor Position:281
State Word:7e76  Speed:659.99  Motor Position:323
State Word:7e76  Speed:659.99  Motor Position:365
State Word:7e76  Speed:659.99  Motor Position:407
State Word:7e76  Speed:659.99  Motor Position:450
State Word:7e76  Speed:659.99  Motor Position:492
State Word:7e76  Speed:659.99  Motor Position:534
State Word:7e76  Speed:659.99  Motor Position:576
State Word:7e76  Speed:659.99  Motor Position:619
State Word:7e76  Speed:659.99  Motor Position:661
State Word:7e76  Speed:659.99  Motor Position:703
State Word:7e76  Speed:659.99  Motor Position:938
State Word:7e76  Speed:659.99  Motor Position:976
State Word:7e76  Speed:659.99  Motor Position:997
State Word:7e76  Speed:659.99  Motor Position:1018
State Word:7e76  Speed:659.99  Motor Position:1062
State Word:7e76  Speed:659.99  Motor Position:1103
State Word:7e76  Speed:659.99  Motor Position:1146
State Word:7e76  Speed:659.99  Motor Position:1188
State Word:7e76  Speed:659.99  Motor Position:1230
State Word:7e76  Speed:659.99  Motor Position:1273
State Word:7e76  Speed:659.99  Motor Position:1315
State Word:7e76  Speed:659.99  Motor Position:1357
State Word:7e76  Speed:659.99  Motor Position:1399
State Word:7e76  Speed:659.99  Motor Position:1442
State Word:7e76  Speed:659.99  Motor Position:1484
State Word:7e76  Speed:659.99  Motor Position:1526
State Word:7e76  Speed:659.99  Motor Position:1568
State Word:7e76  Speed:659.99  Motor Position:1611
State Word:7e76  Speed:659.99  Motor Position:1653
State Word:7e76  Speed:659.99  Motor Position:1695
State Word:7e76  Speed:659.99  Motor Position:1738
State Word:7e76  Speed:659.99  Motor Position:1779
State Word:7e76  Speed:659.99  Motor Position:1822
State Word:7e76  Speed:659.99  Motor Position:1864
State Word:7e76  Speed:659.99  Motor Position:1906
State Word:7e76  Speed:659.99  Motor Position:1948
State Word:7e76  Speed:659.99  Motor Position:1990
State Word:7e76  Speed:659.99  Motor Position:2033
State Word:7e76  Speed:659.99  Motor Position:2074
State Word:7e76  Speed:659.99  Motor Position:2117
State Word:7e76  Speed:659.99  Motor Position:2158
State Word:7e76  Speed:659.99  Motor Position:2201
State Word:7e76  Speed:659.99  Motor Position:2244
State Word:7e76  Speed:659.99  Motor Position:2286
State Word:7e76  Speed:659.99  Motor Position:2329
State Word:7e76  Speed:659.99  Motor Position:2370
State Word:7e76  Speed:659.99  Motor Position:2413
State Word:7e76  Speed:659.99  Motor Position:2455
State Word:7e76  Speed:659.99  Motor Position:2497
State Word:7e76  Speed:659.99  Motor Position:2539
State Word:7e76  Speed:659.99  Motor Position:2582
State Word:7e76  Speed:659.99  Motor Position:2624
State Word:7e76  Speed:659.99  Motor Position:2666
State Word:7e76  Speed:659.99  Motor Position:2708
State Word:7e76  Speed:659.99  Motor Position:2750
State Word:7e76  Speed:659.99  Motor Position:2793
State Word:7e76  Speed:659.99  Motor Position:2835
State Word:7e76  Speed:659.99  Motor Position:2877
State Word:7e76  Speed:659.99  Motor Position:2920
State Word:27e76  Speed:659.99  Motor Position:2962
State Word:27e76  Speed:659.99  Motor Position:3004
State Word:27e76  Speed:659.99  Motor Position:3046
State Word:7e76  Speed:659.99  Motor Position:3089
State Word:7e76  Speed:659.99  Motor Position:3131
State Word:7e76  Speed:659.99  Motor Position:3173
State Word:7e76  Speed:659.99  Motor Position:3215
State Word:7e76  Speed:659.99  Motor Position:3257
State Word:7e76  Speed:659.99  Motor Position:3300
State Word:7e76  Speed:659.99  Motor Position:3342
State Word:7e76  Speed:659.99  Motor Position:3384
State Word:7e76  Speed:659.99  Motor Position:3426
State Word:7e76  Speed:659.99  Motor Position:3469
State Word:7e76  Speed:659.99  Motor Position:3511
State Word:7e76  Speed:659.99  Motor Position:3553
State Word:7e76  Speed:659.99  Motor Position:3595
State Word:7e76  Speed:659.99  Motor Position:3637
State Word:7e76  Speed:659.99  Motor Position:3680
State Word:7e76  Speed:659.99  Motor Position:3722
State Word:7e76  Speed:659.99  Motor Position:3764
State Word:7e76  Speed:659.99  Motor Position:3806
State Word:7e76  Speed:659.99  Motor Position:3849
State Word:7e76  Speed:659.99  Motor Position:3891
State Word:7e76  Speed:659.99  Motor Position:3933
State Word:7e76  Speed:659.99  Motor Position:3975
State Word:7e76  Speed:659.99  Motor Position:4017
State Word:7e76  Speed:659.99  Motor Position:4060
State Word:7e76  Speed:659.99  Motor Position:4102
State Word:7e76  Speed:659.99  Motor Position:4145
State Word:7e76  Speed:659.99  Motor Position:4187
State Word:7e76  Speed:659.99  Motor Position:4229
State Word:7e76  Speed:659.99  Motor Position:4271
State Word:7e76  Speed:659.99  Motor Position:4313
State Word:7e76  Speed:659.99  Motor Position:4355
State Word:7e76  Speed:659.99  Motor Position:4398
State Word:7e76  Speed:659.99  Motor Position:4440
State Word:7e76  Speed:659.99  Motor Position:4482
State Word:7e76  Speed:659.99  Motor Position:4524
State Word:7e76  Speed:659.99  Motor Position:4566
State Word:7e76  Speed:659.99  Motor Position:4609
State Word:7e76  Speed:659.99  Motor Position:4651
State Word:7e76  Speed:659.99  Motor Position:4693
State Word:7e76  Speed:659.99  Motor Position:4736
State Word:7e76  Speed:659.99  Motor Position:4777
State Word:7e76  Speed:659.99  Motor Position:4820
State Word:7e76  Speed:659.99  Motor Position:4862
State Word:7e76  Speed:659.99  Motor Position:4904
State Word:7e76  Speed:659.99  Motor Position:4946
State Word:7e76  Speed:659.99  Motor Position:4989
State Word:7e76  Speed:659.99  Motor Position:5031
State Word:7e76  Speed:659.99  Motor Position:5073
State Word:7e76  Speed:659.99  Motor Position:5115
State Word:7e76  Speed:659.99  Motor Position:5157
State Word:7e76  Speed:659.99  Motor Position:5200
State Word:7e76  Speed:659.99  Motor Position:5242
State Word:7e76  Speed:659.99  Motor Position:5284
State Word:7e76  Speed:659.99  Motor Position:5327
State Word:7e76  Speed:659.99  Motor Position:5369
State Word:7e76  Speed:659.99  Motor Position:5411
State Word:7e76  Speed:659.99  Motor Position:5453
State Word:7e76  Speed:659.99  Motor Position:5495
State Word:7e76  Speed:659.99  Motor Position:5537
State Word:7e76  Speed:659.99  Motor Position:5580
State Word:7e76  Speed:659.99  Motor Position:5622
State Word:7e76  Speed:659.99  Motor Position:5664
State Word:7e76  Speed:659.99  Motor Position:5706
State Word:7e76  Speed:659.99  Motor Position:5749
State Word:7e76  Speed:659.99  Motor Position:5791
State Word:7e76  Speed:659.99  Motor Position:5833
State Word:7e76  Speed:659.99  Motor Position:5875
State Word:17e76  Speed:659.99  Motor Position:5918
State Word:17e76  Speed:659.99  Motor Position:5960
State Word:17e76  Speed:659.99  Motor Position:6002
State Word:7e76  Speed:659.99  Motor Position:6044
State Word:7e54  Speed:475.99  Motor Position:6081
State Word:7e54  Speed:263.99  Motor Position:6105
State Word:7e16  Speed:0.00  Motor Position:6114
- - Registers after stop begin - -
State Word:7e16  Speed:0.00  Motor Position:6114
- - Registers after stop end - -
