Control Word:0
Speed Begin:100
Speed End:660
StepCount:6050
StepMode:1
- - Intial Registers begin - -
State Word:17e06  Speed:0.00  Motor Position:-109
- - Intial Registers end- -
State Word:17e34  Speed:212.00  Motor Position:12
State Word:17e34  Speed:261.99  Motor Position:21
State Word:17e34  Speed:350.00  Motor Position:40
State Word:7e34  Speed:439.99  Motor Position:66
State Word:7e34  Speed:528.99  Motor Position:97
State Word:7e34  Speed:618.99  Motor Position:133
State Word:7e76  Speed:659.99  Motor Position:175
State Word:7e76  Speed:659.99  Motor Position:217
State Word:7e76  Speed:659.99  Motor Position:259
State Word:7e76  Speed:659.99  Motor Position:302
State Word:7e76  Speed:659.99  Motor Position:343
State Word:7e76  Speed:659.99  Motor Position:386
State Word:7e76  Speed:659.99  Motor Position:428
State Word:7e76  Speed:659.99  Motor Position:471
State Word:7e76  Speed:659.99  Motor Position:513
State Word:7e76  Speed:659.99  Motor Position:555
State Word:7e76  Speed:659.99  Motor Position:597
State Word:7e76  Speed:659.99  Motor Position:639
State Word:7e76  Speed:659.99  Motor Position:682
State Word:7e76  Speed:659.99  Motor Position:882
State Word:7e76  Speed:659.99  Motor Position:914
State Word:7e76  Speed:659.99  Motor Position:955
State Word:7e76  Speed:659.99  Motor Position:990
State Word:7e76  Speed:659.99  Motor Position:1018
State Word:7e76  Speed:659.99  Motor Position:1061
State Word:7e76  Speed:659.99  Motor Position:1104
State Word:7e76  Speed:659.99  Motor Position:1146
State Word:7e76  Speed:659.99  Motor Position:1188
State Word:7e76  Speed:659.99  Motor Position:1231
State Word:7e76  Speed:659.99  Motor Position:1273
State Word:7e76  Speed:659.99  Motor Position:1315
State Word:7e76  Speed:659.99  Motor Position:1357
State Word:7e76  Speed:659.99  Motor Position:1399
State Word:7e76  Speed:659.99  Motor Position:1442
State Word:7e76  Speed:659.99  Motor Position:1484
State Word:7e76  Speed:659.99  Motor Position:1527
State Word:7e76  Speed:659.99  Motor Position:1569
State Word:7e76  Speed:659.99  Motor Position:1610
State Word:7e76  Speed:659.99  Motor Position:1652
State Word:7e76  Speed:659.99  Motor Position:1695
State Word:7e76  Speed:659.99  Motor Position:1738
State Word:7e76  Speed:659.99  Motor Position:1779
State Word:7e76  Speed:659.99  Motor Position:1821
State Word:7e76  Speed:659.99  Motor Position:1864
State Word:7e76  Speed:659.99  Motor Position:1906
State Word:7e76  Speed:659.99  Motor Position:1948
State Word:7e76  Speed:659.99  Motor Position:1990
State Word:7e76  Speed:659.99  Motor Position:2033
State Word:7e76  Speed:659.99  Motor Position:2074
State Word:7e76  Speed:659.99  Motor Position:2117
State Word:7e76  Speed:659.99  Motor Position:2158
State Word:7e76  Speed:659.99  Motor Position:2201
State Word:7e76  Speed:659.99  Motor Position:2243
State Word:7e76  Speed:659.99  Motor Position:2286
State Word:7e76  Speed:659.99  Motor Position:2329
State Word:7e76  Speed:659.99  Motor Position:2370
State Word:7e76  Speed:659.99  Motor Position:2413
State Word:7e76  Speed:659.99  Motor Position:2455
State Word:7e76  Speed:659.99  Motor Position:2497
State Word:7e76  Speed:659.99  Motor Position:2540
State Word:7e76  Speed:659.99  Motor Position:2582
State Word:7e76  Speed:659.99  Motor Position:2624
State Word:7e76  Speed:659.99  Motor Position:2666
State Word:7e76  Speed:659.99  Motor Position:2708
State Word:7e76  Speed:659.99  Motor Position:2750
State Word:7e76  Speed:659.99  Motor Position:2792
State Word:7e76  Speed:659.99  Motor Position:2835
State Word:7e76  Speed:659.99  Motor Position:2877
State Word:7e76  Speed:659.99  Motor Position:2919
State Word:27e76  Speed:659.99  Motor Position:2962
State Word:27e76  Speed:659.99  Motor Position:3004
State Word:27e76  Speed:659.99  Motor Position:3047
State Word:7e76  Speed:659.99  Motor Position:3088
State Word:7e76  Speed:659.99  Motor Position:3131
State Word:7e76  Speed:659.99  Motor Position:3173
State Word:7e76  Speed:659.99  Motor Position:3215
State Word:7e76  Speed:659.99  Motor Position:3257
State Word:7e76  Speed:659.99  Motor Position:3300
State Word:7e76  Speed:659.99  Motor Position:3342
State Word:7e76  Speed:659.99  Motor Position:3384
State Word:7e76  Speed:659.99  Motor Position:3427
State Word:7e76  Speed:659.99  Motor Position:3469
State Word:7e76  Speed:659.99  Motor Position:3511
State Word:7e76  Speed:659.99  Motor Position:3553
State Word:7e76  Speed:659.99  Motor Position:3595
State Word:7e76  Speed:659.99  Motor Position:3638
State Word:7e76  Speed:659.99  Motor Position:3680
State Word:7e76  Speed:659.99  Motor Position:3722
State Word:7e76  Speed:659.99  Motor Position:3764
State Word:7e76  Speed:659.99  Motor Position:3806
State Word:7e76  Speed:659.99  Motor Position:3848
State Word:7e76  Speed:659.99  Motor Position:3891
State Word:7e76  Speed:659.99  Motor Position:3933
State Word:7e76  Speed:659.99  Motor Position:3975
State Word:7e76  Speed:659.99  Motor Position:4017
State Word:7e76  Speed:659.99  Motor Position:4059
State Word:7e76  Speed:659.99  Motor Position:4102
State Word:7e76  Speed:659.99  Motor Position:4144
State Word:7e76  Speed:659.99  Motor Position:4187
State Word:7e76  Speed:659.99  Motor Position:4228
State Word:7e76  Speed:659.99  Motor Position:4270
State Word:7e76  Speed:659.99  Motor Position:4313
State Word:7e76  Speed:659.99  Motor Position:4355
State Word:7e76  Speed:659.99  Motor Position:4397
State Word:7e76  Speed:659.99  Motor Position:4439
State Word:7e76  Speed:659.99  Motor Position:4482
State Word:7e76  Speed:659.99  Motor Position:4524
State Word:7e76  Speed:659.99  Motor Position:4566
State Word:7e76  Speed:659.99  Motor Position:4609
State Word:7e76  Speed:659.99  Motor Position:4651
State Word:7e76  Speed:659.99  Motor Position:4693
State Word:7e76  Speed:659.99  Motor Position:4734
State Word:7e76  Speed:659.99  Motor Position:4777
State Word:7e76  Speed:659.99  Motor Position:4819
State Word:7e76  Speed:659.99  Motor Position:4862
State Word:7e76  Speed:659.99  Motor Position:4904
State Word:7e76  Speed:659.99  Motor Position:4946
State Word:7e76  Speed:659.99  Motor Position:4989
State Word:7e76  Speed:659.99  Motor Position:5031
State Word:7e76  Speed:659.99  Motor Position:5073
State Word:7e76  Speed:659.99  Motor Position:5115
State Word:7e76  Speed:659.99  Motor Position:5158
State Word:7e76  Speed:659.99  Motor Position:5200
State Word:7e76  Speed:659.99  Motor Position:5242
State Word:7e76  Speed:659.99  Motor Position:5284
State Word:7e76  Speed:659.99  Motor Position:5326
State Word:7e76  Speed:659.99  Motor Position:5369
State Word:7e76  Speed:659.99  Motor Position:5409
State Word:7e76  Speed:659.99  Motor Position:5453
State Word:7e76  Speed:659.99  Motor Position:5495
State Word:7e76  Speed:659.99  Motor Position:5538
State Word:7e76  Speed:659.99  Motor Position:5580
State Word:7e76  Speed:659.99  Motor Position:5622
State Word:7e76  Speed:659.99  Motor Position:5664
State Word:7e76  Speed:659.99  Motor Position:5707
State Word:7e76  Speed:659.99  Motor Position:5749
State Word:7e76  Speed:659.99  Motor Position:5791
State Word:7e76  Speed:659.99  Motor Position:5833
State Word:7e76  Speed:659.99  Motor Position:5876
State Word:17e76  Speed:659.99  Motor Position:5918
State Word:17e76  Speed:659.99  Motor Position:5960
State Word:17e76  Speed:659.99  Motor Position:6002
State Word:7e76  Speed:659.99  Motor Position:6044
State Word:7e54  Speed:475.99  Motor Position:6081
State Word:7e54  Speed:263.99  Motor Position:6105
State Word:7e16  Speed:0.00  Motor Position:6114
- - Registers after stop begin - -
State Word:7e16  Speed:0.00  Motor Position:6114
- - Registers after stop end - -
