Control Word:3
Speed Begin:50
Speed End:500
StepCount:21000
StepMode:1
- - Intial Registers begin - -
State Word:7e16  Speed:0.00  Motor Position:7546
- - Intial Registers end- -
State Word:7e24  Speed:139.00  Motor Position:-7
State Word:7e24  Speed:177.99  Motor Position:-13
State Word:7e24  Speed:251.00  Motor Position:-27
State Word:7e24  Speed:322.00  Motor Position:-45
State Word:7e24  Speed:393.99  Motor Position:-68
State Word:7e24  Speed:466.99  Motor Position:-95
State Word:7e66  Speed:499.99  Motor Position:-127
State Word:7e66  Speed:499.99  Motor Position:-159
State Word:7e66  Speed:499.99  Motor Position:-191
State Word:7e66  Speed:499.99  Motor Position:-223
State Word:7e66  Speed:499.99  Motor Position:-255
State Word:7e66  Speed:499.99  Motor Position:-287
State Word:7e66  Speed:499.99  Motor Position:-319
State Word:7e66  Speed:499.99  Motor Position:-350
State Word:7e66  Speed:499.99  Motor Position:-382
State Word:7e66  Speed:499.99  Motor Position:-414
State Word:7e66  Speed:499.99  Motor Position:-446
State Word:7e66  Speed:499.99  Motor Position:-478
State Word:7e66  Speed:499.99  Motor Position:-510
State Word:7e66  Speed:499.99  Motor Position:-542
State Word:7e66  Speed:499.99  Motor Position:-574
State Word:7e66  Speed:499.99  Motor Position:-606
State Word:7e66  Speed:499.99  Motor Position:-638
State Word:7e66  Speed:499.99  Motor Position:-670
State Word:7e66  Speed:499.99  Motor Position:-702
State Word:7e66  Speed:499.99  Motor Position:-734
State Word:7e66  Speed:499.99  Motor Position:-766
State Word:7e66  Speed:499.99  Motor Position:-798
State Word:7e66  Speed:499.99  Motor Position:-829
State Word:7e66  Speed:499.99  Motor Position:-862
State Word:7e66  Speed:499.99  Motor Position:-893
State Word:7e66  Speed:499.99  Motor Position:-926
State Word:7e66  Speed:499.99  Motor Position:-957
State Word:7e66  Speed:499.99  Motor Position:-990
State Word:7e66  Speed:499.99  Motor Position:-1022
State Word:7e66  Speed:499.99  Motor Position:-1054
State Word:7e66  Speed:499.99  Motor Position:-1085
State Word:7e66  Speed:499.99  Motor Position:-1117
State Word:7e66  Speed:499.99  Motor Position:-1150
State Word:7e66  Speed:499.99  Motor Position:-1181
State Word:7e66  Speed:499.99  Motor Position:-1213
State Word:7e66  Speed:499.99  Motor Position:-1245
State Word:7e66  Speed:499.99  Motor Position:-1277
State Word:7e66  Speed:499.99  Motor Position:-1310
State Word:7e66  Speed:499.99  Motor Position:-1341
State Word:7e66  Speed:499.99  Motor Position:-1373
State Word:7e66  Speed:499.99  Motor Position:-1406
State Word:7e66  Speed:499.99  Motor Position:-1437
State Word:7e66  Speed:499.99  Motor Position:-1469
State Word:17e44  Speed:462.00  Motor Position:-1501
State Word:17e44  Speed:301.99  Motor Position:-1525
State Word:17e44  Speed:140.99  Motor Position:-1540
State Word:17e06  Speed:0.00  Motor Position:-1543
- - Registers after stop begin - -
State Word:17e06  Speed:0.00  Motor Position:-1543
- - Registers after stop end - -
