Control Word:3
Speed Begin:50
Speed End:500
StepCount:21000
StepMode:1
- - Intial Registers begin - -
State Word:7e16  Speed:0.00  Motor Position:6088
- - Intial Registers end- -
State Word:7e24  Speed:140.00  Motor Position:-8
State Word:7e24  Speed:179.99  Motor Position:-13
State Word:7e24  Speed:252.99  Motor Position:-27
State Word:7e24  Speed:324.99  Motor Position:-46
State Word:17e44  Speed:305.00  Motor Position:-67
State Word:17e44  Speed:143.99  Motor Position:-82
State Word:17e06  Speed:0.00  Motor Position:-86
- - Registers after stop begin - -
State Word:17e06  Speed:0.00  Motor Position:-86
- - Registers after stop end - -
