Control Word:3
Speed Begin:50
Speed End:500
StepCount:21000
StepMode:1
- - Intial Registers begin - -
State Word:7e16  Speed:0.00  Motor Position:6077
- - Intial Registers end- -
State Word:7e24  Speed:139.00  Motor Position:-7
State Word:7e24  Speed:178.99  Motor Position:-13
State Word:7e24  Speed:251.99  Motor Position:-27
State Word:7e24  Speed:324.00  Motor Position:-45
State Word:17e44  Speed:306.99  Motor Position:-67
State Word:17e44  Speed:145.99  Motor Position:-82
State Word:17e06  Speed:0.00  Motor Position:-85
- - Registers after stop begin - -
State Word:17e06  Speed:0.00  Motor Position:-85
- - Registers after stop end - -
