Control Word:0
Speed Begin:100
Speed End:1032
StepCount:6050
StepMode:1
- - Intial Registers begin - -
State Word:17e06  Speed:0.00  Motor Position:-153
- - Intial Registers end- -
State Word:17e34  Speed:285.00  Motor Position:15
State Word:17e34  Speed:368.00  Motor Position:27
State Word:7e34  Speed:515.00  Motor Position:55
State Word:7e34  Speed:666.99  Motor Position:93
State Word:7e34  Speed:812.99  Motor Position:140
State Word:7e34  Speed:961.99  Motor Position:197
State Word:7e76  Speed:1031.99  Motor Position:262
State Word:7e76  Speed:1031.99  Motor Position:328
State Word:7e76  Speed:1031.99  Motor Position:394
State Word:7e76  Speed:1031.99  Motor Position:461
State Word:7e76  Speed:1031.99  Motor Position:526
State Word:7e76  Speed:1031.99  Motor Position:592
State Word:7e76  Speed:1031.99  Motor Position:658
State Word:7e76  Speed:1031.99  Motor Position:724
State Word:7e76  Speed:1031.99  Motor Position:790
State Word:7e76  Speed:1031.99  Motor Position:855
State Word:7e76  Speed:1031.99  Motor Position:922
State Word:7e76  Speed:1031.99  Motor Position:987
State Word:7e76  Speed:1031.99  Motor Position:1054
State Word:7e76  Speed:1031.99  Motor Position:1121
State Word:7e76  Speed:1031.99  Motor Position:1187
State Word:7e76  Speed:1031.99  Motor Position:1253
State Word:7e76  Speed:1031.99  Motor Position:1318
State Word:7e76  Speed:1031.99  Motor Position:1384
State Word:7e76  Speed:1031.99  Motor Position:1450
State Word:7e76  Speed:1031.99  Motor Position:1517
State Word:7e76  Speed:1031.99  Motor Position:1582
State Word:7e76  Speed:1031.99  Motor Position:1648
State Word:7e76  Speed:1031.99  Motor Position:1714
State Word:7e76  Speed:1031.99  Motor Position:1780
State Word:7e76  Speed:1031.99  Motor Position:1846
State Word:7e76  Speed:1031.99  Motor Position:1912
State Word:7e76  Speed:1031.99  Motor Position:1978
State Word:7e76  Speed:1031.99  Motor Position:2044
State Word:7e76  Speed:1031.99  Motor Position:2110
State Word:7e76  Speed:1031.99  Motor Position:2177
State Word:7e76  Speed:1031.99  Motor Position:2243
State Word:7e76  Speed:1031.99  Motor Position:2309
State Word:7e76  Speed:1031.99  Motor Position:2375
State Word:7e76  Speed:1031.99  Motor Position:2441
State Word:7e76  Speed:1031.99  Motor Position:2507
State Word:7e76  Speed:1031.99  Motor Position:2573
State Word:7e76  Speed:1031.99  Motor Position:2639
State Word:7e76  Speed:1031.99  Motor Position:2703
State Word:7e76  Speed:1031.99  Motor Position:2771
State Word:7e76  Speed:1031.99  Motor Position:2837
State Word:7e76  Speed:1031.99  Motor Position:2903
State Word:27e76  Speed:1031.99  Motor Position:2969
State Word:27e76  Speed:1031.99  Motor Position:3035
State Word:7e76  Speed:1031.99  Motor Position:3101
State Word:7e76  Speed:1031.99  Motor Position:3167
State Word:7e76  Speed:1031.99  Motor Position:3234
State Word:7e76  Speed:1031.99  Motor Position:3300
State Word:7e76  Speed:1031.99  Motor Position:3365
State Word:7e76  Speed:1031.99  Motor Position:3431
State Word:7e76  Speed:1031.99  Motor Position:3497
State Word:7e76  Speed:1031.99  Motor Position:3563
State Word:7e76  Speed:1031.99  Motor Position:3628
State Word:7e76  Speed:1031.99  Motor Position:3695
State Word:7e76  Speed:1031.99  Motor Position:3761
State Word:7e76  Speed:1031.99  Motor Position:3826
State Word:7e76  Speed:1031.99  Motor Position:3893
State Word:7e76  Speed:1031.99  Motor Position:3959
State Word:7e76  Speed:1031.99  Motor Position:4025
State Word:7e76  Speed:1031.99  Motor Position:4091
State Word:7e76  Speed:1031.99  Motor Position:4157
State Word:7e76  Speed:1031.99  Motor Position:4223
State Word:7e76  Speed:1031.99  Motor Position:4290
State Word:7e76  Speed:1031.99  Motor Position:4356
State Word:7e76  Speed:1031.99  Motor Position:4422
State Word:7e76  Speed:1031.99  Motor Position:4488
State Word:7e76  Speed:1031.99  Motor Position:4554
State Word:7e76  Speed:1031.99  Motor Position:4620
State Word:7e76  Speed:1031.99  Motor Position:4686
State Word:7e76  Speed:1031.99  Motor Position:4752
State Word:7e76  Speed:1031.99  Motor Position:4818
State Word:7e76  Speed:1031.99  Motor Position:4884
State Word:7e76  Speed:1031.99  Motor Position:4950
State Word:7e76  Speed:1031.99  Motor Position:5015
State Word:7e76  Speed:1031.99  Motor Position:5082
State Word:7e76  Speed:1031.99  Motor Position:5147
State Word:7e76  Speed:1031.99  Motor Position:5214
State Word:7e76  Speed:1031.99  Motor Position:5280
State Word:7e76  Speed:1031.99  Motor Position:5347
State Word:7e76  Speed:1031.99  Motor Position:5413
State Word:7e76  Speed:1031.99  Motor Position:5478
State Word:7e76  Speed:1031.99  Motor Position:5544
State Word:7e76  Speed:1031.99  Motor Position:5611
State Word:7e76  Speed:1031.99  Motor Position:5676
State Word:7e76  Speed:1031.99  Motor Position:5742
State Word:7e76  Speed:1031.99  Motor Position:5808
State Word:7e76  Speed:1031.99  Motor Position:5874
State Word:17e76  Speed:1031.99  Motor Position:5940
State Word:17e76  Speed:1031.99  Motor Position:6006
State Word:7e54  Speed:919.00  Motor Position:6071
State Word:7e54  Speed:582.99  Motor Position:6120
State Word:7e54  Speed:258.00  Motor Position:6146
State Word:7e16  Speed:0.00  Motor Position:6152
- - Registers after stop begin - -
State Word:7e16  Speed:0.00  Motor Position:6152
- - Registers after stop end - -
