Control Word:0
Speed Begin:100
Speed End:710
StepCount:6050
StepMode:1
- - Intial Registers begin - -
State Word:17e06  Speed:0.00  Motor Position:-134
- - Intial Registers end- -
State Word:17e34  Speed:222.00  Motor Position:13
State Word:17e34  Speed:273.99  Motor Position:21
State Word:17e34  Speed:373.99  Motor Position:42
State Word:7e34  Speed:471.99  Motor Position:69
State Word:7e34  Speed:568.99  Motor Position:103
State Word:7e34  Speed:665.99  Motor Position:142
State Word:7e76  Speed:710.00  Motor Position:187
State Word:7e76  Speed:710.00  Motor Position:233
State Word:7e76  Speed:710.00  Motor Position:278
State Word:7e76  Speed:710.00  Motor Position:323
State Word:7e76  Speed:710.00  Motor Position:369
State Word:7e76  Speed:710.00  Motor Position:414
State Word:7e76  Speed:710.00  Motor Position:459
State Word:7e76  Speed:710.00  Motor Position:505
State Word:7e76  Speed:710.00  Motor Position:550
State Word:7e76  Speed:710.00  Motor Position:595
State Word:7e76  Speed:710.00  Motor Position:641
State Word:7e76  Speed:710.00  Motor Position:686
State Word:7e76  Speed:710.00  Motor Position:732
State Word:7e76  Speed:710.00  Motor Position:777
State Word:7e76  Speed:710.00  Motor Position:822
State Word:7e76  Speed:710.00  Motor Position:868
State Word:7e76  Speed:710.00  Motor Position:914
State Word:7e76  Speed:710.00  Motor Position:959
State Word:7e76  Speed:710.00  Motor Position:1005
State Word:7e76  Speed:710.00  Motor Position:1050
State Word:7e76  Speed:710.00  Motor Position:1095
State Word:7e76  Speed:710.00  Motor Position:1141
State Word:7e76  Speed:710.00  Motor Position:1186
State Word:7e76  Speed:710.00  Motor Position:1232
State Word:7e76  Speed:710.00  Motor Position:1277
State Word:7e76  Speed:710.00  Motor Position:1323
State Word:7e76  Speed:710.00  Motor Position:1368
State Word:7e76  Speed:710.00  Motor Position:1414
State Word:7e76  Speed:710.00  Motor Position:1458
State Word:7e76  Speed:710.00  Motor Position:1505
State Word:7e76  Speed:710.00  Motor Position:1549
State Word:7e76  Speed:710.00  Motor Position:1595
State Word:7e76  Speed:710.00  Motor Position:1640
State Word:7e76  Speed:710.00  Motor Position:1686
State Word:7e76  Speed:710.00  Motor Position:1731
State Word:7e76  Speed:710.00  Motor Position:1777
State Word:7e76  Speed:710.00  Motor Position:1822
State Word:7e76  Speed:710.00  Motor Position:1868
State Word:7e76  Speed:710.00  Motor Position:1914
State Word:7e76  Speed:710.00  Motor Position:1958
State Word:7e76  Speed:710.00  Motor Position:2004
State Word:7e76  Speed:710.00  Motor Position:2050
State Word:7e76  Speed:710.00  Motor Position:2095
State Word:7e76  Speed:710.00  Motor Position:2140
State Word:7e76  Speed:710.00  Motor Position:2186
State Word:7e76  Speed:710.00  Motor Position:2231
State Word:7e76  Speed:710.00  Motor Position:2276
State Word:7e76  Speed:710.00  Motor Position:2323
State Word:7e76  Speed:710.00  Motor Position:2367
State Word:7e76  Speed:710.00  Motor Position:2413
State Word:7e76  Speed:710.00  Motor Position:2458
State Word:7e76  Speed:710.00  Motor Position:2504
State Word:7e76  Speed:710.00  Motor Position:2549
State Word:7e76  Speed:710.00  Motor Position:2595
State Word:7e76  Speed:710.00  Motor Position:2640
State Word:7e76  Speed:710.00  Motor Position:2686
State Word:7e76  Speed:710.00  Motor Position:2730
State Word:7e76  Speed:710.00  Motor Position:2776
State Word:7e76  Speed:710.00  Motor Position:2821
State Word:7e76  Speed:710.00  Motor Position:2867
State Word:7e76  Speed:710.00  Motor Position:2913
State Word:27e76  Speed:710.00  Motor Position:2958
State Word:27e76  Speed:710.00  Motor Position:3003
State Word:27e76  Speed:710.00  Motor Position:3049
State Word:7e76  Speed:710.00  Motor Position:3095
State Word:7e76  Speed:710.00  Motor Position:3139
State Word:7e76  Speed:710.00  Motor Position:3184
State Word:7e76  Speed:710.00  Motor Position:3230
State Word:7e76  Speed:710.00  Motor Position:3276
State Word:7e76  Speed:710.00  Motor Position:3321
State Word:7e76  Speed:710.00  Motor Position:3367
State Word:7e76  Speed:710.00  Motor Position:3412
State Word:7e76  Speed:710.00  Motor Position:3458
State Word:7e76  Speed:710.00  Motor Position:3504
State Word:7e76  Speed:710.00  Motor Position:3548
State Word:7e76  Speed:710.00  Motor Position:3594
State Word:7e76  Speed:710.00  Motor Position:3639
State Word:7e76  Speed:710.00  Motor Position:3685
State Word:7e76  Speed:710.00  Motor Position:3730
State Word:7e76  Speed:710.00  Motor Position:3776
State Word:7e76  Speed:710.00  Motor Position:3821
State Word:7e76  Speed:710.00  Motor Position:3867
State Word:7e76  Speed:710.00  Motor Position:3912
State Word:7e76  Speed:710.00  Motor Position:3957
State Word:7e76  Speed:710.00  Motor Position:4003
State Word:7e76  Speed:710.00  Motor Position:4048
State Word:7e76  Speed:710.00  Motor Position:4094
State Word:7e76  Speed:710.00  Motor Position:4139
State Word:7e76  Speed:710.00  Motor Position:4185
State Word:7e76  Speed:710.00  Motor Position:4230
State Word:7e76  Speed:710.00  Motor Position:4275
State Word:7e76  Speed:710.00  Motor Position:4320
State Word:7e76  Speed:710.00  Motor Position:4367
State Word:7e76  Speed:710.00  Motor Position:4411
State Word:7e76  Speed:710.00  Motor Position:4457
State Word:7e76  Speed:710.00  Motor Position:4502
State Word:7e76  Speed:710.00  Motor Position:4548
State Word:7e76  Speed:710.00  Motor Position:4593
State Word:7e76  Speed:710.00  Motor Position:4639
State Word:7e76  Speed:710.00  Motor Position:4684
State Word:7e76  Speed:710.00  Motor Position:4729
State Word:7e76  Speed:710.00  Motor Position:4775
State Word:7e76  Speed:710.00  Motor Position:4820
State Word:7e76  Speed:710.00  Motor Position:4866
State Word:7e76  Speed:710.00  Motor Position:4911
State Word:7e76  Speed:710.00  Motor Position:4957
State Word:7e76  Speed:710.00  Motor Position:5002
State Word:7e76  Speed:710.00  Motor Position:5047
State Word:7e76  Speed:710.00  Motor Position:5093
State Word:7e76  Speed:710.00  Motor Position:5137
State Word:7e76  Speed:710.00  Motor Position:5184
State Word:7e76  Speed:710.00  Motor Position:5229
State Word:7e76  Speed:710.00  Motor Position:5275
State Word:7e76  Speed:710.00  Motor Position:5320
State Word:7e76  Speed:710.00  Motor Position:5365
State Word:7e76  Speed:710.00  Motor Position:5411
State Word:7e76  Speed:710.00  Motor Position:5456
State Word:7e76  Speed:710.00  Motor Position:5502
State Word:7e76  Speed:710.00  Motor Position:5548
State Word:7e76  Speed:710.00  Motor Position:5592
State Word:7e76  Speed:710.00  Motor Position:5638
State Word:7e76  Speed:710.00  Motor Position:5683
State Word:7e76  Speed:710.00  Motor Position:5729
State Word:7e76  Speed:710.00  Motor Position:5774
State Word:7e76  Speed:710.00  Motor Position:5820
State Word:7e76  Speed:710.00  Motor Position:5864
State Word:7e76  Speed:710.00  Motor Position:5910
State Word:17e76  Speed:710.00  Motor Position:5956
State Word:17e76  Speed:710.00  Motor Position:6001
State Word:17e76  Speed:710.00  Motor Position:6047
State Word:7e54  Speed:497.00  Motor Position:6086
State Word:7e54  Speed:269.99  Motor Position:6110
State Word:7e16  Speed:0.00  Motor Position:6119
- - Registers after stop begin - -
State Word:7e16  Speed:0.00  Motor Position:6119
- - Registers after stop end - -
