RAW Value: 87e66
Motor constant speed motion
Motor in Normal State
Motor is Busy
WRONG CMD Bit Low 
NOT PERF CMD Bit Low 
Motor is SWF State Active
Motor is SW_EVN Active Reset
Direction Move is Backward
UVLO State Normal
TH_WRN State Normal
TH_SD State Normal
OCD State Normal
WS bit Trigered: Comand execution Error
System normal booted
