RAW Value: 42109
Motor stoped
Motor in Hiz State
Motor is not Busy
WRONG CMD Bit High
NOT PERF CMD Bit Low 
Motor is SWF State Active Reset
Motor is SW_EVN State Active
Direction Move is Backward
UVLO Fault detected
TH_WRN  Fault detected
TH_SD  Fault detected
OCD Fault detected
Comand sucesfuly started
System normal booted
