RAW Value: 97e07
Motor stoped
Motor in Hiz State
Motor is Busy
WRONG CMD Bit Low 
NOT PERF CMD Bit Low 
Motor is SWF State Active
Motor is SW_EVN Active Reset
Direction Move is Backward
UVLO State Normal
TH_WRN State Normal
TH_SD State Normal
OCD State Normal
WS bit Trigered: Comand execution Error
System normal booted
XP4 Trigered Motor on Sensor 1 
