RAW Value: a7e16
Motor stoped
Motor in Normal State
Motor is Busy
WRONG CMD Bit Low 
NOT PERF CMD Bit Low 
Motor is SWF State Active
Motor is SW_EVN Active Reset
Direction Move is Forward
UVLO State Normal
TH_WRN State Normal
TH_SD State Normal
OCD State Normal
WS bit Trigered: Comand execution Error
System normal booted
XP5 Trigered Motor on Sensor 2 
