 - - Programm options - - 
Direction move:0
Begin Speed Main motion:100 Steps/s
End Speed initial Main motion:200 Steps/s
End Speed Final Main motion:1500 Steps/s
Time Acc Main motion:200 ms
 Time Stop Main motion:100 ms
 Binding Sensor:0  Begin Speed Motion to sensor:50 Steps/s
End Speed initial Motion to sensor:500 Steps/s
Time Acc Motion to sensor:200 ms
 Time Stop Motion to sensor:100 ms
 Step Mode:0x1
 Step count:7500
 Loop count:10
 Dellay beetwena end motions:100 ms
 SpeedInc:144
[2019/3/28 11:59:11:243] SensorMotion_Start,Control Word:0x3,StateWord:0x7e16,Motor Postion:7650,Speed begin:50,Speed End:500
 [2019/3/28 11:59:13:258] SensorMotion_Stop,Control Word:0x3,StateWord:0x17e06,Motor Postion:-1647
[2019/3/28 11:59:14:259] MainMotion_Start,Control Word:0x0,StateWord:0x17e06,Motor Postion:-1647,Motor Speed Begin 100,Motor Speed End  200
[2019/3/28 11:59:33:348] MainMotion_Stop,Control Word:0x0,StateWord:0x7e16,Motor Postion:7515
 [2019/3/28 11:59:34:451] SensorMotion_Start,Control Word:0x3,StateWord:0x7e16,Motor Postion:7515,Speed begin:50,Speed End:500
 [2019/3/28 11:59:36:314] SensorMotion_Stop,Control Word:0x3,StateWord:0x17e06,Motor Postion:-1511
[2019/3/28 11:59:37:314] MainMotion_Start,Control Word:0x0,StateWord:0x17e06,Motor Postion:-1511,Motor Speed Begin 100,Motor Speed End  344
[2019/3/28 11:59:48:583] MainMotion_Stop,Control Word:0x0,StateWord:0x7e16,Motor Postion:7531
 [2019/3/28 11:59:49:686] SensorMotion_Start,Control Word:0x3,StateWord:0x7e16,Motor Postion:7531,Speed begin:50,Speed End:500
 [2019/3/28 11:59:51:590] SensorMotion_Stop,Control Word:0x3,StateWord:0x17e06,Motor Postion:-1535
[2019/3/28 11:59:52:590] MainMotion_Start,Control Word:0x0,StateWord:0x17e06,Motor Postion:-1535,Motor Speed Begin 100,Motor Speed End  488
[2019/3/28 12:0:0:682] MainMotion_Stop,Control Word:0x0,StateWord:0x7e16,Motor Postion:7547
 [2019/3/28 12:0:1:785] SensorMotion_Start,Control Word:0x3,StateWord:0x7e16,Motor Postion:7547,Speed begin:50,Speed End:500
 [2019/3/28 12:0:3:680] SensorMotion_Stop,Control Word:0x3,StateWord:0x17e06,Motor Postion:-1543
[2019/3/28 12:0:4:680] MainMotion_Start,Control Word:0x0,StateWord:0x17e06,Motor Postion:-1543,Motor Speed Begin 100,Motor Speed End  632
[2019/3/28 12:0:11:29] MainMotion_Stop,Control Word:0x0,StateWord:0x7e16,Motor Postion:7561
 [2019/3/28 12:0:12:132] SensorMotion_Start,Control Word:0x3,StateWord:0x7e16,Motor Postion:7561,Speed begin:50,Speed End:500
 [2019/3/28 12:0:14:067] SensorMotion_Stop,Control Word:0x3,StateWord:0x17e06,Motor Postion:-1559
[2019/3/28 12:0:15:68] MainMotion_Start,Control Word:0x0,StateWord:0x17e06,Motor Postion:-1559,Motor Speed Begin 100,Motor Speed End  776
[2019/3/28 12:0:20:328] MainMotion_Stop,Control Word:0x0,StateWord:0x7e16,Motor Postion:7576
 [2019/3/28 12:0:21:432] SensorMotion_Start,Control Word:0x3,StateWord:0x7e16,Motor Postion:7576,Speed begin:50,Speed End:500
 [2019/3/28 12:0:23:367] SensorMotion_Stop,Control Word:0x3,StateWord:0x17e06,Motor Postion:-1575
[2019/3/28 12:0:24:367] MainMotion_Start,Control Word:0x0,StateWord:0x17e06,Motor Postion:-1575,Motor Speed Begin 100,Motor Speed End  920
[2019/3/28 12:0:28:854] MainMotion_Stop,Control Word:0x0,StateWord:0x7e16,Motor Postion:7591
 [2019/3/28 12:0:29:957] SensorMotion_Start,Control Word:0x3,StateWord:0x7e16,Motor Postion:7591,Speed begin:50,Speed End:500
 [2019/3/28 12:0:31:925] SensorMotion_Stop,Control Word:0x3,StateWord:0x17e06,Motor Postion:-1591
[2019/3/28 12:0:32:925] MainMotion_Start,Control Word:0x0,StateWord:0x17e06,Motor Postion:-1591,Motor Speed Begin 100,Motor Speed End  1064
[2019/3/28 12:0:36:883] MainMotion_Stop,Control Word:0x0,StateWord:0x7e16,Motor Postion:7606
 [2019/3/28 12:0:37:986] SensorMotion_Start,Control Word:0x3,StateWord:0x7e16,Motor Postion:7606,Speed begin:50,Speed End:500
 [2019/3/28 12:0:39:954] SensorMotion_Stop,Control Word:0x3,StateWord:0x17e06,Motor Postion:-1607
[2019/3/28 12:0:40:954] MainMotion_Start,Control Word:0x0,StateWord:0x17e06,Motor Postion:-1607,Motor Speed Begin 100,Motor Speed End  1208
[2019/3/28 12:0:44:464] MainMotion_Stop,Control Word:0x0,StateWord:0x7e16,Motor Postion:7620
 [2019/3/28 12:0:45:568] SensorMotion_Start,Control Word:0x3,StateWord:0x7e16,Motor Postion:7620,Speed begin:50,Speed End:500
 [2019/3/28 12:0:47:567] SensorMotion_Stop,Control Word:0x3,StateWord:0x17e06,Motor Postion:-1623
[2019/3/28 12:0:48:568] MainMotion_Start,Control Word:0x0,StateWord:0x17e06,Motor Postion:-1623,Motor Speed Begin 100,Motor Speed End  1352
[2019/3/28 12:0:51:758] MainMotion_Stop,Control Word:0x0,StateWord:0x7e16,Motor Postion:7635
 [2019/3/28 12:0:52:861] SensorMotion_Start,Control Word:0x3,StateWord:0x7e16,Motor Postion:7635,Speed begin:50,Speed End:500
 [2019/3/28 12:0:54:861] SensorMotion_Stop,Control Word:0x3,StateWord:0x17e06,Motor Postion:-1631
[2019/3/28 12:0:55:861] MainMotion_Start,Control Word:0x0,StateWord:0x17e06,Motor Postion:-1631,Motor Speed Begin 100,Motor Speed End  1500
[2019/3/28 12:0:58:796] MainMotion_Stop,Control Word:0x0,StateWord:0x7e16,Motor Postion:7650
 WS Bit Error count:0
L6472 Registers W/R Errorcount:0
