 - - Programm options - - 
Direction move:0
Begin Speed Main motion:100 Steps/s
End Speed initial Main motion:200 Steps/s
End Speed Final Main motion:3000 Steps/s
Time Acc Main motion:200 ms
 Time Stop Main motion:100 ms
 Binding Sensor:1  Begin Speed Motion to sensor:50 Steps/s
End Speed initial Motion to sensor:500 Steps/s
Time Acc Motion to sensor:100 ms
 Time Stop Motion to sensor:100 ms
 Step Mode:0x1
 Step count:6020
 Loop count:10
 Dellay beetwena end motions:100 ms
 SpeedInc:311
[2019/3/22 20:23:29:097] SensorMotion_Skiped,Control Word:0x5,StateWord:0xa7e16,Motor Postion:101,Speed begin:50,Speed End:500. Motor already located on optical sensor!
 [2019/3/22 20:23:29:613] MainMotion_Start,Control Word:0x0,StateWord:0xa7e16,Motor Postion:101,Motor Speed Begin 100,Motor Speed End  200
[2019/3/22 20:23:29:769] SensorMotion_Skiped,Control Word:0x5,StateWord:0x27e34,Motor Postion:5,Speed begin:50,Speed End:500. Motor already located on optical sensor!
 [2019/3/22 20:23:30:285] MainMotion_Start,Control Word:0x0,StateWord:0x27e34,Motor Postion:8,Motor Speed Begin 100,Motor Speed End  200
[2019/3/22 20:23:30:456] SensorMotion_Skiped,Control Word:0x5,StateWord:0xa7e16,Motor Postion:255,Speed begin:50,Speed End:500. Motor already located on optical sensor!
 [2019/3/22 20:23:30:972] MainMotion_Start,Control Word:0x0,StateWord:0xa7e16,Motor Postion:255,Motor Speed Begin 100,Motor Speed End  200
[2019/3/22 20:23:31:144] SensorMotion_Skiped,Control Word:0x5,StateWord:0x27e34,Motor Postion:5,Speed begin:50,Speed End:500. Motor already located on optical sensor!
 [2019/3/22 20:23:31:660] MainMotion_Start,Control Word:0x0,StateWord:0x27e34,Motor Postion:8,Motor Speed Begin 100,Motor Speed End  200
[2019/3/22 20:23:31:831] SensorMotion_Skiped,Control Word:0x5,StateWord:0xa7e16,Motor Postion:255,Speed begin:50,Speed End:500. Motor already located on optical sensor!
 [2019/3/22 20:23:32:347] MainMotion_Start,Control Word:0x0,StateWord:0xa7e16,Motor Postion:255,Motor Speed Begin 100,Motor Speed End  200
[2019/3/22 20:23:32:519] SensorMotion_Skiped,Control Word:0x5,StateWord:0x27e34,Motor Postion:5,Speed begin:50,Speed End:500. Motor already located on optical sensor!
 [2019/3/22 20:23:33:35] MainMotion_Start,Control Word:0x0,StateWord:0x27e34,Motor Postion:8,Motor Speed Begin 100,Motor Speed End  200
[2019/3/22 20:23:33:207] SensorMotion_Skiped,Control Word:0x5,StateWord:0xa7e16,Motor Postion:255,Speed begin:50,Speed End:500. Motor already located on optical sensor!
 [2019/3/22 20:23:33:723] MainMotion_Start,Control Word:0x0,StateWord:0xa7e16,Motor Postion:255,Motor Speed Begin 100,Motor Speed End  200
[2019/3/22 20:23:33:894] SensorMotion_Skiped,Control Word:0x5,StateWord:0x27e34,Motor Postion:5,Speed begin:50,Speed End:500. Motor already located on optical sensor!
 [2019/3/22 20:23:34:410] MainMotion_Start,Control Word:0x0,StateWord:0x27e34,Motor Postion:8,Motor Speed Begin 100,Motor Speed End  200
[2019/3/22 20:23:34:582] SensorMotion_Skiped,Control Word:0x5,StateWord:0xa7e16,Motor Postion:255,Speed begin:50,Speed End:500. Motor already located on optical sensor!
 [2019/3/22 20:23:35:98] MainMotion_Start,Control Word:0x0,StateWord:0xa7e16,Motor Postion:255,Motor Speed Begin 100,Motor Speed End  200
[2019/3/22 20:23:35:270] SensorMotion_Skiped,Control Word:0x5,StateWord:0x27e34,Motor Postion:5,Speed begin:50,Speed End:500. Motor already located on optical sensor!
 [2019/3/22 20:23:35:786] MainMotion_Start,Control Word:0x0,StateWord:0x27e34,Motor Postion:8,Motor Speed Begin 100,Motor Speed End  3000
WS Bit Error count:0
