 - - Programm options - - 
Direction move:0
Begin Speed Main motion:100 Steps/s
End Speed initial Main motion:200 Steps/s
End Speed Final Main motion:2500 Steps/s
Time Acc Main motion:200 ms
 Time Stop Main motion:100 ms
 Binding Sensor:0  Begin Speed Motion to sensor:50 Steps/s
End Speed initial Motion to sensor:500 Steps/s
Time Acc Motion to sensor:200 ms
 Time Stop Motion to sensor:100 ms
 Step Mode:0x1
 Step count:6050
 Loop count:10
 Dellay beetwena end motions:100 ms
 SpeedInc:255
[2019/3/27 17:27:3:706] SensorMotion_Start,Control Word:0x3,StateWord:0x7e16,Motor Postion:6301,Speed begin:50,Speed End:500
 [2019/3/27 17:27:4:394] SensorMotion_Stop,Control Word:0x3,StateWord:0x17e06,Motor Postion:-301
[2019/3/27 17:27:4:495] MainMotion_Start,Control Word:0x0,StateWord:0x17e06,Motor Postion:-301,Motor Speed Begin 100,Motor Speed End  200
[2019/3/27 17:27:19:974] MainMotion_Stop,Control Word:0x0,StateWord:0x7e16,Motor Postion:6065
 [2019/3/27 17:27:20:181] SensorMotion_Start,Control Word:0x3,StateWord:0x7e16,Motor Postion:6065,Speed begin:50,Speed End:500
 [2019/3/27 17:27:20:486] SensorMotion_Stop,Control Word:0x3,StateWord:0x17e06,Motor Postion:-14
[2019/3/27 17:27:20:586] MainMotion_Start,Control Word:0x0,StateWord:0x17e06,Motor Postion:-14,Motor Speed Begin 100,Motor Speed End  455
[2019/3/27 17:27:27:636] MainMotion_Stop,Control Word:0x0,StateWord:0x7e16,Motor Postion:6093
 [2019/3/27 17:27:27:844] SensorMotion_Start,Control Word:0x3,StateWord:0x7e16,Motor Postion:6093,Speed begin:50,Speed End:500
 [2019/3/27 17:27:28:324] SensorMotion_Stop,Control Word:0x3,StateWord:0x17e06,Motor Postion:-134
[2019/3/27 17:27:28:424] MainMotion_Start,Control Word:0x0,StateWord:0x17e06,Motor Postion:-134,Motor Speed Begin 100,Motor Speed End  710
[2019/3/27 17:27:33:90] MainMotion_Stop,Control Word:0x0,StateWord:0x7e16,Motor Postion:6119
 [2019/3/27 17:27:33:297] SensorMotion_Start,Control Word:0x3,StateWord:0x7e16,Motor Postion:6119,Speed begin:50,Speed End:500
 [2019/3/27 17:27:33:761] SensorMotion_Stop,Control Word:0x3,StateWord:0x17e06,Motor Postion:-109
[2019/3/27 17:27:33:861] MainMotion_Start,Control Word:0x0,StateWord:0x17e06,Motor Postion:-109,Motor Speed Begin 100,Motor Speed End  965
[2019/3/27 17:27:37:425] MainMotion_Stop,Control Word:0x0,StateWord:0x7e16,Motor Postion:6145
 [2019/3/27 17:27:37:633] SensorMotion_Start,Control Word:0x3,StateWord:0x7e16,Motor Postion:6145,Speed begin:50,Speed End:500
 [2019/3/27 17:27:38:161] SensorMotion_Stop,Control Word:0x3,StateWord:0x17e06,Motor Postion:-154
[2019/3/27 17:27:38:261] MainMotion_Start,Control Word:0x0,StateWord:0x17e06,Motor Postion:-154,Motor Speed Begin 100,Motor Speed End  1220
[2019/3/27 17:27:41:159] MainMotion_Stop,Control Word:0x0,StateWord:0x7e16,Motor Postion:6172
 [2019/3/27 17:27:41:366] SensorMotion_Start,Control Word:0x3,StateWord:0x7e16,Motor Postion:6172,Speed begin:50,Speed End:500
 [2019/3/27 17:27:41:894] SensorMotion_Stop,Control Word:0x3,StateWord:0x17e06,Motor Postion:-181
[2019/3/27 17:27:41:994] MainMotion_Start,Control Word:0x0,StateWord:0x17e06,Motor Postion:-181,Motor Speed Begin 100,Motor Speed End  1475
[2019/3/27 17:27:44:486] MainMotion_Stop,Control Word:0x0,StateWord:0x7e16,Motor Postion:6198
 [2019/3/27 17:27:44:678] SensorMotion_Start,Control Word:0x3,StateWord:0x7e16,Motor Postion:6198,Speed begin:50,Speed End:500
 [2019/3/27 17:27:45:238] SensorMotion_Stop,Control Word:0x3,StateWord:0x17e06,Motor Postion:-195
[2019/3/27 17:27:45:338] MainMotion_Start,Control Word:0x0,StateWord:0x17e06,Motor Postion:-195,Motor Speed Begin 100,Motor Speed End  1730
[2019/3/27 17:27:47:509] MainMotion_Stop,Control Word:0x0,StateWord:0x7e16,Motor Postion:6223
 [2019/3/27 17:27:47:717] SensorMotion_Start,Control Word:0x3,StateWord:0x7e16,Motor Postion:6223,Speed begin:50,Speed End:500
 [2019/3/27 17:27:48:309] SensorMotion_Stop,Control Word:0x3,StateWord:0x17e06,Motor Postion:-230
[2019/3/27 17:27:48:409] MainMotion_Start,Control Word:0x0,StateWord:0x17e06,Motor Postion:-230,Motor Speed Begin 100,Motor Speed End  1985
[2019/3/27 17:27:50:372] MainMotion_Stop,Control Word:0x0,StateWord:0x7e16,Motor Postion:6248
 [2019/3/27 17:27:50:580] SensorMotion_Start,Control Word:0x3,StateWord:0x7e16,Motor Postion:6248,Speed begin:50,Speed End:500
 [2019/3/27 17:27:51:172] SensorMotion_Stop,Control Word:0x3,StateWord:0x17e06,Motor Postion:-244
[2019/3/27 17:27:51:272] MainMotion_Start,Control Word:0x0,StateWord:0x17e06,Motor Postion:-244,Motor Speed Begin 100,Motor Speed End  2240
[2019/3/27 17:27:53:59] MainMotion_Stop,Control Word:0x0,StateWord:0x7e16,Motor Postion:6274
 [2019/3/27 17:27:53:267] SensorMotion_Start,Control Word:0x3,StateWord:0x7e16,Motor Postion:6274,Speed begin:50,Speed End:500
 [2019/3/27 17:27:53:891] SensorMotion_Stop,Control Word:0x3,StateWord:0x17e06,Motor Postion:-269
[2019/3/27 17:27:53:991] MainMotion_Start,Control Word:0x0,StateWord:0x17e06,Motor Postion:-269,Motor Speed Begin 100,Motor Speed End  2500
[2019/3/27 17:27:55:651] MainMotion_Stop,Control Word:0x0,StateWord:0x7e16,Motor Postion:6300
 WS Bit Error count:0
L6472 Registers W/R Errorcount:0
