Control Word:0
Speed Begin:100
Speed End:542
StepCount:6500
StepMode:1
- - Intial Registers begin - -
State Word:37e06  Speed:0.00  Motor Position:-553
- - Intial Registers end- -
State Word:37e34  Speed:291.99  Motor Position:34
State Word:37e34  Speed:434.00  Motor Position:80
State Word:27e76  Speed:542.00  Motor Position:162
State Word:27e76  Speed:542.00  Motor Position:248
State Word:27e76  Speed:542.00  Motor Position:318
State Word:27e76  Speed:542.00  Motor Position:404
State Word:27e76  Speed:542.00  Motor Position:490
State Word:27e76  Speed:542.00  Motor Position:560
State Word:27e76  Speed:542.00  Motor Position:629
State Word:27e76  Speed:542.00  Motor Position:699
State Word:27e76  Speed:542.00  Motor Position:785
State Word:27e76  Speed:542.00  Motor Position:872
State Word:27e76  Speed:542.00  Motor Position:942
State Word:27e76  Speed:542.00  Motor Position:1011
State Word:27e76  Speed:542.00  Motor Position:1080
State Word:27e76  Speed:542.00  Motor Position:1167
State Word:27e76  Speed:542.00  Motor Position:1236
State Word:27e76  Speed:542.00  Motor Position:1305
State Word:27e76  Speed:542.00  Motor Position:1375
State Word:27e76  Speed:542.00  Motor Position:1462
State Word:27e76  Speed:542.00  Motor Position:1531
State Word:27e76  Speed:542.00  Motor Position:1600
State Word:27e76  Speed:542.00  Motor Position:1670
State Word:27e76  Speed:542.00  Motor Position:1739
State Word:27e76  Speed:542.00  Motor Position:1808
State Word:27e76  Speed:542.00  Motor Position:1877
State Word:27e76  Speed:542.00  Motor Position:1964
State Word:27e76  Speed:542.00  Motor Position:2051
State Word:27e76  Speed:542.00  Motor Position:2138
State Word:27e76  Speed:542.00  Motor Position:2207
State Word:27e76  Speed:542.00  Motor Position:2276
State Word:27e76  Speed:542.00  Motor Position:2363
State Word:27e76  Speed:542.00  Motor Position:2432
State Word:27e76  Speed:542.00  Motor Position:2519
State Word:27e76  Speed:542.00  Motor Position:2606
State Word:27e76  Speed:542.00  Motor Position:2675
State Word:27e76  Speed:542.00  Motor Position:2745
State Word:27e76  Speed:542.00  Motor Position:2831
State Word:27e76  Speed:542.00  Motor Position:2918
State Word:27e76  Speed:542.00  Motor Position:3004
State Word:27e76  Speed:542.00  Motor Position:3091
State Word:27e76  Speed:542.00  Motor Position:3178
State Word:27e76  Speed:542.00  Motor Position:3265
State Word:27e76  Speed:542.00  Motor Position:3351
State Word:27e76  Speed:542.00  Motor Position:3438
State Word:27e76  Speed:542.00  Motor Position:3525
State Word:27e76  Speed:542.00  Motor Position:3612
State Word:27e76  Speed:542.00  Motor Position:3698
State Word:27e76  Speed:542.00  Motor Position:3785
State Word:27e76  Speed:542.00  Motor Position:3872
State Word:27e76  Speed:542.00  Motor Position:3958
State Word:27e76  Speed:542.00  Motor Position:4045
State Word:27e76  Speed:542.00  Motor Position:4132
State Word:27e76  Speed:542.00  Motor Position:4218
State Word:27e76  Speed:542.00  Motor Position:4305
State Word:27e76  Speed:542.00  Motor Position:4392
State Word:27e76  Speed:542.00  Motor Position:4478
State Word:27e76  Speed:542.00  Motor Position:4566
State Word:27e76  Speed:542.00  Motor Position:4652
State Word:27e76  Speed:542.00  Motor Position:4739
State Word:27e76  Speed:542.00  Motor Position:4825
State Word:27e76  Speed:542.00  Motor Position:4912
State Word:27e76  Speed:542.00  Motor Position:4999
State Word:27e76  Speed:542.00  Motor Position:5085
State Word:27e76  Speed:542.00  Motor Position:5172
State Word:27e76  Speed:542.00  Motor Position:5241
State Word:27e76  Speed:542.00  Motor Position:5328
State Word:27e76  Speed:542.00  Motor Position:5415
State Word:27e76  Speed:542.00  Motor Position:5502
State Word:27e76  Speed:542.00  Motor Position:5588
State Word:27e76  Speed:542.00  Motor Position:5674
State Word:27e76  Speed:542.00  Motor Position:5762
State Word:27e76  Speed:542.00  Motor Position:5848
State Word:27e76  Speed:542.00  Motor Position:5935
State Word:37e76  Speed:542.00  Motor Position:6021
State Word:37e76  Speed:542.00  Motor Position:6108
State Word:27e76  Speed:542.00  Motor Position:6195
State Word:27e76  Speed:542.00  Motor Position:6282
State Word:27e76  Speed:542.00  Motor Position:6368
State Word:27e76  Speed:542.00  Motor Position:6455
State Word:27e54  Speed:331.00  Motor Position:6534
State Word:27e16  Speed:0.00  Motor Position:6552
- - Registers after stop begin - -
State Word:27e16  Speed:0.00  Motor Position:6552
- - Registers after stop end - -
