Control Word:0
Speed Begin:100
Speed End:941
StepCount:6500
StepMode:1
- - Intial Registers begin - -
State Word:37e06  Speed:0.00  Motor Position:-593
- - Intial Registers end- -
State Word:37e34  Speed:465.99  Motor Position:49
State Word:27e34  Speed:735.00  Motor Position:126
State Word:27e76  Speed:940.99  Motor Position:266
State Word:27e76  Speed:940.99  Motor Position:416
State Word:27e76  Speed:940.99  Motor Position:566
State Word:27e76  Speed:940.99  Motor Position:687
State Word:27e76  Speed:940.99  Motor Position:808
State Word:27e76  Speed:940.99  Motor Position:928
State Word:27e76  Speed:940.99  Motor Position:1079
State Word:27e76  Speed:940.99  Motor Position:1199
State Word:27e76  Speed:940.99  Motor Position:1319
State Word:27e76  Speed:940.99  Motor Position:1469
State Word:27e76  Speed:940.99  Motor Position:1620
State Word:27e76  Speed:940.99  Motor Position:1740
State Word:27e76  Speed:940.99  Motor Position:1861
State Word:27e76  Speed:940.99  Motor Position:1981
State Word:27e76  Speed:940.99  Motor Position:2102
State Word:27e76  Speed:940.99  Motor Position:2252
State Word:27e76  Speed:940.99  Motor Position:2373
State Word:27e76  Speed:940.99  Motor Position:2492
State Word:27e76  Speed:940.99  Motor Position:2644
State Word:27e76  Speed:940.99  Motor Position:2764
State Word:27e76  Speed:940.99  Motor Position:2914
State Word:27e76  Speed:940.99  Motor Position:3065
State Word:27e76  Speed:940.99  Motor Position:3185
State Word:27e76  Speed:940.99  Motor Position:3336
State Word:27e76  Speed:940.99  Motor Position:3486
State Word:27e76  Speed:940.99  Motor Position:3637
State Word:27e76  Speed:940.99  Motor Position:3787
State Word:27e76  Speed:940.99  Motor Position:3938
State Word:27e76  Speed:940.99  Motor Position:4088
State Word:27e76  Speed:940.99  Motor Position:4238
State Word:27e76  Speed:940.99  Motor Position:4389
State Word:27e76  Speed:940.99  Motor Position:4540
State Word:27e76  Speed:940.99  Motor Position:4690
State Word:27e76  Speed:940.99  Motor Position:4841
State Word:27e76  Speed:940.99  Motor Position:4991
State Word:27e76  Speed:940.99  Motor Position:5112
State Word:27e76  Speed:940.99  Motor Position:5263
State Word:27e76  Speed:940.99  Motor Position:5413
State Word:27e76  Speed:940.99  Motor Position:5564
State Word:27e76  Speed:940.99  Motor Position:5714
State Word:27e76  Speed:940.99  Motor Position:5865
State Word:37e76  Speed:940.99  Motor Position:6015
State Word:27e76  Speed:940.99  Motor Position:6165
State Word:27e76  Speed:940.99  Motor Position:6316
State Word:27e76  Speed:940.99  Motor Position:6466
State Word:27e54  Speed:356.99  Motor Position:6581
State Word:27e16  Speed:0.00  Motor Position:6593
- - Registers after stop begin - -
State Word:27e16  Speed:0.00  Motor Position:6593
- - Registers after stop end - -
