Control Word:3
Speed Begin:50
Speed End:1000
StepCount:21000
StepMode:1
- - Intial Registers begin - -
State Word:27e16  Speed:0.00  Motor Position:6534
- - Intial Registers end- -
State Word:27e24  Speed:461.00  Motor Position:-44
State Word:27e24  Speed:765.00  Motor Position:-123
State Word:27e66  Speed:999.99  Motor Position:-238
State Word:27e66  Speed:999.99  Motor Position:-366
State Word:37e44  Speed:645.00  Motor Position:-496
State Word:37e06  Speed:0.00  Motor Position:-537
- - Registers after stop begin - -
State Word:37e06  Speed:0.00  Motor Position:-537
- - Registers after stop end - -
