Control Word:0
Speed Begin:100
Speed End:1283
StepCount:6500
StepMode:1
- - Intial Registers begin - -
State Word:37e06  Speed:0.00  Motor Position:-625
- - Intial Registers end- -
State Word:37e34  Speed:610.99  Motor Position:61
State Word:27e34  Speed:993.00  Motor Position:165
State Word:27e76  Speed:1282.99  Motor Position:356
State Word:27e76  Speed:1282.99  Motor Position:519
State Word:27e76  Speed:1282.99  Motor Position:684
State Word:27e76  Speed:1282.99  Motor Position:890
State Word:27e76  Speed:1282.99  Motor Position:1053
State Word:27e76  Speed:1282.99  Motor Position:1258
State Word:27e76  Speed:1282.99  Motor Position:1422
State Word:27e76  Speed:1282.99  Motor Position:1585
State Word:27e76  Speed:1282.99  Motor Position:1750
State Word:27e76  Speed:1282.99  Motor Position:1915
State Word:27e76  Speed:1282.99  Motor Position:2078
State Word:27e76  Speed:1282.99  Motor Position:2242
State Word:27e76  Speed:1282.99  Motor Position:2407
State Word:27e76  Speed:1282.99  Motor Position:2571
State Word:27e76  Speed:1282.99  Motor Position:2776
State Word:27e76  Speed:1282.99  Motor Position:2941
State Word:27e76  Speed:1282.99  Motor Position:3105
State Word:27e76  Speed:1282.99  Motor Position:3269
State Word:27e76  Speed:1282.99  Motor Position:3432
State Word:27e76  Speed:1282.99  Motor Position:3637
State Word:27e76  Speed:1282.99  Motor Position:3802
State Word:27e76  Speed:1282.99  Motor Position:3966
State Word:27e76  Speed:1282.99  Motor Position:4130
State Word:27e76  Speed:1282.99  Motor Position:4294
State Word:27e76  Speed:1282.99  Motor Position:4459
State Word:27e76  Speed:1282.99  Motor Position:4622
State Word:27e76  Speed:1282.99  Motor Position:4786
State Word:27e76  Speed:1282.99  Motor Position:4991
State Word:27e76  Speed:1282.99  Motor Position:5198
State Word:27e76  Speed:1282.99  Motor Position:5402
State Word:27e76  Speed:1282.99  Motor Position:5609
State Word:27e76  Speed:1282.99  Motor Position:5814
State Word:37e76  Speed:1282.99  Motor Position:6018
State Word:27e76  Speed:1282.99  Motor Position:6182
State Word:27e76  Speed:1282.99  Motor Position:6388
State Word:27e54  Speed:820.99  Motor Position:6576
State Word:27e16  Speed:0.00  Motor Position:6628
- - Registers after stop begin - -
State Word:27e16  Speed:0.00  Motor Position:6628
- - Registers after stop end - -
