Control Word:3
Speed Begin:50
Speed End:1000
StepCount:21000
StepMode:1
- - Intial Registers begin - -
State Word:27e16  Speed:0.00  Motor Position:6680
- - Intial Registers end- -
State Word:27e24  Speed:461.00  Motor Position:-44
State Word:27e24  Speed:761.99  Motor Position:-122
State Word:27e66  Speed:999.99  Motor Position:-238
State Word:27e66  Speed:999.99  Motor Position:-367
State Word:27e66  Speed:999.99  Motor Position:-494
State Word:37e44  Speed:794.99  Motor Position:-618
State Word:37e44  Speed:154.99  Motor Position:-679
State Word:37e06  Speed:0.00  Motor Position:-681
- - Registers after stop begin - -
State Word:37e06  Speed:0.00  Motor Position:-681
- - Registers after stop end - -
