Control Word:0
Speed Begin:100
Speed End:1625
StepCount:6500
StepMode:1
- - Intial Registers begin - -
State Word:37e06  Speed:0.00  Motor Position:-657
- - Intial Registers end- -
State Word:37e34  Speed:757.99  Motor Position:74
State Word:27e34  Speed:1367.99  Motor Position:244
State Word:27e76  Speed:1624.99  Motor Position:443
State Word:27e76  Speed:1624.99  Motor Position:703
State Word:27e76  Speed:1624.99  Motor Position:912
State Word:27e76  Speed:1624.99  Motor Position:1120
State Word:27e76  Speed:1624.99  Motor Position:1326
State Word:27e76  Speed:1624.99  Motor Position:1536
State Word:27e76  Speed:1624.99  Motor Position:1742
State Word:27e76  Speed:1624.99  Motor Position:2002
State Word:27e76  Speed:1624.99  Motor Position:2210
State Word:27e76  Speed:1624.99  Motor Position:2418
State Word:27e76  Speed:1624.99  Motor Position:2626
State Word:27e76  Speed:1624.99  Motor Position:2834
State Word:27e76  Speed:1624.99  Motor Position:3041
State Word:27e76  Speed:1624.99  Motor Position:3249
State Word:27e76  Speed:1624.99  Motor Position:3457
State Word:27e76  Speed:1624.99  Motor Position:3665
State Word:27e76  Speed:1624.99  Motor Position:3873
State Word:27e76  Speed:1624.99  Motor Position:4081
State Word:27e76  Speed:1624.99  Motor Position:4341
State Word:27e76  Speed:1624.99  Motor Position:4601
State Word:27e76  Speed:1624.99  Motor Position:4809
State Word:27e76  Speed:1624.99  Motor Position:5068
State Word:27e76  Speed:1624.99  Motor Position:5277
State Word:27e76  Speed:1624.99  Motor Position:5484
State Word:27e76  Speed:1624.99  Motor Position:5744
State Word:27e76  Speed:1624.99  Motor Position:5952
State Word:27e76  Speed:1624.99  Motor Position:6158
State Word:27e76  Speed:1624.99  Motor Position:6366
State Word:27e54  Speed:1251.00  Motor Position:6566
State Word:27e54  Speed:210.99  Motor Position:6659
State Word:27e16  Speed:0.00  Motor Position:6662
- - Registers after stop begin - -
State Word:27e16  Speed:0.00  Motor Position:6662
- - Registers after stop end - -
