Control Word:0
Speed Begin:100
Speed End:2594
StepCount:6500
StepMode:1
- - Intial Registers begin - -
State Word:37e06  Speed:0.00  Motor Position:-753
- - Intial Registers end- -
State Word:27e34  Speed:1180.99  Motor Position:111
State Word:27e34  Speed:1972.99  Motor Position:311
State Word:27e76  Speed:2593.99  Motor Position:696
State Word:27e76  Speed:2593.99  Motor Position:1030
State Word:27e76  Speed:2593.99  Motor Position:1360
State Word:27e76  Speed:2593.99  Motor Position:1775
State Word:27e76  Speed:2593.99  Motor Position:2107
State Word:27e76  Speed:2593.99  Motor Position:2439
State Word:27e76  Speed:2593.99  Motor Position:2854
State Word:27e76  Speed:2593.99  Motor Position:3184
State Word:27e76  Speed:2593.99  Motor Position:3518
State Word:27e76  Speed:2593.99  Motor Position:3848
State Word:27e76  Speed:2593.99  Motor Position:4183
State Word:27e76  Speed:2593.99  Motor Position:4598
State Word:27e76  Speed:2593.99  Motor Position:4927
State Word:27e76  Speed:2593.99  Motor Position:5259
State Word:27e76  Speed:2593.99  Motor Position:5675
State Word:37e76  Speed:2593.99  Motor Position:6090
State Word:27e54  Speed:2582.00  Motor Position:6502
State Word:27e54  Speed:921.00  Motor Position:6727
State Word:27e16  Speed:0.00  Motor Position:6759
- - Registers after stop begin - -
State Word:27e16  Speed:0.00  Motor Position:6759
- - Registers after stop end - -
