State Word:7e30  Speed:828.00  Motor Position:1834400
State Word:7e72  Speed:998.99  Motor Position:1834400
State Word:7e72  Speed:998.99  Motor Position:1834400
State Word:7e72  Speed:998.99  Motor Position:1834400
State Word:7e72  Speed:998.99  Motor Position:1834400
State Word:7e72  Speed:998.99  Motor Position:1834400
State Word:7e72  Speed:998.99  Motor Position:1834400
State Word:7e72  Speed:998.99  Motor Position:1834400
State Word:7e72  Speed:998.99  Motor Position:1834400
State Word:7e72  Speed:998.99  Motor Position:1834400
State Word:7e72  Speed:998.99  Motor Position:1834400
State Word:7e72  Speed:998.99  Motor Position:1834400
State Word:7e72  Speed:998.99  Motor Position:1834400
State Word:7e72  Speed:998.99  Motor Position:1834400
State Word:7e72  Speed:998.99  Motor Position:1834400
State Word:7e72  Speed:998.99  Motor Position:1834400
State Word:7e72  Speed:998.99  Motor Position:1834400
State Word:7e72  Speed:998.99  Motor Position:1834400
State Word:7e72  Speed:998.99  Motor Position:1834400
State Word:7e72  Speed:998.99  Motor Position:1834400
State Word:27e72  Speed:998.99  Motor Position:1834400
State Word:7e72  Speed:998.99  Motor Position:1834400
State Word:7e72  Speed:998.99  Motor Position:1834400
State Word:7e72  Speed:998.99  Motor Position:1834400
State Word:7e72  Speed:998.99  Motor Position:1834400
State Word:7e72  Speed:998.99  Motor Position:1834400
State Word:7e72  Speed:998.99  Motor Position:1834400
State Word:7e72  Speed:998.99  Motor Position:1834400
State Word:7e72  Speed:998.99  Motor Position:1834400
State Word:7e72  Speed:998.99  Motor Position:1834400
State Word:7e72  Speed:998.99  Motor Position:1834400
State Word:7e72  Speed:998.99  Motor Position:1834400
State Word:7e72  Speed:998.99  Motor Position:1834400
State Word:7e72  Speed:998.99  Motor Position:1834400
State Word:7e72  Speed:998.99  Motor Position:1834400
State Word:7e72  Speed:998.99  Motor Position:1834400
State Word:7e72  Speed:998.99  Motor Position:1834400
State Word:7e72  Speed:998.99  Motor Position:1834400
State Word:7e72  Speed:998.99  Motor Position:1834400
State Word:7e50  Speed:300.99  Motor Position:1834400
State Word:7e13  Speed:0.00  Motor Position:1834400
