Control Word:0
Speed Begin:100
Speed End:200
StepCount:6020
StepMode:1
- - Intial Registers begin - -
State Word:37e06  Speed:0.00  Motor Position:-756
- - Intial Registers end- -
State Word:37e34  Speed:142.99  Motor Position:21
State Word:37e34  Speed:175.00  Motor Position:42
State Word:27e76  Speed:199.99  Motor Position:72
State Word:27e76  Speed:199.99  Motor Position:98
State Word:27e76  Speed:199.99  Motor Position:130
State Word:27e76  Speed:199.99  Motor Position:155
State Word:27e76  Speed:199.99  Motor Position:181
State Word:27e76  Speed:199.99  Motor Position:206
State Word:27e76  Speed:199.99  Motor Position:232
State Word:27e76  Speed:199.99  Motor Position:258
State Word:27e76  Speed:199.99  Motor Position:290
State Word:27e76  Speed:199.99  Motor Position:315
State Word:27e76  Speed:199.99  Motor Position:347
State Word:27e76  Speed:199.99  Motor Position:379
State Word:27e76  Speed:199.99  Motor Position:411
State Word:27e76  Speed:199.99  Motor Position:443
State Word:27e76  Speed:199.99  Motor Position:475
State Word:27e76  Speed:199.99  Motor Position:507
State Word:27e76  Speed:199.99  Motor Position:539
State Word:27e76  Speed:199.99  Motor Position:565
State Word:27e76  Speed:199.99  Motor Position:597
State Word:27e76  Speed:199.99  Motor Position:622
State Word:27e76  Speed:199.99  Motor Position:654
State Word:27e76  Speed:199.99  Motor Position:686
State Word:27e76  Speed:199.99  Motor Position:719
State Word:27e76  Speed:199.99  Motor Position:750
State Word:27e76  Speed:199.99  Motor Position:782
State Word:27e76  Speed:199.99  Motor Position:814
State Word:27e76  Speed:199.99  Motor Position:846
State Word:27e76  Speed:199.99  Motor Position:878
State Word:27e76  Speed:199.99  Motor Position:910
State Word:27e76  Speed:199.99  Motor Position:942
State Word:27e76  Speed:199.99  Motor Position:974
State Word:27e76  Speed:199.99  Motor Position:1006
State Word:27e76  Speed:199.99  Motor Position:1038
State Word:27e76  Speed:199.99  Motor Position:1070
State Word:27e76  Speed:199.99  Motor Position:1102
State Word:27e76  Speed:199.99  Motor Position:1134
State Word:27e76  Speed:199.99  Motor Position:1166
State Word:27e76  Speed:199.99  Motor Position:1198
State Word:27e76  Speed:199.99  Motor Position:1230
State Word:27e76  Speed:199.99  Motor Position:1262
State Word:27e76  Speed:199.99  Motor Position:1294
State Word:27e76  Speed:199.99  Motor Position:1326
State Word:27e76  Speed:199.99  Motor Position:1358
State Word:27e76  Speed:199.99  Motor Position:1384
State Word:27e76  Speed:199.99  Motor Position:1416
State Word:27e76  Speed:199.99  Motor Position:1448
State Word:27e76  Speed:199.99  Motor Position:1480
State Word:27e76  Speed:199.99  Motor Position:1512
State Word:27e76  Speed:199.99  Motor Position:1544
State Word:27e76  Speed:199.99  Motor Position:1576
State Word:27e76  Speed:199.99  Motor Position:1608
State Word:27e76  Speed:199.99  Motor Position:1640
State Word:27e76  Speed:199.99  Motor Position:1672
State Word:27e76  Speed:199.99  Motor Position:1697
State Word:27e76  Speed:199.99  Motor Position:1729
State Word:27e76  Speed:199.99  Motor Position:1761
State Word:27e76  Speed:199.99  Motor Position:1793
State Word:27e76  Speed:199.99  Motor Position:1825
State Word:27e76  Speed:199.99  Motor Position:1857
State Word:27e76  Speed:199.99  Motor Position:1889
State Word:27e76  Speed:199.99  Motor Position:1921
State Word:27e76  Speed:199.99  Motor Position:1953
State Word:27e76  Speed:199.99  Motor Position:1985
State Word:27e76  Speed:199.99  Motor Position:2017
State Word:27e76  Speed:199.99  Motor Position:2049
State Word:27e76  Speed:199.99  Motor Position:2081
State Word:27e76  Speed:199.99  Motor Position:2113
State Word:27e76  Speed:199.99  Motor Position:2145
State Word:27e76  Speed:199.99  Motor Position:2171
State Word:27e76  Speed:199.99  Motor Position:2203
State Word:27e76  Speed:199.99  Motor Position:2235
State Word:27e76  Speed:199.99  Motor Position:2267
State Word:27e76  Speed:199.99  Motor Position:2299
State Word:27e76  Speed:199.99  Motor Position:2331
State Word:27e76  Speed:199.99  Motor Position:2363
State Word:27e76  Speed:199.99  Motor Position:2395
State Word:27e76  Speed:199.99  Motor Position:2427
State Word:27e76  Speed:199.99  Motor Position:2459
State Word:27e76  Speed:199.99  Motor Position:2491
State Word:27e76  Speed:199.99  Motor Position:2522
State Word:27e76  Speed:199.99  Motor Position:2555
State Word:27e76  Speed:199.99  Motor Position:2586
State Word:27e76  Speed:199.99  Motor Position:2618
State Word:27e76  Speed:199.99  Motor Position:2650
State Word:27e76  Speed:199.99  Motor Position:2682
State Word:27e76  Speed:199.99  Motor Position:2714
State Word:27e76  Speed:199.99  Motor Position:2746
State Word:27e76  Speed:199.99  Motor Position:2778
State Word:27e76  Speed:199.99  Motor Position:2811
State Word:27e76  Speed:199.99  Motor Position:2843
State Word:27e76  Speed:199.99  Motor Position:2874
State Word:27e76  Speed:199.99  Motor Position:2906
State Word:27e76  Speed:199.99  Motor Position:2938
State Word:27e76  Speed:199.99  Motor Position:2970
State Word:27e76  Speed:199.99  Motor Position:3002
State Word:27e76  Speed:199.99  Motor Position:3034
State Word:27e76  Speed:199.99  Motor Position:3066
State Word:27e76  Speed:199.99  Motor Position:3098
State Word:27e76  Speed:199.99  Motor Position:3130
State Word:27e76  Speed:199.99  Motor Position:3162
State Word:27e76  Speed:199.99  Motor Position:3194
State Word:27e76  Speed:199.99  Motor Position:3226
State Word:27e76  Speed:199.99  Motor Position:3258
State Word:27e76  Speed:199.99  Motor Position:3290
State Word:27e76  Speed:199.99  Motor Position:3322
State Word:27e76  Speed:199.99  Motor Position:3354
State Word:27e76  Speed:199.99  Motor Position:3386
State Word:27e76  Speed:199.99  Motor Position:3418
State Word:27e76  Speed:199.99  Motor Position:3450
State Word:27e76  Speed:199.99  Motor Position:3482
State Word:27e76  Speed:199.99  Motor Position:3508
State Word:27e76  Speed:199.99  Motor Position:3540
State Word:27e76  Speed:199.99  Motor Position:3572
State Word:27e76  Speed:199.99  Motor Position:3604
State Word:27e76  Speed:199.99  Motor Position:3636
State Word:27e76  Speed:199.99  Motor Position:3668
State Word:27e76  Speed:199.99  Motor Position:3693
State Word:27e76  Speed:199.99  Motor Position:3719
State Word:27e76  Speed:199.99  Motor Position:3751
State Word:27e76  Speed:199.99  Motor Position:3783
State Word:27e76  Speed:199.99  Motor Position:3815
State Word:27e76  Speed:199.99  Motor Position:3847
State Word:27e76  Speed:199.99  Motor Position:3879
State Word:27e76  Speed:199.99  Motor Position:3904
State Word:27e76  Speed:199.99  Motor Position:3936
State Word:27e76  Speed:199.99  Motor Position:3968
State Word:27e76  Speed:199.99  Motor Position:4000
State Word:27e76  Speed:199.99  Motor Position:4032
State Word:27e76  Speed:199.99  Motor Position:4064
State Word:27e76  Speed:199.99  Motor Position:4096
State Word:27e76  Speed:199.99  Motor Position:4128
State Word:27e76  Speed:199.99  Motor Position:4160
State Word:27e76  Speed:199.99  Motor Position:4186
State Word:27e76  Speed:199.99  Motor Position:4211
State Word:27e76  Speed:199.99  Motor Position:4243
State Word:27e76  Speed:199.99  Motor Position:4269
State Word:27e76  Speed:199.99  Motor Position:4295
State Word:27e76  Speed:199.99  Motor Position:4327
State Word:27e76  Speed:199.99  Motor Position:4352
State Word:27e76  Speed:199.99  Motor Position:4384
State Word:27e76  Speed:199.99  Motor Position:4416
State Word:27e76  Speed:199.99  Motor Position:4448
State Word:27e76  Speed:199.99  Motor Position:4480
State Word:27e76  Speed:199.99  Motor Position:4512
State Word:27e76  Speed:199.99  Motor Position:4544
State Word:27e76  Speed:199.99  Motor Position:4576
State Word:27e76  Speed:199.99  Motor Position:4602
State Word:27e76  Speed:199.99  Motor Position:4634
State Word:27e76  Speed:199.99  Motor Position:4666
State Word:27e76  Speed:199.99  Motor Position:4698
State Word:27e76  Speed:199.99  Motor Position:4730
State Word:27e76  Speed:199.99  Motor Position:4762
State Word:27e76  Speed:199.99  Motor Position:4794
State Word:27e76  Speed:199.99  Motor Position:4826
State Word:27e76  Speed:199.99  Motor Position:4858
State Word:27e76  Speed:199.99  Motor Position:4890
State Word:27e76  Speed:199.99  Motor Position:4921
State Word:27e76  Speed:199.99  Motor Position:4947
State Word:27e76  Speed:199.99  Motor Position:4979
State Word:27e76  Speed:199.99  Motor Position:5011
State Word:27e76  Speed:199.99  Motor Position:5043
State Word:27e76  Speed:199.99  Motor Position:5075
State Word:27e76  Speed:199.99  Motor Position:5107
State Word:27e76  Speed:199.99  Motor Position:5139
State Word:27e76  Speed:199.99  Motor Position:5171
State Word:27e76  Speed:199.99  Motor Position:5203
State Word:27e76  Speed:199.99  Motor Position:5235
State Word:27e76  Speed:199.99  Motor Position:5267
State Word:27e76  Speed:199.99  Motor Position:5299
State Word:27e76  Speed:199.99  Motor Position:5331
State Word:27e76  Speed:199.99  Motor Position:5363
State Word:27e76  Speed:199.99  Motor Position:5395
State Word:27e76  Speed:199.99  Motor Position:5427
State Word:27e76  Speed:199.99  Motor Position:5459
State Word:27e76  Speed:199.99  Motor Position:5491
State Word:27e76  Speed:199.99  Motor Position:5523
State Word:27e76  Speed:199.99  Motor Position:5555
State Word:27e76  Speed:199.99  Motor Position:5587
State Word:27e76  Speed:199.99  Motor Position:5619
State Word:27e76  Speed:199.99  Motor Position:5651
State Word:27e76  Speed:199.99  Motor Position:5683
State Word:27e76  Speed:199.99  Motor Position:5715
State Word:27e76  Speed:199.99  Motor Position:5747
State Word:27e76  Speed:199.99  Motor Position:5779
State Word:27e76  Speed:199.99  Motor Position:5811
State Word:27e76  Speed:199.99  Motor Position:5843
State Word:27e76  Speed:199.99  Motor Position:5875
State Word:27e76  Speed:199.99  Motor Position:5907
State Word:37e76  Speed:199.99  Motor Position:5933
State Word:37e76  Speed:199.99  Motor Position:5965
State Word:37e76  Speed:199.99  Motor Position:5997
State Word:37e54  Speed:155.99  Motor Position:6027
State Word:37e16  Speed:0.00  Motor Position:6034
- - Registers after stop begin - -
State Word:37e16  Speed:0.00  Motor Position:6034
- - Registers after stop end - -
